PD4/testbench.vcd
$date
	Sat Jun 20 00:20:46 2020
$end
$version
	Icarus Verilog
$end
$timescale
	1s
$end
$scope module dut $end
$var wire 32 ! wb [31:0] $end
$var wire 32 " imm [31:0] $end
$var wire 32 # i_mem_out [31:0] $end
$var wire 32 $ data_rs2 [31:0] $end
$var wire 32 % data_rs1 [31:0] $end
$var wire 32 & d_mem_out [31:0] $end
$var wire 5 ' addr_rs2 [4:0] $end
$var wire 5 ( addr_rs1 [4:0] $end
$var wire 5 ) addr_rd [4:0] $end
$var wire 2 * access_size [1:0] $end
$var wire 2 + WBSel [1:0] $end
$var wire 1 , RegWE $end
$var wire 1 - RdUn $end
$var wire 32 . PC_next [31:0] $end
$var wire 1 / PCSel $end
$var wire 32 0 PC [31:0] $end
$var wire 1 1 MemRW $end
$var wire 1 2 BrUn $end
$var wire 1 3 BrLt $end
$var wire 1 4 BrEq $end
$var wire 1 5 BSel $end
$var wire 1 6 ASel $end
$var wire 32 7 ALU_out [31:0] $end
$var wire 32 8 ALU_in2 [31:0] $end
$var wire 32 9 ALU_in1 [31:0] $end
$var wire 4 : ALUSel [3:0] $end
$var reg 1 ; clk $end
$var reg 32 < instruction [31:0] $end
$scope module PCMux $end
$var wire 1 ; clk $end
$var wire 1 / PCSel $end
$var wire 32 = ALU_out [31:0] $end
$var reg 32 > PC [31:0] $end
$var reg 32 ? PC_next [31:0] $end
$upscope $end
$scope module WBMux1 $end
$var wire 1 ; clk $end
$var wire 32 @ pc_next [31:0] $end
$var wire 2 A sel [1:0] $end
$var wire 32 B dmem [31:0] $end
$var wire 32 C alu [31:0] $end
$var reg 32 D out [31:0] $end
$upscope $end
$scope module alu1 $end
$var wire 32 E rs1 [31:0] $end
$var wire 32 F rs2 [31:0] $end
$var wire 4 G ALUsel [3:0] $end
$var reg 32 H alu_res [31:0] $end
$upscope $end
$scope module d_mem $end
$var wire 32 I address [31:0] $end
$var wire 1 ; clk $end
$var wire 1 1 w_enable $end
$var wire 32 J data_in [31:0] $end
$var wire 2 K access_size [1:0] $end
$var wire 1 - RdUn $end
$var reg 32 L data_out [31:0] $end
$var reg 32 M relevant_addr [31:0] $end
$var reg 32 N t_reg [31:0] $end
$var integer 32 O i [31:0] $end
$upscope $end
$scope module fd1 $end
$var wire 1 4 BrEq $end
$var wire 1 3 BrLt $end
$var wire 32 P PC [31:0] $end
$var wire 1 ; clk $end
$var wire 32 Q instruction [31:0] $end
$var wire 7 R opcode [6:0] $end
$var wire 7 S funct7 [6:0] $end
$var wire 3 T funct3 [2:0] $end
$var wire 5 U addr_rs2 [4:0] $end
$var wire 5 V addr_rs1 [4:0] $end
$var wire 5 W addr_rd [4:0] $end
$var wire 1 2 BrUn $end
$var reg 4 X ALUSel [3:0] $end
$var reg 1 6 ASel $end
$var reg 1 5 BSel $end
$var reg 1 1 MemRW $end
$var reg 1 / PCSel $end
$var reg 1 - RdUn $end
$var reg 1 , RegWE $end
$var reg 2 Y WBSel [1:0] $end
$var reg 2 Z access_size [1:0] $end
$var reg 32 [ imm [31:0] $end
$scope task decode_bType $end
$upscope $end
$scope task decode_iType $end
$upscope $end
$scope task decode_jType $end
$upscope $end
$scope task decode_rType $end
$upscope $end
$scope task decode_sType $end
$upscope $end
$scope task decode_uType $end
$upscope $end
$upscope $end
$scope module i_mem $end
$var wire 1 \ RdUn $end
$var wire 2 ] access_size [1:0] $end
$var wire 32 ^ address [31:0] $end
$var wire 1 ; clk $end
$var wire 32 _ data_in [31:0] $end
$var wire 1 ` w_enable $end
$var reg 32 a data_out [31:0] $end
$var reg 32 b relevant_addr [31:0] $end
$var reg 32 c t_reg [31:0] $end
$var integer 32 d i [31:0] $end
$upscope $end
$scope module reg_file $end
$var wire 5 e addr_rd [4:0] $end
$var wire 5 f addr_rs1 [4:0] $end
$var wire 5 g addr_rs2 [4:0] $end
$var wire 1 ; clk $end
$var wire 32 h data_rd [31:0] $end
$var wire 32 i data_rs1 [31:0] $end
$var wire 32 j data_rs2 [31:0] $end
$var wire 1 , write_enable $end
$var integer 32 k i [31:0] $end
$upscope $end
$upscope $end
$enddefinitions $end
#0
$dumpvars
b100000 k
bx j
bx i
bx h
bx g
bx f
bx e
b100000000000000000001 d
bx c
b1000000000000000001000100 b
b11111110000000010000000100010011 a
0`
b0 _
b1000000000000000000000000 ^
b10 ]
0\
bx [
b0 Z
b1 Y
b0 X
bx W
bx V
bx U
bx T
bx S
bx R
bx Q
b111111111111111111111100 P
b100000000000000000001 O
bx N
b1000000000000000001000100 M
bx L
b0 K
bx J
bx I
bx H
b0 G
bx F
bx E
bx D
bx C
bx B
b1 A
b1000000000000000000000000 @
b1000000000000000000000000 ?
b111111111111111111111100 >
bx =
bx <
0;
b0 :
bx 9
bx 8
bx 7
x6
x5
x4
x3
x2
x1
b111111111111111111111100 0
1/
b1000000000000000000000000 .
0-
x,
b1 +
b0 *
bx )
bx (
bx '
bx &
bx %
bx $
b11111110000000010000000100010011 #
bx "
bx !
$end
#5
b1000000010001000011110001 !
b1000000010001000011110001 D
b1000000010001000011110001 h
b100010010111000100011 #
b100010010111000100011 a
b0 &
b0 B
b0 L
b1000000010001000011110001 7
b1000000010001000011110001 =
b1000000010001000011110001 C
b1000000010001000011110001 H
b1000000010001000011110001 I
b11111111111111111111111111100000 8
b11111111111111111111111111100000 F
b1000000000000000000000100 .
b1000000000000000000000100 ?
b1000000000000000000000100 ^
1,
01
05
16
b11111111111111111111111111100000 "
b11111111111111111111111111100000 [
02
03
b1000000010001000100010001 9
b1000000010001000100010001 E
b10011 R
b10 )
b10 W
b10 e
b0 T
04
b1000000010001000100010001 %
b1000000010001000100010001 i
b10 (
b10 V
b10 f
b0 $
b0 J
b0 j
b0 '
b0 U
b0 g
b1111111 S
b1000000000000000000000100 @
b1000000000000000000000000 0
b1000000000000000000000000 >
b1000000000000000000000000 P
b11111110000000010000000100010011 <
b11111110000000010000000100010011 Q
1;
#10
0;
#15
b1011110110111 #
b1011110110111 a
b11100 8
b11100 F
b0 !
b0 D
b0 h
b0 +
b0 A
b0 Y
0,
11
b1000000000000000000001000 .
b1000000000000000000001000 ?
b1000000000000000000001000 ^
b11100 "
b11100 [
b10 *
b10 K
b10 Z
b1000000010001000100001101 7
b1000000010001000100001101 =
b1000000010001000100001101 C
b1000000010001000100001101 H
b1000000010001000100001101 I
b100011 R
b11100 )
b11100 W
b11100 e
b10 T
b1 $
b1 J
b1 j
b1 '
b1 U
b1 g
b0 S
b1000000010001000011110001 9
b1000000010001000011110001 E
b100010010111000100011 <
b100010010111000100011 Q
b1000000010001000011110001 %
b1000000010001000011110001 i
b1000000000000000000001000 @
b1000000000000000000000100 0
b1000000000000000000000100 >
b1000000000000000000000100 P
1;
#20
0;
#25
b10000000000001111000011110010011 #
b10000000000001111000011110010011 a
b1000000000000 !
b1000000000000 D
b1000000000000 h
b1000000000000 8
b1000000000000 F
b10111010110110111010110111111111 &
b10111010110110111010110111111111 B
b10111010110110111010110111111111 L
b1000000000000000000001100 .
b1000000000000000000001100 ?
b1000000000000000000001100 ^
b1 +
b1 A
b1 Y
1,
01
b1011 :
b1011 G
b1011 X
b1000000000000 "
b1000000000000 [
b1000000000000 7
b1000000000000 =
b1000000000000 C
b1000000000000 H
b1000000000000 I
b0 9
b0 E
b110111 R
b1111 )
b1111 W
b1111 e
b1 T
14
b0 %
b0 i
b0 (
b0 V
b0 f
b0 $
b0 J
b0 j
b0 '
b0 U
b0 g
b1000000000000000000001100 @
b1000000000000000000001000 0
b1000000000000000000001000 >
b1000000000000000000001000 P
b1011110110111 <
b1011110110111 Q
1;
#30
0;
#35
b100000000000 !
b100000000000 D
b100000000000 h
b111100010010011000100011 #
b111100010010011000100011 a
b100000000000 7
b100000000000 =
b100000000000 C
b100000000000 H
b100000000000 I
b11111111111111111111100000000000 8
b11111111111111111111100000000000 F
b0 :
b0 G
b0 X
b1000000000000000000010000 .
b1000000000000000000010000 ?
b1000000000000000000010000 ^
b11111111111111111111100000000000 "
b11111111111111111111100000000000 [
b1000000000000 9
b1000000000000 E
b10011 R
b0 T
04
b1000000000000 %
b1000000000000 i
b1111 (
b1111 V
b1111 f
b1000000 S
b10000000000001111000011110010011 <
b10000000000001111000011110010011 Q
b1000000000000000000010000 @
b1000000000000000000001100 0
b1000000000000000000001100 >
b1000000000000000000001100 P
1;
#40
0;
#45
b111110000000000011110010011 #
b111110000000000011110010011 a
b1100 8
b1100 F
b0 !
b0 D
b0 h
b0 &
b0 B
b0 L
b1000000000000000000010100 .
b1000000000000000000010100 ?
b1000000000000000000010100 ^
b0 +
b0 A
b0 Y
0,
11
b1100 "
b1100 [
b1000000010001000011111101 7
b1000000010001000011111101 =
b1000000010001000011111101 C
b1000000010001000011111101 H
b1000000010001000011111101 I
b1000000010001000011110001 9
b1000000010001000011110001 E
b100011 R
b1100 )
b1100 W
b1100 e
b10 T
b10 (
b10 V
b10 f
04
b100000000000 $
b100000000000 J
b100000000000 j
b1111 '
b1111 U
b1111 g
b0 S
b1000000000000000000010100 @
b1000000000000000000010000 0
b1000000000000000000010000 >
b1000000000000000000010000 P
b1000000010001000011110001 %
b1000000010001000011110001 i
b111100010010011000100011 <
b111100010010011000100011 Q
1;
#50
0;
#55
b1111100 !
b1111100 D
b1111100 h
b111100010010010000100011 #
b111100010010010000100011 a
b1111100 8
b1111100 F
b10111010110110111010110111111111 &
b10111010110110111010110111111111 B
b10111010110110111010110111111111 L
b1 +
b1 A
b1 Y
1,
01
b1000000000000000000011000 .
b1000000000000000000011000 ?
b1000000000000000000011000 ^
b1111100 "
b1111100 [
b1111100 7
b1111100 =
b1111100 C
b1111100 H
b1111100 I
13
b0 9
b0 E
b10011 R
b1111 )
b1111 W
b1111 e
b0 T
b0 %
b0 i
b0 (
b0 V
b0 f
b11100 $
b11100 J
b11100 j
b11100 '
b11100 U
b11100 g
b11 S
b111110000000000011110010011 <
b111110000000000011110010011 Q
b1000000000000000000011000 @
b1000000000000000000010100 0
b1000000000000000000010100 >
b1000000000000000000010100 P
1;
#60
0;
#65
b110000010010011110000011 #
b110000010010011110000011 a
b1000 8
b1000 F
b0 !
b0 D
b0 h
b0 &
b0 B
b0 L
b1000000000000000000011100 .
b1000000000000000000011100 ?
b1000000000000000000011100 ^
b0 +
b0 A
b0 Y
0,
11
b1000 "
b1000 [
b1000000010001000011111001 7
b1000000010001000011111001 =
b1000000010001000011111001 C
b1000000010001000011111001 H
b1000000010001000011111001 I
03
b1000000010001000011110001 9
b1000000010001000011110001 E
b100011 R
b1000 )
b1000 W
b1000 e
b10 T
b1000000010001000011110001 %
b1000000010001000011110001 i
b10 (
b10 V
b10 f
b1111100 $
b1111100 J
b1111100 j
b1111 '
b1111 U
b1111 g
b0 S
b1000000000000000000011100 @
b1000000000000000000011000 0
b1000000000000000000011000 >
b1000000000000000000011000 P
b111100010010010000100011 <
b111100010010010000100011 Q
1;
#70
0;
#75
b100000000000 !
b100000000000 D
b100000000000 h
b100000000000 &
b100000000000 B
b100000000000 L
b1000001111101111101011110010011 #
b1000001111101111101011110010011 a
b1000000010001000011111101 7
b1000000010001000011111101 =
b1000000010001000011111101 C
b1000000010001000011111101 H
b1000000010001000011111101 I
b1100 8
b1100 F
1,
01
b1000000000000000000100000 .
b1000000000000000000100000 ?
b1000000000000000000100000 ^
b1100 "
b1100 [
b11 R
b1111 )
b1111 W
b1111 e
b1100 $
b1100 J
b1100 j
b1100 '
b1100 U
b1100 g
b110000010010011110000011 <
b110000010010011110000011 Q
b1000000000000000000100000 @
b1000000000000000000011100 0
b1000000000000000000011100 >
b1000000000000000000011100 P
1;
#80
0;
#85
b110000010010011100000011 #
b110000010010011100000011 a
b0 !
b0 D
b0 h
b10000011111 8
b10000011111 F
b10111010110110111010110111111111 &
b10111010110110111010110111111111 B
b10111010110110111010110111111111 L
b1000000000000000000100100 .
b1000000000000000000100100 ?
b1000000000000000000100100 ^
b101 :
b101 G
b101 X
b1 +
b1 A
b1 Y
b10000011111 "
b10000011111 [
b0 7
b0 =
b0 C
b0 H
b0 I
b100000000000 9
b100000000000 E
b10011 R
b101 T
b100000000000 %
b100000000000 i
b1111 (
b1111 V
b1111 f
b11111 $
b11111 J
b11111 j
b11111 '
b11111 U
b11111 g
b100000 S
b1000000000000000000100100 @
b1000000000000000000100000 0
b1000000000000000000100000 >
b1000000000000000000100000 P
b1000001111101111101011110010011 <
b1000001111101111101011110010011 Q
1;
#90
0;
#95
b100000000000 &
b100000000000 B
b100000000000 L
b100000000000 !
b100000000000 D
b100000000000 h
b111101110100011100110011 #
b111101110100011100110011 a
b1000000010001000011111101 7
b1000000010001000011111101 =
b1000000010001000011111101 C
b1000000010001000011111101 H
b1000000010001000011111101 I
b1100 8
b1100 F
b0 +
b0 A
b0 Y
b0 :
b0 G
b0 X
b1000000000000000000101000 .
b1000000000000000000101000 ?
b1000000000000000000101000 ^
b1100 "
b1100 [
b11 R
b1110 )
b1110 W
b1110 e
b10 T
b10 (
b10 V
b10 f
b1100 $
b1100 J
b1100 j
b1100 '
b1100 U
b1100 g
b0 S
03
b1000000010001000011110001 9
b1000000010001000011110001 E
b110000010010011100000011 <
b110000010010011100000011 Q
b1000000010001000011110001 %
b1000000010001000011110001 i
b1000000000000000000101000 @
b1000000000000000000100100 0
b1000000000000000000100100 >
b1000000000000000000100100 P
1;
#100
0;
#105
b1000000111101110000011110110011 #
b1000000111101110000011110110011 a
b100000000000 !
b100000000000 D
b100000000000 h
b0 8
b0 F
b10111010110110111010110111111111 &
b10111010110110111010110111111111 B
b10111010110110111010110111111111 L
b1000000000000000000101100 .
b1000000000000000000101100 ?
b1000000000000000000101100 ^
b1000 :
b1000 G
b1000 X
b1 +
b1 A
b1 Y
15
b100000000000 7
b100000000000 =
b100000000000 C
b100000000000 H
b100000000000 I
b100000000000 9
b100000000000 E
b110011 R
b100 T
b100000000000 %
b100000000000 i
b1110 (
b1110 V
b1110 f
b0 $
b0 J
b0 j
b1111 '
b1111 U
b1111 g
b1000000000000000000101100 @
b1000000000000000000101000 0
b1000000000000000000101000 >
b1000000000000000000101000 P
b111101110100011100110011 <
b111101110100011100110011 Q
1;
#110
0;
#115
b111100010010011000100011 #
b111100010010011000100011 a
b111 :
b111 G
b111 X
b1000000000000000000110000 .
b1000000000000000000110000 ?
b1000000000000000000110000 ^
b1111 )
b1111 W
b1111 e
b0 T
b100000 S
b1000000111101110000011110110011 <
b1000000111101110000011110110011 Q
b1000000000000000000110000 @
b1000000000000000000101100 0
b1000000000000000000101100 >
b1000000000000000000101100 P
1;
#120
0;
#125
b100000010010011110000011 #
b100000010010011110000011 a
b100000000000 !
b100000000000 D
b100000000000 h
b100000000000 &
b100000000000 B
b100000000000 L
b1000000000000000000110100 .
b1000000000000000000110100 ?
b1000000000000000000110100 ^
b0 +
b0 A
b0 Y
0,
11
b0 :
b0 G
b0 X
05
b1000000010001000011111101 7
b1000000010001000011111101 =
b1000000010001000011111101 C
b1000000010001000011111101 H
b1000000010001000011111101 I
b1000000010001000011110001 9
b1000000010001000011110001 E
b1100 8
b1100 F
b100011 R
b1100 )
b1100 W
b1100 e
b10 T
b1000000010001000011110001 %
b1000000010001000011110001 i
b10 (
b10 V
b10 f
b0 S
b1000000000000000000110100 @
b1000000000000000000110000 0
b1000000000000000000110000 >
b1000000000000000000110000 P
04
b100000000000 $
b100000000000 J
b100000000000 j
b111100010010011000100011 <
b111100010010011000100011 Q
1;
#130
0;
#135
b1111100 !
b1111100 D
b1111100 h
b1111100 &
b1111100 B
b1111100 L
b1000001111101111101011110010011 #
b1000001111101111101011110010011 a
b1000000010001000011111001 7
b1000000010001000011111001 =
b1000000010001000011111001 C
b1000000010001000011111001 H
b1000000010001000011111001 I
b1000 8
b1000 F
1,
01
b1000000000000000000111000 .
b1000000000000000000111000 ?
b1000000000000000000111000 ^
b1000 "
b1000 [
b11 R
b1111 )
b1111 W
b1111 e
b1000 $
b1000 J
b1000 j
b1000 '
b1000 U
b1000 g
b100000010010011110000011 <
b100000010010011110000011 Q
b1000000000000000000111000 @
b1000000000000000000110100 0
b1000000000000000000110100 >
b1000000000000000000110100 P
1;
#140
0;
#145
b100000010010011100000011 #
b100000010010011100000011 a
b0 !
b0 D
b0 h
b10000011111 8
b10000011111 F
b10111010110110111010110111111111 &
b10111010110110111010110111111111 B
b10111010110110111010110111111111 L
b1000000000000000000111100 .
b1000000000000000000111100 ?
b1000000000000000000111100 ^
b101 :
b101 G
b101 X
b1 +
b1 A
b1 Y
b10000011111 "
b10000011111 [
b0 7
b0 =
b0 C
b0 H
b0 I
b1111100 9
b1111100 E
b10011 R
b101 T
b1111100 %
b1111100 i
b1111 (
b1111 V
b1111 f
b11111 $
b11111 J
b11111 j
b11111 '
b11111 U
b11111 g
b100000 S
b1000000000000000000111100 @
b1000000000000000000111000 0
b1000000000000000000111000 >
b1000000000000000000111000 P
b1000001111101111101011110010011 <
b1000001111101111101011110010011 Q
1;
#150
0;
#155
b1111100 &
b1111100 B
b1111100 L
b1111100 !
b1111100 D
b1111100 h
b111101110100011100110011 #
b111101110100011100110011 a
b1000000010001000011111001 7
b1000000010001000011111001 =
b1000000010001000011111001 C
b1000000010001000011111001 H
b1000000010001000011111001 I
b1000 8
b1000 F
b0 +
b0 A
b0 Y
b0 :
b0 G
b0 X
b1000000000000000001000000 .
b1000000000000000001000000 ?
b1000000000000000001000000 ^
b1000 "
b1000 [
b11 R
b1110 )
b1110 W
b1110 e
b10 T
b10 (
b10 V
b10 f
b1000 $
b1000 J
b1000 j
b1000 '
b1000 U
b1000 g
b0 S
03
b1000000010001000011110001 9
b1000000010001000011110001 E
b100000010010011100000011 <
b100000010010011100000011 Q
b1000000010001000011110001 %
b1000000010001000011110001 i
b1000000000000000001000000 @
b1000000000000000000111100 0
b1000000000000000000111100 >
b1000000000000000000111100 P
1;
#160
0;
#165
b1000000111101110000011110110011 #
b1000000111101110000011110110011 a
b1111100 !
b1111100 D
b1111100 h
b0 8
b0 F
b10111010110110111010110111111111 &
b10111010110110111010110111111111 B
b10111010110110111010110111111111 L
b1000000000000000001000100 .
b1000000000000000001000100 ?
b1000000000000000001000100 ^
b1000 :
b1000 G
b1000 X
b1 +
b1 A
b1 Y
15
b1111100 7
b1111100 =
b1111100 C
b1111100 H
b1111100 I
b1111100 9
b1111100 E
b110011 R
b100 T
b1111100 %
b1111100 i
b1110 (
b1110 V
b1110 f
b0 $
b0 J
b0 j
b1111 '
b1111 U
b1111 g
b1000000000000000001000100 @
b1000000000000000001000000 0
b1000000000000000001000000 >
b1000000000000000001000000 P
b111101110100011100110011 <
b111101110100011100110011 Q
1;
#170
0;
#175
b111100010010010000100011 #
b111100010010010000100011 a
b111 :
b111 G
b111 X
b1000000000000000001001000 .
b1000000000000000001001000 ?
b1000000000000000001001000 ^
b1111 )
b1111 W
b1111 e
b0 T
b100000 S
b1000000111101110000011110110011 <
b1000000111101110000011110110011 Q
b1000000000000000001001000 @
b1000000000000000001000100 0
b1000000000000000001000100 >
b1000000000000000001000100 P
1;
#180
0;
#185
b11010000000000000001101111 #
b11010000000000000001101111 a
b1111100 !
b1111100 D
b1111100 h
b1111100 &
b1111100 B
b1111100 L
b1000000000000000001001100 .
b1000000000000000001001100 ?
b1000000000000000001001100 ^
b0 +
b0 A
b0 Y
0,
11
b0 :
b0 G
b0 X
05
b1000000010001000011111001 7
b1000000010001000011111001 =
b1000000010001000011111001 C
b1000000010001000011111001 H
b1000000010001000011111001 I
b1000000010001000011110001 9
b1000000010001000011110001 E
b1000 8
b1000 F
b100011 R
b1000 )
b1000 W
b1000 e
b10 T
b1000000010001000011110001 %
b1000000010001000011110001 i
b10 (
b10 V
b10 f
b0 S
b1000000000000000001001100 @
b1000000000000000001001000 0
b1000000000000000001001000 >
b1000000000000000001001000 P
04
b1111100 $
b1111100 J
b1111100 j
b111100010010010000100011 <
b111100010010010000100011 Q
1;
#190
0;
#195
b1000000000000000001010000 !
b1000000000000000001010000 D
b1000000000000000001010000 h
b110000010010011100000011 #
b110000010010011100000011 a
b110100 8
b110100 F
b110000010010011100000011 &
b110000010010011100000011 B
b110000010010011100000011 L
b10 +
b10 A
b10 Y
1,
01
b1100 :
b1100 G
b1100 X
06
0/
b1000000000000000010000000 .
b1000000000000000010000000 ?
b1000000000000000010000000 ^
b110100 "
b110100 [
b1000000000000000010000000 7
b1000000000000000010000000 =
b1000000000000000010000000 C
b1000000000000000010000000 H
b1000000000000000010000000 I
13
b1000000000000000001001100 9
b1000000000000000001001100 E
b1101111 R
b0 )
b0 W
b0 e
b0 T
b0 %
b0 i
b0 (
b0 V
b0 f
b10100 $
b10100 J
b10100 j
b10100 '
b10100 U
b10100 g
b1 S
b11010000000000000001101111 <
b11010000000000000001101111 Q
b1000000000000000001010000 @
b1000000000000000001001100 0
b1000000000000000001001100 >
b1000000000000000001001100 P
1;
#200
0;
#205
b100000010010011110000011 #
b100000010010011110000011 a
b1100 8
b1100 F
b1000000000000000010000100 .
b1000000000000000010000100 ?
b1000000000000000010000100 ^
b100000000000 &
b100000000000 B
b100000000000 L
b100000000000 !
b100000000000 D
b100000000000 h
b0 +
b0 A
b0 Y
b0 :
b0 G
b0 X
16
1/
b1100 "
b1100 [
b1000000010001000011111101 7
b1000000010001000011111101 =
b1000000010001000011111101 C
b1000000010001000011111101 H
b1000000010001000011111101 I
03
b1000000010001000011110001 9
b1000000010001000011110001 E
b11 R
b1110 )
b1110 W
b1110 e
b10 T
b1000000010001000011110001 %
b1000000010001000011110001 i
b10 (
b10 V
b10 f
b1100 $
b1100 J
b1100 j
b1100 '
b1100 U
b1100 g
b0 S
b1000000000000000010000100 @
b1000000000000000010000000 0
b1000000000000000010000000 >
b1000000000000000010000000 P
b110000010010011100000011 <
b110000010010011100000011 Q
1;
#210
0;
#215
b1111100 !
b1111100 D
b1111100 h
b1111100 &
b1111100 B
b1111100 L
b11111100111101110001010011100011 #
b11111100111101110001010011100011 a
b1000000010001000011111001 7
b1000000010001000011111001 =
b1000000010001000011111001 C
b1000000010001000011111001 H
b1000000010001000011111001 I
b1000 8
b1000 F
b1000000000000000010001000 .
b1000000000000000010001000 ?
b1000000000000000010001000 ^
b1000 "
b1000 [
b1111 )
b1111 W
b1111 e
b1000 $
b1000 J
b1000 j
b1000 '
b1000 U
b1000 g
b100000010010011110000011 <
b100000010010011110000011 Q
b1000000000000000010001000 @
b1000000000000000010000100 0
b1000000000000000010000100 >
b1000000000000000010000100 P
1;
#220
0;
#225
b110000010010011100000011 !
b110000010010011100000011 D
b110000010010011100000011 h
b110000010010011100000011 #
b110000010010011100000011 a
b11111111111111111111111111001000 8
b11111111111111111111111111001000 F
b110000010010011100000011 &
b110000010010011100000011 B
b110000010010011100000011 L
b1000000000000000001010000 .
b1000000000000000001010000 ?
b1000000000000000001010000 ^
0/
0,
06
b11111111111111111111111111001000 "
b11111111111111111111111111001000 [
b1000000000000000001010000 7
b1000000000000000001010000 =
b1000000000000000001010000 C
b1000000000000000001010000 H
b1000000000000000001010000 I
b1000000000000000010001000 9
b1000000000000000010001000 E
b1100011 R
b1001 )
b1001 W
b1001 e
b1 T
b100000000000 %
b100000000000 i
b1110 (
b1110 V
b1110 f
b1111100 $
b1111100 J
b1111100 j
b1111 '
b1111 U
b1111 g
b1111110 S
b1000000000000000010001100 @
b1000000000000000010001000 0
b1000000000000000010001000 >
b1000000000000000010001000 P
b11111100111101110001010011100011 <
b11111100111101110001010011100011 Q
1;
#230
0;
#235
b100000010010011110000011 #
b100000010010011110000011 a
b100000000000 !
b100000000000 D
b100000000000 h
b1100 8
b1100 F
b1000000000000000001010100 .
b1000000000000000001010100 ?
b1000000000000000001010100 ^
b100000000000 &
b100000000000 B
b100000000000 L
1,
16
1/
b1100 "
b1100 [
b1000000010001000011111101 7
b1000000010001000011111101 =
b1000000010001000011111101 C
b1000000010001000011111101 H
b1000000010001000011111101 I
b11 R
b1110 )
b1110 W
b1110 e
b10 T
b1000000010001000011110001 %
b1000000010001000011110001 i
b10 (
b10 V
b10 f
b1100 $
b1100 J
b1100 j
b1100 '
b1100 U
b1100 g
b0 S
b1000000010001000011110001 9
b1000000010001000011110001 E
b110000010010011100000011 <
b110000010010011100000011 Q
b1000000000000000001010100 @
b1000000000000000001010000 0
b1000000000000000001010000 >
b1000000000000000001010000 P
1;
#240
0;
#245
b1111100 !
b1111100 D
b1111100 h
b1111100 &
b1111100 B
b1111100 L
b111001111101110001100011 #
b111001111101110001100011 a
b1000000010001000011111001 7
b1000000010001000011111001 =
b1000000010001000011111001 C
b1000000010001000011111001 H
b1000000010001000011111001 I
b1000 8
b1000 F
b1000000000000000001011000 .
b1000000000000000001011000 ?
b1000000000000000001011000 ^
b1000 "
b1000 [
b1111 )
b1111 W
b1111 e
b1000 $
b1000 J
b1000 j
b1000 '
b1000 U
b1000 g
b1000000000000000001011000 @
b1000000000000000001010100 0
b1000000000000000001010100 >
b1000000000000000001010100 P
b100000010010011110000011 <
b100000010010011110000011 Q
1;
#250
0;
#255
b100000010010011100000011 !
b100000010010011100000011 D
b100000010010011100000011 h
b110000010010011100000011 #
b110000010010011100000011 a
b11000 8
b11000 F
b100000010010011100000011 &
b100000010010011100000011 B
b100000010010011100000011 L
0,
06
b1000000000000000001011100 .
b1000000000000000001011100 ?
b1000000000000000001011100 ^
b11000 "
b11000 [
b1000000000000000001110000 7
b1000000000000000001110000 =
b1000000000000000001110000 C
b1000000000000000001110000 H
b1000000000000000001110000 I
13
b1000000000000000001011000 9
b1000000000000000001011000 E
b1100011 R
b11000 )
b11000 W
b11000 e
b101 T
b1111100 %
b1111100 i
b1111 (
b1111 V
b1111 f
b100000000000 $
b100000000000 J
b100000000000 j
b1110 '
b1110 U
b1110 g
b111001111101110001100011 <
b111001111101110001100011 Q
b1000000000000000001011100 @
b1000000000000000001011000 0
b1000000000000000001011000 >
b1000000000000000001011000 P
1;
#260
0;
#265
b100000000000 !
b100000000000 D
b100000000000 h
b100000010010011110000011 #
b100000010010011110000011 a
b1100 8
b1100 F
b100000000000 &
b100000000000 B
b100000000000 L
b1000000000000000001100000 .
b1000000000000000001100000 ?
b1000000000000000001100000 ^
1,
16
b1100 "
b1100 [
b1000000010001000011111101 7
b1000000010001000011111101 =
b1000000010001000011111101 C
b1000000010001000011111101 H
b1000000010001000011111101 I
03
b1000000010001000011110001 9
b1000000010001000011110001 E
b11 R
b1110 )
b1110 W
b1110 e
b10 T
b1000000010001000011110001 %
b1000000010001000011110001 i
b10 (
b10 V
b10 f
b1100 $
b1100 J
b1100 j
b1100 '
b1100 U
b1100 g
b1000000000000000001100000 @
b1000000000000000001011100 0
b1000000000000000001011100 >
b1000000000000000001011100 P
b110000010010011100000011 <
b110000010010011100000011 Q
1;
#270
0;
#275
b1111100 !
b1111100 D
b1111100 h
b1111100 &
b1111100 B
b1111100 L
b1000000111101110000011110110011 #
b1000000111101110000011110110011 a
b1000000010001000011111001 7
b1000000010001000011111001 =
b1000000010001000011111001 C
b1000000010001000011111001 H
b1000000010001000011111001 I
b1000 8
b1000 F
b1000000000000000001100100 .
b1000000000000000001100100 ?
b1000000000000000001100100 ^
b1000 "
b1000 [
b1111 )
b1111 W
b1111 e
b1000 $
b1000 J
b1000 j
b1000 '
b1000 U
b1000 g
b100000010010011110000011 <
b100000010010011110000011 Q
b1000000000000000001100100 @
b1000000000000000001100000 0
b1000000000000000001100000 >
b1000000000000000001100000 P
1;
#280
0;
#285
b111100010010011000100011 #
b111100010010011000100011 a
b11110000100 !
b11110000100 D
b11110000100 h
b1111100 8
b1111100 F
b10111010110110111010110111111111 &
b10111010110110111010110111111111 B
b10111010110110111010110111111111 L
b1000000000000000001101000 .
b1000000000000000001101000 ?
b1000000000000000001101000 ^
b111 :
b111 G
b111 X
b1 +
b1 A
b1 Y
15
b11110000100 7
b11110000100 =
b11110000100 C
b11110000100 H
b11110000100 I
b100000000000 9
b100000000000 E
b110011 R
b0 T
b100000000000 %
b100000000000 i
b1110 (
b1110 V
b1110 f
b1111100 $
b1111100 J
b1111100 j
b1111 '
b1111 U
b1111 g
b100000 S
b1000000000000000001101000 @
b1000000000000000001100100 0
b1000000000000000001100100 >
b1000000000000000001100100 P
b1000000111101110000011110110011 <
b1000000111101110000011110110011 Q
1;
#290
0;
#295
b1010000000000000001101111 #
b1010000000000000001101111 a
b100000000000 &
b100000000000 B
b100000000000 L
b100000000000 !
b100000000000 D
b100000000000 h
b0 +
b0 A
b0 Y
0,
11
b0 :
b0 G
b0 X
05
b1100 "
b1100 [
b1000000000000000001101100 .
b1000000000000000001101100 ?
b1000000000000000001101100 ^
b1000000010001000011110001 9
b1000000010001000011110001 E
b1000000010001000011111101 7
b1000000010001000011111101 =
b1000000010001000011111101 C
b1000000010001000011111101 H
b1000000010001000011111101 I
b100011 R
b1100 )
b1100 W
b1100 e
b10 T
b1000000010001000011110001 %
b1000000010001000011110001 i
b10 (
b10 V
b10 f
b0 S
b1100 8
b1100 F
b111100010010011000100011 <
b111100010010011000100011 Q
b11110000100 $
b11110000100 J
b11110000100 j
b1000000000000000001101100 @
b1000000000000000001101000 0
b1000000000000000001101000 >
b1000000000000000001101000 P
1;
#300
0;
