PD4/testbench.vcd
$date
	Mon Jun 22 00:12:46 2020
$end
$version
	Icarus Verilog
$end
$timescale
	1s
$end
$scope module dut $end
$var wire 32 ! write_data [31:0] $end
$var wire 32 " wb [31:0] $end
$var wire 32 # imm [31:0] $end
$var wire 32 $ i_mem_out [31:0] $end
$var wire 32 % data_rs2 [31:0] $end
$var wire 32 & data_rs1 [31:0] $end
$var wire 32 ' d_mem_out [31:0] $end
$var wire 5 ( addr_rs2 [4:0] $end
$var wire 5 ) addr_rs1 [4:0] $end
$var wire 5 * addr_rd [4:0] $end
$var wire 2 + access_size [1:0] $end
$var wire 2 , WBSel [1:0] $end
$var wire 1 - RegWE $end
$var wire 1 . RdUn $end
$var wire 32 / PC_next [31:0] $end
$var wire 1 0 PCSel $end
$var wire 32 1 PC [31:0] $end
$var wire 1 2 MemRW $end
$var wire 1 3 BrUn $end
$var wire 1 4 BrLt $end
$var wire 1 5 BrEq $end
$var wire 1 6 BSel $end
$var wire 1 7 ASel $end
$var wire 32 8 ALU_out [31:0] $end
$var wire 4 9 ALUSel [3:0] $end
$var reg 1 : clk $end
$var reg 32 ; instruction [31:0] $end
$var reg 1 < state $end
$var integer 32 = i [31:0] $end
$scope module PCMux $end
$var wire 1 : clk $end
$var wire 1 0 PCSel $end
$var wire 32 > ALU_out [31:0] $end
$var reg 32 ? PC [31:0] $end
$var reg 32 @ PC_next [31:0] $end
$upscope $end
$scope module WBMux1 $end
$var wire 1 : clk $end
$var wire 32 A pc_next [31:0] $end
$var wire 2 B sel [1:0] $end
$var wire 32 C dmem [31:0] $end
$var wire 32 D alu [31:0] $end
$var reg 32 E out [31:0] $end
$upscope $end
$scope module d_mem $end
$var wire 1 : clk $end
$var wire 1 2 w_enable $end
$var wire 32 F data_in [31:0] $end
$var wire 32 G address [31:0] $end
$var wire 2 H access_size [1:0] $end
$var wire 1 . RdUn $end
$var reg 32 I data_out [31:0] $end
$var reg 32 J relevant_addr [31:0] $end
$var reg 32 K t_reg [31:0] $end
$var integer 32 L i [31:0] $end
$upscope $end
$scope module execute $end
$var wire 32 M PC_x [31:0] $end
$var wire 1 : clk $end
$var wire 32 N write_data [31:0] $end
$var wire 32 O rs2 [31:0] $end
$var wire 32 P rs1 [31:0] $end
$var wire 32 Q imm [31:0] $end
$var wire 1 3 BrUn $end
$var wire 1 4 BrLt $end
$var wire 1 5 BrEq $end
$var wire 1 6 BSel $end
$var wire 1 7 ASel $end
$var wire 32 R ALU_out [31:0] $end
$var wire 32 S ALU_in2 [31:0] $end
$var wire 32 T ALU_in1 [31:0] $end
$var wire 4 U ALUSel [3:0] $end
$scope module alu1 $end
$var wire 32 V rs1 [31:0] $end
$var wire 32 W rs2 [31:0] $end
$var wire 4 X ALUsel [3:0] $end
$var reg 32 Y alu_res [31:0] $end
$upscope $end
$upscope $end
$scope module fd1 $end
$var wire 1 5 BrEq $end
$var wire 1 4 BrLt $end
$var wire 32 Z PC [31:0] $end
$var wire 1 : clk $end
$var wire 32 [ instruction [31:0] $end
$var wire 7 \ opcode [6:0] $end
$var wire 7 ] funct7 [6:0] $end
$var wire 3 ^ funct3 [2:0] $end
$var wire 5 _ addr_rs2 [4:0] $end
$var wire 5 ` addr_rs1 [4:0] $end
$var wire 5 a addr_rd [4:0] $end
$var wire 1 3 BrUn $end
$var reg 4 b ALUSel [3:0] $end
$var reg 1 7 ASel $end
$var reg 1 6 BSel $end
$var reg 1 2 MemRW $end
$var reg 1 0 PCSel $end
$var reg 1 . RdUn $end
$var reg 1 - RegWE $end
$var reg 2 c WBSel [1:0] $end
$var reg 2 d access_size [1:0] $end
$var reg 32 e imm [31:0] $end
$scope task decode_bType $end
$upscope $end
$scope task decode_iType $end
$upscope $end
$scope task decode_jType $end
$upscope $end
$scope task decode_rType $end
$upscope $end
$scope task decode_sType $end
$upscope $end
$scope task decode_uType $end
$upscope $end
$upscope $end
$scope module i_mem $end
$var wire 1 f RdUn $end
$var wire 2 g access_size [1:0] $end
$var wire 32 h address [31:0] $end
$var wire 1 : clk $end
$var wire 32 i data_in [31:0] $end
$var wire 1 j w_enable $end
$var reg 32 k data_out [31:0] $end
$var reg 32 l relevant_addr [31:0] $end
$var reg 32 m t_reg [31:0] $end
$var integer 32 n i [31:0] $end
$upscope $end
$scope module reg_file $end
$var wire 5 o addr_rd [4:0] $end
$var wire 5 p addr_rs1 [4:0] $end
$var wire 5 q addr_rs2 [4:0] $end
$var wire 1 : clk $end
$var wire 32 r data_rd [31:0] $end
$var wire 32 s data_rs1 [31:0] $end
$var wire 32 t data_rs2 [31:0] $end
$var wire 1 - write_enable $end
$var integer 32 u i [31:0] $end
$upscope $end
$upscope $end
$enddefinitions $end
#0
$dumpvars
b100000 u
bx t
bx s
bx r
bx q
bx p
bx o
b100000000000000000001 n
bx m
b1000000000000000001000100 l
b11111110000000010000000100010011 k
0j
b0 i
b1000000000000000000000000 h
b10 g
0f
bx e
b0 d
b1 c
b0 b
bx a
bx `
bx _
bx ^
bx ]
bx \
bx [
b111111111111111111111100 Z
bx Y
b0 X
bx W
bx V
b0 U
bx T
bx S
bx R
bx Q
bx P
bx O
bx N
b111111111111111111111100 M
b100000000000000000001 L
bx K
b1000000000000000001000100 J
bx I
b0 H
bx G
bx F
bx E
bx D
bx C
b1 B
b1000000000000000000000000 A
b1000000000000000000000000 @
b111111111111111111111100 ?
bx >
b0 =
0<
bx ;
0:
b0 9
bx 8
x7
x6
x5
x4
x3
x2
b111111111111111111111100 1
10
b1000000000000000000000000 /
0.
x-
b1 ,
b0 +
bx *
bx )
bx (
bx '
bx &
bx %
b11111110000000010000000100010011 $
bx #
bx "
bx !
$end
#5
b1000000010001000011110001 "
b1000000010001000011110001 E
b1000000010001000011110001 r
b100010010111000100011 $
b100010010111000100011 k
b0 '
b0 C
b0 I
b1000000010001000011110001 8
b1000000010001000011110001 >
b1000000010001000011110001 D
b1000000010001000011110001 G
b1000000010001000011110001 R
b1000000010001000011110001 Y
b11111111111111111111111111100000 S
b11111111111111111111111111100000 W
b1000000000000000000000100 /
b1000000000000000000000100 @
b1000000000000000000000100 h
1-
02
06
17
b11111111111111111111111111100000 #
b11111111111111111111111111100000 Q
b11111111111111111111111111100000 e
03
04
b1000000010001000100010001 T
b1000000010001000100010001 V
b10011 \
b10 *
b10 a
b10 o
b0 ^
05
b1000000010001000100010001 &
b1000000010001000100010001 P
b1000000010001000100010001 s
b10 )
b10 `
b10 p
b0 !
b0 F
b0 N
b0 %
b0 O
b0 t
b0 (
b0 _
b0 q
b1111111 ]
b1000000000000000000000100 A
b1000000000000000000000000 1
b1000000000000000000000000 ?
b1000000000000000000000000 M
b1000000000000000000000000 Z
b11111110000000010000000100010011 ;
b11111110000000010000000100010011 [
1:
#10
0:
#15
b10010011000100011 $
b10010011000100011 k
b11100 S
b11100 W
b0 "
b0 E
b0 r
b10 +
b10 H
b10 d
b0 ,
b0 B
b0 c
0-
12
b1000000000000000000001000 /
b1000000000000000000001000 @
b1000000000000000000001000 h
b11100 #
b11100 Q
b11100 e
b1000000010001000100001101 8
b1000000010001000100001101 >
b1000000010001000100001101 D
b1000000010001000100001101 G
b1000000010001000100001101 R
b1000000010001000100001101 Y
b100011 \
b11100 *
b11100 a
b11100 o
b10 ^
b1 (
b1 _
b1 q
b0 ]
b1000000010001000011110001 T
b1000000010001000011110001 V
b100010010111000100011 ;
b100010010111000100011 [
b1000000010001000011110001 &
b1000000010001000011110001 P
b1000000010001000011110001 s
b1000000000000000000001000 A
b1000000000000000000000100 1
b1000000000000000000000100 ?
b1000000000000000000000100 M
b1000000000000000000000100 Z
1:
#20
0:
#25
b1110000000000000001101111 $
b1110000000000000001101111 k
b1000000010001000011111101 8
b1000000010001000011111101 >
b1000000010001000011111101 D
b1000000010001000011111101 G
b1000000010001000011111101 R
b1000000010001000011111101 Y
b1100 S
b1100 W
b1000000000000000000001100 /
b1000000000000000000001100 @
b1000000000000000000001100 h
b1100 #
b1100 Q
b1100 e
b1100 *
b1100 a
b1100 o
b0 (
b0 _
b0 q
b1000000000000000000001100 A
b1000000000000000000001000 1
b1000000000000000000001000 ?
b1000000000000000000001000 M
b1000000000000000000001000 Z
b10010011000100011 ;
b10010011000100011 [
1:
#30
0:
#35
b1000000000000000000010000 "
b1000000000000000000010000 E
b1000000000000000000010000 r
b110000010010011100000011 $
b110000010010011100000011 k
b11100 S
b11100 W
b110000010010011100000011 '
b110000010010011100000011 C
b110000010010011100000011 I
b10 ,
b10 B
b10 c
1-
02
b1100 9
b1100 U
b1100 X
b1100 b
07
00
b1000000000000000000101000 /
b1000000000000000000101000 @
b1000000000000000000101000 h
b11100 #
b11100 Q
b11100 e
b1000000000000000000101000 8
b1000000000000000000101000 >
b1000000000000000000101000 D
b1000000000000000000101000 G
b1000000000000000000101000 R
b1000000000000000000101000 Y
b1000000000000000000001100 T
b1000000000000000000001100 V
b1101111 \
b0 *
b0 a
b0 o
b0 ^
15
b0 &
b0 P
b0 s
b0 )
b0 `
b0 p
b11100 (
b11100 _
b11100 q
b1110000000000000001101111 ;
b1110000000000000001101111 [
b1000000000000000000010000 A
b1000000000000000000001100 1
b1000000000000000000001100 ?
b1000000000000000000001100 M
b1000000000000000000001100 Z
1:
#40
0:
#45
b100100000000011110010011 $
b100100000000011110010011 k
b1100 S
b1100 W
b1000000000000000000101100 /
b1000000000000000000101100 @
b1000000000000000000101100 h
b0 '
b0 C
b0 I
b0 "
b0 E
b0 r
b0 ,
b0 B
b0 c
b0 9
b0 U
b0 X
b0 b
17
10
b1100 #
b1100 Q
b1100 e
b1000000010001000011111101 8
b1000000010001000011111101 >
b1000000010001000011111101 D
b1000000010001000011111101 G
b1000000010001000011111101 R
b1000000010001000011111101 Y
b1000000010001000011110001 T
b1000000010001000011110001 V
b11 \
b1110 *
b1110 a
b1110 o
b10 ^
05
b1000000010001000011110001 &
b1000000010001000011110001 P
b1000000010001000011110001 s
b10 )
b10 `
b10 p
b1100 (
b1100 _
b1100 q
b1000000000000000000101100 A
b1000000000000000000101000 1
b1000000000000000000101000 ?
b1000000000000000000101000 M
b1000000000000000000101000 Z
b110000010010011100000011 ;
b110000010010011100000011 [
1:
#50
0:
#55
b1001 "
b1001 E
b1001 r
b11111110111001111101000011100011 $
b11111110111001111101000011100011 k
b1001 S
b1001 W
b10111010110110111010110111111111 '
b10111010110110111010110111111111 C
b10111010110110111010110111111111 I
b1 ,
b1 B
b1 c
b1000000000000000000110000 /
b1000000000000000000110000 @
b1000000000000000000110000 h
b1001 #
b1001 Q
b1001 e
b1001 8
b1001 >
b1001 D
b1001 G
b1001 R
b1001 Y
b0 T
b0 V
b10011 \
b1111 *
b1111 a
b1111 o
b0 ^
15
b0 &
b0 P
b0 s
b0 )
b0 `
b0 p
b1001 (
b1001 _
b1001 q
b100100000000011110010011 ;
b100100000000011110010011 [
b1000000000000000000110000 A
b1000000000000000000101100 1
b1000000000000000000101100 ?
b1000000000000000000101100 M
b1000000000000000000101100 Z
1:
#60
0:
#65
b110000010010010100000011 '
b110000010010010100000011 C
b110000010010010100000011 I
b110000010010010100000011 $
b110000010010010100000011 k
b11111111111111111111111111100000 S
b11111111111111111111111111100000 W
b110000010010010100000011 "
b110000010010010100000011 E
b110000010010010100000011 r
b1000000000000000000010000 /
b1000000000000000000010000 @
b1000000000000000000010000 h
00
b0 ,
b0 B
b0 c
0-
07
b11111111111111111111111111100000 #
b11111111111111111111111111100000 Q
b11111111111111111111111111100000 e
b1000000000000000000010000 8
b1000000000000000000010000 >
b1000000000000000000010000 D
b1000000000000000000010000 G
b1000000000000000000010000 R
b1000000000000000000010000 Y
b1000000000000000000110000 T
b1000000000000000000110000 V
b1100011 \
b1 *
b1 a
b1 o
b101 ^
05
b1001 &
b1001 P
b1001 s
b1111 )
b1111 `
b1111 p
b1110 (
b1110 _
b1110 q
b1111111 ]
b1000000000000000000110100 A
b1000000000000000000110000 1
b1000000000000000000110000 ?
b1000000000000000000110000 M
b1000000000000000000110000 Z
b11111110111001111101000011100011 ;
b11111110111001111101000011100011 [
1:
#70
0:
#75
b11110000000000000011101111 $
b11110000000000000011101111 k
b0 "
b0 E
b0 r
b1100 S
b1100 W
b1000000000000000000010100 /
b1000000000000000000010100 @
b1000000000000000000010100 h
b0 '
b0 C
b0 I
1-
17
10
b1100 #
b1100 Q
b1100 e
b1000000010001000011111101 8
b1000000010001000011111101 >
b1000000010001000011111101 D
b1000000010001000011111101 G
b1000000010001000011111101 R
b1000000010001000011111101 Y
b11 \
b1010 *
b1010 a
b1010 o
b10 ^
b1000000010001000011110001 &
b1000000010001000011110001 P
b1000000010001000011110001 s
b10 )
b10 `
b10 p
b1100 (
b1100 _
b1100 q
b0 ]
b1000000010001000011110001 T
b1000000010001000011110001 V
b110000010010010100000011 ;
b110000010010010100000011 [
b1000000000000000000010100 A
b1000000000000000000010000 1
b1000000000000000000010000 ?
b1000000000000000000010000 M
b1000000000000000000010000 Z
1:
#80
0:
#85
b11111101000000010000000100010011 $
b11111101000000010000000100010011 k
b1000000000000000000011000 "
b1000000000000000000011000 E
b1000000000000000000011000 r
b111100 S
b111100 W
b11111101000000010000000100010011 '
b11111101000000010000000100010011 C
b11111101000000010000000100010011 I
b1000000000000000001010000 /
b1000000000000000001010000 @
b1000000000000000001010000 h
b10 ,
b10 B
b10 c
b1100 9
b1100 U
b1100 X
b1100 b
07
00
b111100 #
b111100 Q
b111100 e
b1000000000000000001010000 8
b1000000000000000001010000 >
b1000000000000000001010000 D
b1000000000000000001010000 G
b1000000000000000001010000 R
b1000000000000000001010000 Y
b1000000000000000000010100 T
b1000000000000000000010100 V
b1101111 \
b1 *
b1 a
b1 o
b0 ^
15
b0 &
b0 P
b0 s
b0 )
b0 `
b0 p
b11100 (
b11100 _
b11100 q
b1 ]
b1000000000000000000011000 A
b1000000000000000000010100 1
b1000000000000000000010100 ?
b1000000000000000000010100 M
b1000000000000000000010100 Z
b11110000000000000011101111 ;
b11110000000000000011101111 [
1:
#90
0:
#95
b10000100010010011000100011 $
b10000100010010011000100011 k
b11111111111111111111111111010000 S
b11111111111111111111111111010000 W
b1000000000000000001010100 /
b1000000000000000001010100 @
b1000000000000000001010100 h
b0 '
b0 C
b0 I
b0 9
b0 U
b0 X
b0 b
b1 ,
b1 B
b1 c
17
10
b11111111111111111111111111010000 #
b11111111111111111111111111010000 Q
b11111111111111111111111111010000 e
b1000000010001000011000001 "
b1000000010001000011000001 E
b1000000010001000011000001 r
b1000000010001000011000001 8
b1000000010001000011000001 >
b1000000010001000011000001 D
b1000000010001000011000001 G
b1000000010001000011000001 R
b1000000010001000011000001 Y
b10011 \
b10 *
b10 a
b10 o
05
b1000000010001000011110001 &
b1000000010001000011110001 P
b1000000010001000011110001 s
b10 )
b10 `
b10 p
b10000 (
b10000 _
b10000 q
b1111110 ]
b1000000010001000011110001 T
b1000000010001000011110001 V
b11111101000000010000000100010011 ;
b11111101000000010000000100010011 [
b1000000000000000001010100 A
b1000000000000000001010000 1
b1000000000000000001010000 ?
b1000000000000000001010000 M
b1000000000000000001010000 Z
1:
#100
0:
#105
b101000010010011000100011 $
b101000010010011000100011 k
b101100 S
b101100 W
b0 "
b0 E
b0 r
b1000000000000000001011000 /
b1000000000000000001011000 @
b1000000000000000001011000 h
b0 ,
b0 B
b0 c
0-
12
b101100 #
b101100 Q
b101100 e
b1000000010001000011101101 8
b1000000010001000011101101 >
b1000000010001000011101101 D
b1000000010001000011101101 G
b1000000010001000011101101 R
b1000000010001000011101101 Y
b1000000010001000011000001 T
b1000000010001000011000001 V
b100011 \
b1100 *
b1100 a
b1100 o
b10 ^
b1000000000000000000011000 !
b1000000000000000000011000 F
b1000000000000000000011000 N
b1000000000000000000011000 %
b1000000000000000000011000 O
b1000000000000000000011000 t
b1 (
b1 _
b1 q
b1 ]
b1000000000000000001011000 A
b1000000000000000001010100 1
b1000000000000000001010100 ?
b1000000000000000001010100 M
b1000000000000000001010100 Z
b1000000010001000011000001 &
b1000000010001000011000001 P
b1000000010001000011000001 s
b10000100010010011000100011 ;
b10000100010010011000100011 [
1:
#110
0:
#115
b10010111000100011 $
b10010111000100011 k
b1000000010001000011001101 8
b1000000010001000011001101 >
b1000000010001000011001101 D
b1000000010001000011001101 G
b1000000010001000011001101 R
b1000000010001000011001101 Y
b1100 S
b1100 W
b1000000000000000001011100 /
b1000000000000000001011100 @
b1000000000000000001011100 h
b1100 #
b1100 Q
b1100 e
b0 !
b0 F
b0 N
b0 %
b0 O
b0 t
b1010 (
b1010 _
b1010 q
b0 ]
b101000010010011000100011 ;
b101000010010011000100011 [
b1000000000000000001011100 A
b1000000000000000001011000 1
b1000000000000000001011000 ?
b1000000000000000001011000 M
b1000000000000000001011000 Z
1:
#120
0:
#125
b10010110000100011 $
b10010110000100011 k
b1000000010001000011011101 8
b1000000010001000011011101 >
b1000000010001000011011101 D
b1000000010001000011011101 G
b1000000010001000011011101 R
b1000000010001000011011101 Y
b11100 S
b11100 W
b1000000000000000001100000 /
b1000000000000000001100000 @
b1000000000000000001100000 h
b11100 #
b11100 Q
b11100 e
b11100 *
b11100 a
b11100 o
b0 (
b0 _
b0 q
b1000000000000000001100000 A
b1000000000000000001011100 1
b1000000000000000001011100 ?
b1000000000000000001011100 M
b1000000000000000001011100 Z
b10010111000100011 ;
b10010111000100011 [
1:
#130
0:
#135
b110000010010011110000011 $
b110000010010011110000011 k
b1000000010001000011011001 8
b1000000010001000011011001 >
b1000000010001000011011001 D
b1000000010001000011011001 G
b1000000010001000011011001 R
b1000000010001000011011001 Y
b11000 S
b11000 W
b1000000000000000001100100 /
b1000000000000000001100100 @
b1000000000000000001100100 h
b11000 #
b11000 Q
b11000 e
b11000 *
b11000 a
b11000 o
b10010110000100011 ;
b10010110000100011 [
b1000000000000000001100100 A
b1000000000000000001100000 1
b1000000000000000001100000 ?
b1000000000000000001100000 M
b1000000000000000001100000 Z
1:
#140
0:
#145
b1111001011001100011 $
b1111001011001100011 k
b1000000010001000011001101 8
b1000000010001000011001101 >
b1000000010001000011001101 D
b1000000010001000011001101 G
b1000000010001000011001101 R
b1000000010001000011001101 Y
b1100 S
b1100 W
b1000000000000000001101000 /
b1000000000000000001101000 @
b1000000000000000001101000 h
1-
02
b1100 #
b1100 Q
b1100 e
b11 \
b1111 *
b1111 a
b1111 o
b1100 (
b1100 _
b1100 q
b1000000000000000001101000 A
b1000000000000000001100100 1
b1000000000000000001100100 ?
b1000000000000000001100100 M
b1000000000000000001100100 Z
b110000010010011110000011 ;
b110000010010011110000011 [
1:
#150
0:
#155
b10010111000100011 "
b10010111000100011 E
b10010111000100011 r
b100000000011110010011 $
b100000000011110010011 k
b10010111000100011 '
b10010111000100011 C
b10010111000100011 I
0-
07
b1000000000000000001101100 /
b1000000000000000001101100 @
b1000000000000000001101100 h
b1100 #
b1100 Q
b1100 e
b1000000000000000001110100 8
b1000000000000000001110100 >
b1000000000000000001110100 D
b1000000000000000001110100 G
b1000000000000000001110100 R
b1000000000000000001110100 Y
b1000000000000000001101000 T
b1000000000000000001101000 V
b1100011 \
b1100 *
b1100 a
b1100 o
b1 ^
15
b0 &
b0 P
b0 s
b1111 )
b1111 `
b1111 p
b0 (
b0 _
b0 q
b1111001011001100011 ;
b1111001011001100011 [
b1000000000000000001101100 A
b1000000000000000001101000 1
b1000000000000000001101000 ?
b1000000000000000001101000 M
b1000000000000000001101000 Z
1:
#160
0:
#165
b100100000000000000001101111 $
b100100000000000000001101111 k
b1 "
b1 E
b1 r
b1 S
b1 W
b10111010110110111010110111111111 '
b10111010110110111010110111111111 C
b10111010110110111010110111111111 I
b1000000000000000001110000 /
b1000000000000000001110000 @
b1000000000000000001110000 h
b1 ,
b1 B
b1 c
1-
17
b1 #
b1 Q
b1 e
b1 8
b1 >
b1 D
b1 G
b1 R
b1 Y
14
b0 T
b0 V
b10011 \
b1111 *
b1111 a
b1111 o
b0 ^
b0 )
b0 `
b0 p
05
b1000000000000000000011000 !
b1000000000000000000011000 F
b1000000000000000000011000 N
b1000000000000000000011000 %
b1000000000000000000011000 O
b1000000000000000000011000 t
b1 (
b1 _
b1 q
b1000000000000000001110000 A
b1000000000000000001101100 1
b1000000000000000001101100 ?
b1000000000000000001101100 M
b1000000000000000001101100 Z
b100000000011110010011 ;
b100000000011110010011 [
1:
#170
0:
#175
b1111000010100010011 '
b1111000010100010011 C
b1111000010100010011 I
b1000000000000000001110100 "
b1000000000000000001110100 E
b1000000000000000001110100 r
b1111000010100010011 $
b1111000010100010011 k
b1000000000000000010111000 8
b1000000000000000010111000 >
b1000000000000000010111000 D
b1000000000000000010111000 G
b1000000000000000010111000 R
b1000000000000000010111000 Y
b1000000000000000001110000 T
b1000000000000000001110000 V
b1001000 S
b1001000 W
b10 ,
b10 B
b10 c
b1100 9
b1100 U
b1100 X
b1100 b
07
00
b1000000000000000010111000 /
b1000000000000000010111000 @
b1000000000000000010111000 h
b1001000 #
b1001000 Q
b1001000 e
04
b1101111 \
b0 *
b0 a
b0 o
15
b0 !
b0 F
b0 N
b0 %
b0 O
b0 t
b1000 (
b1000 _
b1000 q
b10 ]
b100100000000000000001101111 ;
b100100000000000000001101111 [
b1000000000000000001110100 A
b1000000000000000001110000 1
b1000000000000000001110000 ?
b1000000000000000001110000 M
b1000000000000000001110000 Z
1:
#180
0:
#185
b10110000010010000010000011 $
b10110000010010000010000011 k
b0 S
b0 W
b1000000000000000010111100 /
b1000000000000000010111100 @
b1000000000000000010111100 h
b10111010110110111010110111111111 '
b10111010110110111010110111111111 C
b10111010110110111010110111111111 I
b1 "
b1 E
b1 r
b0 9
b0 U
b0 X
b0 b
b1 ,
b1 B
b1 c
17
10
b0 #
b0 Q
b0 e
b1 8
b1 >
b1 D
b1 G
b1 R
b1 Y
b1 T
b1 V
b10011 \
b1010 *
b1010 a
b1010 o
05
b1 &
b1 P
b1 s
b1111 )
b1111 `
b1111 p
b0 (
b0 _
b0 q
b0 ]
b1000000000000000010111100 A
b1000000000000000010111000 1
b1000000000000000010111000 ?
b1000000000000000010111000 M
b1000000000000000010111000 Z
b1111000010100010011 ;
b1111000010100010011 [
1:
#190
0:
#195
b11000000010000000100010011 $
b11000000010000000100010011 k
b101100 S
b101100 W
b1000000000000000000011000 "
b1000000000000000000011000 E
b1000000000000000000011000 r
b1000000000000000000011000 '
b1000000000000000000011000 C
b1000000000000000000011000 I
b0 ,
b0 B
b0 c
b1000000000000000011000000 /
b1000000000000000011000000 @
b1000000000000000011000000 h
b101100 #
b101100 Q
b101100 e
b1000000010001000011101101 8
b1000000010001000011101101 >
b1000000010001000011101101 D
b1000000010001000011101101 G
b1000000010001000011101101 R
b1000000010001000011101101 Y
b1000000010001000011000001 T
b1000000010001000011000001 V
b11 \
b1 *
b1 a
b1 o
b10 ^
b1000000010001000011000001 &
b1000000010001000011000001 P
b1000000010001000011000001 s
b10 )
b10 `
b10 p
b1100 (
b1100 _
b1100 q
b1 ]
b10110000010010000010000011 ;
b10110000010010000010000011 [
b1000000000000000011000000 A
b1000000000000000010111100 1
b1000000000000000010111100 ?
b1000000000000000010111100 M
b1000000000000000010111100 Z
1:
#200
0:
#205
b0 '
b0 C
b0 I
b1000000001100111 $
b1000000001100111 k
b1000000010001000011110001 "
b1000000010001000011110001 E
b1000000010001000011110001 r
b1000000010001000011110001 8
b1000000010001000011110001 >
b1000000010001000011110001 D
b1000000010001000011110001 G
b1000000010001000011110001 R
b1000000010001000011110001 Y
b110000 S
b110000 W
b1000000000000000011000100 /
b1000000000000000011000100 @
b1000000000000000011000100 h
b1 ,
b1 B
b1 c
b110000 #
b110000 Q
b110000 e
b10011 \
b10 *
b10 a
b10 o
b0 ^
b10000 (
b10000 _
b10000 q
b1000000000000000011000100 A
b1000000000000000011000000 1
b1000000000000000011000000 ?
b1000000000000000011000000 M
b1000000000000000011000000 Z
b11000000010000000100010011 ;
b11000000010000000100010011 [
1:
#210
0:
#215
b101000010010010000100011 $
b101000010010010000100011 k
b0 S
b0 W
b101000010010010000100011 '
b101000010010010000100011 C
b101000010010010000100011 I
b1000000000000000011001000 "
b1000000000000000011001000 E
b1000000000000000011001000 r
b10 ,
b10 B
b10 c
b1100 9
b1100 U
b1100 X
b1100 b
00
b1000000000000000000011000 /
b1000000000000000000011000 @
b1000000000000000000011000 h
b0 #
b0 Q
b0 e
b1000000000000000000011000 8
b1000000000000000000011000 >
b1000000000000000000011000 D
b1000000000000000000011000 G
b1000000000000000000011000 R
b1000000000000000000011000 Y
b1100111 \
b0 *
b0 a
b0 o
b1 )
b1 `
b1 p
b0 (
b0 _
b0 q
b0 ]
b1000000000000000000011000 T
b1000000000000000000011000 V
b1000000001100111 ;
b1000000001100111 [
b1000000000000000000011000 &
b1000000000000000000011000 P
b1000000000000000000011000 s
b1000000000000000011001000 A
b1000000000000000011000100 1
b1000000000000000011000100 ?
b1000000000000000011000100 M
b1000000000000000011000100 Z
1:
#220
0:
#225
b110000010010011110000011 $
b110000010010011110000011 k
b1000 S
b1000 W
b1000000000000000000011100 /
b1000000000000000000011100 @
b1000000000000000000011100 h
b0 '
b0 C
b0 I
b0 "
b0 E
b0 r
b0 ,
b0 B
b0 c
0-
12
b0 9
b0 U
b0 X
b0 b
10
b1000 #
b1000 Q
b1000 e
b1000000010001000011111001 8
b1000000010001000011111001 >
b1000000010001000011111001 D
b1000000010001000011111001 G
b1000000010001000011111001 R
b1000000010001000011111001 Y
b1000000010001000011110001 T
b1000000010001000011110001 V
b100011 \
b1000 *
b1000 a
b1000 o
b10 ^
b1000000010001000011110001 &
b1000000010001000011110001 P
b1000000010001000011110001 s
b10 )
b10 `
b10 p
b1 !
b1 F
b1 N
b1 %
b1 O
b1 t
b1010 (
b1010 _
b1010 q
b1000000000000000000011100 A
b1000000000000000000011000 1
b1000000000000000000011000 ?
b1000000000000000000011000 M
b1000000000000000000011000 Z
b101000010010010000100011 ;
b101000010010010000100011 [
1:
#230
0:
#235
b0 '
b0 C
b0 I
b101111000011110010011 $
b101111000011110010011 k
b1000000010001000011111101 8
b1000000010001000011111101 >
b1000000010001000011111101 D
b1000000010001000011111101 G
b1000000010001000011111101 R
b1000000010001000011111101 Y
b1100 S
b1100 W
1-
02
b1000000000000000000100000 /
b1000000000000000000100000 @
b1000000000000000000100000 h
b1100 #
b1100 Q
b1100 e
b11 \
b1111 *
b1111 a
b1111 o
b0 !
b0 F
b0 N
b0 %
b0 O
b0 t
b1100 (
b1100 _
b1100 q
b110000010010011110000011 ;
b110000010010011110000011 [
b1000000000000000000100000 A
b1000000000000000000011100 1
b1000000000000000000011100 ?
b1000000000000000000011100 M
b1000000000000000000011100 Z
1:
#240
0:
#245
b111100010010011000100011 $
b111100010010011000100011 k
b1 "
b1 E
b1 r
b1 S
b1 W
b10111010110110111010110111111111 '
b10111010110110111010110111111111 C
b10111010110110111010110111111111 I
b1000000000000000000100100 /
b1000000000000000000100100 @
b1000000000000000000100100 h
b1 ,
b1 B
b1 c
b1 #
b1 Q
b1 e
b1 8
b1 >
b1 D
b1 G
b1 R
b1 Y
b0 T
b0 V
14
b10011 \
b0 ^
b0 &
b0 P
b0 s
b1111 )
b1111 `
b1111 p
b1000000000000000000011000 !
b1000000000000000000011000 F
b1000000000000000000011000 N
b1000000000000000000011000 %
b1000000000000000000011000 O
b1000000000000000000011000 t
b1 (
b1 _
b1 q
b1000000000000000000100100 A
b1000000000000000000100000 1
b1000000000000000000100000 ?
b1000000000000000000100000 M
b1000000000000000000100000 Z
b101111000011110010011 ;
b101111000011110010011 [
1:
#250
0:
#255
b110000010010011100000011 $
b110000010010011100000011 k
b1100 S
b1100 W
b0 '
b0 C
b0 I
b0 "
b0 E
b0 r
b0 ,
b0 B
b0 c
0-
12
b1000000000000000000101000 /
b1000000000000000000101000 @
b1000000000000000000101000 h
b1100 #
b1100 Q
b1100 e
04
b1000000010001000011111101 8
b1000000010001000011111101 >
b1000000010001000011111101 D
b1000000010001000011111101 G
b1000000010001000011111101 R
b1000000010001000011111101 Y
b100011 \
b1100 *
b1100 a
b1100 o
b10 ^
b10 )
b10 `
b10 p
05
b1 !
b1 F
b1 N
b1 %
b1 O
b1 t
b1111 (
b1111 _
b1111 q
b1000000010001000011110001 T
b1000000010001000011110001 V
b111100010010011000100011 ;
b111100010010011000100011 [
b1000000010001000011110001 &
b1000000010001000011110001 P
b1000000010001000011110001 s
b1000000000000000000101000 A
b1000000000000000000100100 1
b1000000000000000000100100 ?
b1000000000000000000100100 M
b1000000000000000000100100 Z
1:
#260
0:
#265
b1 "
b1 E
b1 r
b100100000000011110010011 $
b100100000000011110010011 k
b1 '
b1 C
b1 I
b1000000000000000000101100 /
b1000000000000000000101100 @
b1000000000000000000101100 h
1-
02
b11 \
b1110 *
b1110 a
b1110 o
b0 !
b0 F
b0 N
b0 %
b0 O
b0 t
b1100 (
b1100 _
b1100 q
b1000000000000000000101100 A
b1000000000000000000101000 1
b1000000000000000000101000 ?
b1000000000000000000101000 M
b1000000000000000000101000 Z
b110000010010011100000011 ;
b110000010010011100000011 [
1:
#270
0:
