PD4/testbench.vcd
$date
	Sat Jun 20 02:03:34 2020
$end
$version
	Icarus Verilog
$end
$timescale
	1s
$end
$scope module dut $end
$var wire 32 ! wb [31:0] $end
$var wire 32 " imm [31:0] $end
$var wire 32 # i_mem_out [31:0] $end
$var wire 32 $ data_rs2 [31:0] $end
$var wire 32 % data_rs1 [31:0] $end
$var wire 32 & d_mem_out [31:0] $end
$var wire 5 ' addr_rs2 [4:0] $end
$var wire 5 ( addr_rs1 [4:0] $end
$var wire 5 ) addr_rd [4:0] $end
$var wire 2 * access_size [1:0] $end
$var wire 2 + WBSel [1:0] $end
$var wire 1 , RegWE $end
$var wire 1 - RdUn $end
$var wire 32 . PC_next [31:0] $end
$var wire 1 / PCSel $end
$var wire 32 0 PC [31:0] $end
$var wire 1 1 MemRW $end
$var wire 1 2 BrUn $end
$var wire 1 3 BrLt $end
$var wire 1 4 BrEq $end
$var wire 1 5 BSel $end
$var wire 1 6 ASel $end
$var wire 32 7 ALU_out [31:0] $end
$var wire 32 8 ALU_in2 [31:0] $end
$var wire 32 9 ALU_in1 [31:0] $end
$var wire 4 : ALUSel [3:0] $end
$var reg 1 ; clk $end
$var reg 32 < instruction [31:0] $end
$scope module PCMux $end
$var wire 1 ; clk $end
$var wire 1 / PCSel $end
$var wire 32 = ALU_out [31:0] $end
$var reg 32 > PC [31:0] $end
$var reg 32 ? PC_next [31:0] $end
$upscope $end
$scope module WBMux1 $end
$var wire 1 ; clk $end
$var wire 32 @ pc_next [31:0] $end
$var wire 2 A sel [1:0] $end
$var wire 32 B dmem [31:0] $end
$var wire 32 C alu [31:0] $end
$var reg 32 D out [31:0] $end
$upscope $end
$scope module alu1 $end
$var wire 32 E rs1 [31:0] $end
$var wire 32 F rs2 [31:0] $end
$var wire 4 G ALUsel [3:0] $end
$var reg 32 H alu_res [31:0] $end
$upscope $end
$scope module d_mem $end
$var wire 32 I address [31:0] $end
$var wire 1 ; clk $end
$var wire 1 1 w_enable $end
$var wire 32 J data_in [31:0] $end
$var wire 2 K access_size [1:0] $end
$var wire 1 - RdUn $end
$var reg 32 L data_out [31:0] $end
$var reg 32 M relevant_addr [31:0] $end
$var reg 32 N t_reg [31:0] $end
$var integer 32 O i [31:0] $end
$upscope $end
$scope module fd1 $end
$var wire 1 4 BrEq $end
$var wire 1 3 BrLt $end
$var wire 32 P PC [31:0] $end
$var wire 1 ; clk $end
$var wire 32 Q instruction [31:0] $end
$var wire 7 R opcode [6:0] $end
$var wire 7 S funct7 [6:0] $end
$var wire 3 T funct3 [2:0] $end
$var wire 5 U addr_rs2 [4:0] $end
$var wire 5 V addr_rs1 [4:0] $end
$var wire 5 W addr_rd [4:0] $end
$var wire 1 2 BrUn $end
$var reg 4 X ALUSel [3:0] $end
$var reg 1 6 ASel $end
$var reg 1 5 BSel $end
$var reg 1 1 MemRW $end
$var reg 1 / PCSel $end
$var reg 1 - RdUn $end
$var reg 1 , RegWE $end
$var reg 2 Y WBSel [1:0] $end
$var reg 2 Z access_size [1:0] $end
$var reg 32 [ imm [31:0] $end
$scope task decode_bType $end
$upscope $end
$scope task decode_iType $end
$upscope $end
$scope task decode_jType $end
$upscope $end
$scope task decode_rType $end
$upscope $end
$scope task decode_sType $end
$upscope $end
$scope task decode_uType $end
$upscope $end
$upscope $end
$scope module i_mem $end
$var wire 1 \ RdUn $end
$var wire 2 ] access_size [1:0] $end
$var wire 32 ^ address [31:0] $end
$var wire 1 ; clk $end
$var wire 32 _ data_in [31:0] $end
$var wire 1 ` w_enable $end
$var reg 32 a data_out [31:0] $end
$var reg 32 b relevant_addr [31:0] $end
$var reg 32 c t_reg [31:0] $end
$var integer 32 d i [31:0] $end
$upscope $end
$scope module reg_file $end
$var wire 5 e addr_rd [4:0] $end
$var wire 5 f addr_rs1 [4:0] $end
$var wire 5 g addr_rs2 [4:0] $end
$var wire 1 ; clk $end
$var wire 32 h data_rd [31:0] $end
$var wire 32 i data_rs1 [31:0] $end
$var wire 32 j data_rs2 [31:0] $end
$var wire 1 , write_enable $end
$var integer 32 k i [31:0] $end
$upscope $end
$upscope $end
$enddefinitions $end
#0
$dumpvars
b100000 k
bx j
bx i
bx h
bx g
bx f
bx e
b100000000000000000001 d
bx c
b1000000000000000001000100 b
b11111110000000010000000100010011 a
0`
b0 _
b1000000000000000000000000 ^
b10 ]
0\
bx [
b0 Z
b1 Y
b0 X
bx W
bx V
bx U
bx T
bx S
bx R
bx Q
b111111111111111111111100 P
b100000000000000000001 O
bx N
b1000000000000000001000100 M
bx L
b0 K
bx J
bx I
bx H
b0 G
bx F
bx E
bx D
bx C
bx B
b1 A
b1000000000000000000000000 @
b1000000000000000000000000 ?
b111111111111111111111100 >
bx =
bx <
0;
b0 :
bx 9
bx 8
bx 7
x6
x5
x4
x3
x2
x1
b111111111111111111111100 0
1/
b1000000000000000000000000 .
0-
x,
b1 +
b0 *
bx )
bx (
bx '
bx &
bx %
bx $
b11111110000000010000000100010011 #
bx "
bx !
$end
#5
b1000000010001000011110001 !
b1000000010001000011110001 D
b1000000010001000011110001 h
b100010010111000100011 #
b100010010111000100011 a
b0 &
b0 B
b0 L
b1000000010001000011110001 7
b1000000010001000011110001 =
b1000000010001000011110001 C
b1000000010001000011110001 H
b1000000010001000011110001 I
b11111111111111111111111111100000 8
b11111111111111111111111111100000 F
b1000000000000000000000100 .
b1000000000000000000000100 ?
b1000000000000000000000100 ^
1,
01
05
16
b11111111111111111111111111100000 "
b11111111111111111111111111100000 [
02
03
b1000000010001000100010001 9
b1000000010001000100010001 E
b10011 R
b10 )
b10 W
b10 e
b0 T
04
b1000000010001000100010001 %
b1000000010001000100010001 i
b10 (
b10 V
b10 f
b0 $
b0 J
b0 j
b0 '
b0 U
b0 g
b1111111 S
b1000000000000000000000100 @
b1000000000000000000000000 0
b1000000000000000000000000 >
b1000000000000000000000000 P
b11111110000000010000000100010011 <
b11111110000000010000000100010011 Q
1;
#10
0;
#15
b10100000000011110010011 #
b10100000000011110010011 a
b11100 8
b11100 F
b0 !
b0 D
b0 h
b0 +
b0 A
b0 Y
0,
11
b1000000000000000000001000 .
b1000000000000000000001000 ?
b1000000000000000000001000 ^
b11100 "
b11100 [
b10 *
b10 K
b10 Z
b1000000010001000100001101 7
b1000000010001000100001101 =
b1000000010001000100001101 C
b1000000010001000100001101 H
b1000000010001000100001101 I
b100011 R
b11100 )
b11100 W
b11100 e
b10 T
b1 $
b1 J
b1 j
b1 '
b1 U
b1 g
b0 S
b1000000010001000011110001 9
b1000000010001000011110001 E
b100010010111000100011 <
b100010010111000100011 Q
b1000000010001000011110001 %
b1000000010001000011110001 i
b1000000000000000000001000 @
b1000000000000000000000100 0
b1000000000000000000000100 >
b1000000000000000000000100 P
1;
#20
0;
#25
b111100010010001000100011 #
b111100010010001000100011 a
b101 !
b101 D
b101 h
b101 8
b101 F
b10111010110110111010110111111111 &
b10111010110110111010110111111111 B
b10111010110110111010110111111111 L
b1000000000000000000001100 .
b1000000000000000000001100 ?
b1000000000000000000001100 ^
b1 +
b1 A
b1 Y
1,
01
b101 "
b101 [
b101 7
b101 =
b101 C
b101 H
b101 I
13
b0 9
b0 E
b10011 R
b1111 )
b1111 W
b1111 e
b0 T
b0 %
b0 i
b0 (
b0 V
b0 f
b101 $
b101 J
b101 j
b101 '
b101 U
b101 g
b1000000000000000000001100 @
b1000000000000000000001000 0
b1000000000000000000001000 >
b1000000000000000000001000 P
b10100000000011110010011 <
b10100000000011110010011 Q
1;
#30
0;
#35
b100100000000011110010011 #
b100100000000011110010011 a
b100 8
b100 F
b0 !
b0 D
b0 h
b0 &
b0 B
b0 L
b0 +
b0 A
b0 Y
0,
11
b1000000000000000000010000 .
b1000000000000000000010000 ?
b1000000000000000000010000 ^
b100 "
b100 [
b1000000010001000011110101 7
b1000000010001000011110101 =
b1000000010001000011110101 C
b1000000010001000011110101 H
b1000000010001000011110101 I
03
b1000000010001000011110001 9
b1000000010001000011110001 E
b100011 R
b100 )
b100 W
b100 e
b10 T
b1000000010001000011110001 %
b1000000010001000011110001 i
b10 (
b10 V
b10 f
b1111 '
b1111 U
b1111 g
b111100010010001000100011 <
b111100010010001000100011 Q
b1000000000000000000010000 @
b1000000000000000000001100 0
b1000000000000000000001100 >
b1000000000000000000001100 P
1;
#40
0;
#45
b111100010010000000100011 #
b111100010010000000100011 a
b1001 !
b1001 D
b1001 h
b1001 8
b1001 F
b10111010110110111010110111111111 &
b10111010110110111010110111111111 B
b10111010110110111010110111111111 L
b1000000000000000000010100 .
b1000000000000000000010100 ?
b1000000000000000000010100 ^
b1 +
b1 A
b1 Y
1,
01
b1001 "
b1001 [
b1001 7
b1001 =
b1001 C
b1001 H
b1001 I
13
b0 9
b0 E
b10011 R
b1111 )
b1111 W
b1111 e
b0 T
b0 %
b0 i
b0 (
b0 V
b0 f
b1001 $
b1001 J
b1001 j
b1001 '
b1001 U
b1001 g
b1000000000000000000010100 @
b1000000000000000000010000 0
b1000000000000000000010000 >
b1000000000000000000010000 P
b100100000000011110010011 <
b100100000000011110010011 Q
1;
#50
0;
#55
b10010011110000011 #
b10010011110000011 a
b0 8
b0 F
b0 !
b0 D
b0 h
b0 &
b0 B
b0 L
b0 +
b0 A
b0 Y
0,
11
b1000000000000000000011000 .
b1000000000000000000011000 ?
b1000000000000000000011000 ^
b0 "
b0 [
b1000000010001000011110001 7
b1000000010001000011110001 =
b1000000010001000011110001 C
b1000000010001000011110001 H
b1000000010001000011110001 I
03
b1000000010001000011110001 9
b1000000010001000011110001 E
b100011 R
b0 )
b0 W
b0 e
b10 T
b1000000010001000011110001 %
b1000000010001000011110001 i
b10 (
b10 V
b10 f
b1111 '
b1111 U
b1111 g
b111100010010000000100011 <
b111100010010000000100011 Q
b1000000000000000000011000 @
b1000000000000000000010100 0
b1000000000000000000010100 >
b1000000000000000000010100 P
1;
#60
0;
#65
b1001 !
b1001 D
b1001 h
b1001111001011110010011 #
b1001111001011110010011 a
b1001 &
b1001 B
b1001 L
b1000000000000000000011100 .
b1000000000000000000011100 ?
b1000000000000000000011100 ^
1,
01
b11 R
b1111 )
b1111 W
b1111 e
b0 $
b0 J
b0 j
b0 '
b0 U
b0 g
b1000000000000000000011100 @
b1000000000000000000011000 0
b1000000000000000000011000 >
b1000000000000000000011000 P
b10010011110000011 <
b10010011110000011 Q
1;
#70
0;
#75
b100100 !
b100100 D
b100100 h
b111100010010000000100011 #
b111100010010000000100011 a
b10 8
b10 F
b10111010110110111010110111111111 &
b10111010110110111010110111111111 B
b10111010110110111010110111111111 L
b11 :
b11 G
b11 X
b1 +
b1 A
b1 Y
b1000000000000000000100000 .
b1000000000000000000100000 ?
b1000000000000000000100000 ^
b10 "
b10 [
b100100 7
b100100 =
b100100 C
b100100 H
b100100 I
13
b1001 9
b1001 E
b10011 R
b1 T
b1001 %
b1001 i
b1111 (
b1111 V
b1111 f
04
b1000000010001000011110001 $
b1000000010001000011110001 J
b1000000010001000011110001 j
b10 '
b10 U
b10 g
b1001111001011110010011 <
b1001111001011110010011 Q
b1000000000000000000100000 @
b1000000000000000000011100 0
b1000000000000000000011100 >
b1000000000000000000011100 P
1;
#80
0;
#85
b10000010010011110000011 #
b10000010010011110000011 a
b1001 &
b1001 B
b1001 L
b0 8
b0 F
b1001 !
b1001 D
b1001 h
b1000000000000000000100100 .
b1000000000000000000100100 ?
b1000000000000000000100100 ^
b0 +
b0 A
b0 Y
0,
11
b0 :
b0 G
b0 X
b0 "
b0 [
b1000000010001000011110001 7
b1000000010001000011110001 =
b1000000010001000011110001 C
b1000000010001000011110001 H
b1000000010001000011110001 I
03
b1000000010001000011110001 9
b1000000010001000011110001 E
b100011 R
b0 )
b0 W
b0 e
b10 T
b10 (
b10 V
b10 f
04
b100100 $
b100100 J
b100100 j
b1111 '
b1111 U
b1111 g
b1000000000000000000100100 @
b1000000000000000000100000 0
b1000000000000000000100000 >
b1000000000000000000100000 P
b1000000010001000011110001 %
b1000000010001000011110001 i
b111100010010000000100011 <
b111100010010000000100011 Q
1;
#90
0;
#95
b101 !
b101 D
b101 h
b101 &
b101 B
b101 L
b1000000000101111101011110010011 #
b1000000000101111101011110010011 a
b1000000010001000011110101 7
b1000000010001000011110101 =
b1000000010001000011110101 C
b1000000010001000011110101 H
b1000000010001000011110101 I
b100 8
b100 F
1,
01
b1000000000000000000101000 .
b1000000000000000000101000 ?
b1000000000000000000101000 ^
b100 "
b100 [
b11 R
b1111 )
b1111 W
b1111 e
b100 $
b100 J
b100 j
b100 '
b100 U
b100 g
b10000010010011110000011 <
b10000010010011110000011 Q
b1000000000000000000101000 @
b1000000000000000000100100 0
b1000000000000000000100100 >
b1000000000000000000100100 P
1;
#100
0;
#105
b111100010010001000100011 #
b111100010010001000100011 a
b10 !
b10 D
b10 h
b10000000001 8
b10000000001 F
b10111010110110111010110111111111 &
b10111010110110111010110111111111 B
b10111010110110111010110111111111 L
b1000000000000000000101100 .
b1000000000000000000101100 ?
b1000000000000000000101100 ^
b101 :
b101 G
b101 X
b1 +
b1 A
b1 Y
b10000000001 "
b10000000001 [
b10 7
b10 =
b10 C
b10 H
b10 I
b101 9
b101 E
b10011 R
b101 T
b101 %
b101 i
b1111 (
b1111 V
b1111 f
b1 $
b1 J
b1 j
b1 '
b1 U
b1 g
b100000 S
b1000000000000000000101100 @
b1000000000000000000101000 0
b1000000000000000000101000 >
b1000000000000000000101000 P
b1000000000101111101011110010011 <
b1000000000101111101011110010011 Q
1;
#110
0;
#115
b101 &
b101 B
b101 L
b10000010000011110010011 #
b10000010000011110010011 a
b100 8
b100 F
b101 !
b101 D
b101 h
b0 +
b0 A
b0 Y
0,
11
b0 :
b0 G
b0 X
b1000000000000000000110000 .
b1000000000000000000110000 ?
b1000000000000000000110000 ^
b100 "
b100 [
b1000000010001000011110101 7
b1000000010001000011110101 =
b1000000010001000011110101 C
b1000000010001000011110101 H
b1000000010001000011110101 I
b100011 R
b100 )
b100 W
b100 e
b10 T
b10 (
b10 V
b10 f
04
b10 $
b10 J
b10 j
b1111 '
b1111 U
b1111 g
b0 S
b1000000010001000011110001 9
b1000000010001000011110001 E
b111100010010001000100011 <
b111100010010001000100011 Q
b1000000010001000011110001 %
b1000000010001000011110001 i
b1000000000000000000110000 @
b1000000000000000000101100 0
b1000000000000000000101100 >
b1000000000000000000101100 P
1;
#120
0;
#125
b111100010010011000100011 #
b111100010010011000100011 a
b1000000010001000011110101 !
b1000000010001000011110101 D
b1000000010001000011110101 h
b10 &
b10 B
b10 L
b1000000000000000000110100 .
b1000000000000000000110100 ?
b1000000000000000000110100 ^
b1 +
b1 A
b1 Y
1,
01
b10011 R
b1111 )
b1111 W
b1111 e
b0 T
b100 $
b100 J
b100 j
b100 '
b100 U
b100 g
b1000000000000000000110100 @
b1000000000000000000110000 0
b1000000000000000000110000 >
b1000000000000000000110000 P
b10000010000011110010011 <
b10000010000011110010011 Q
1;
#130
0;
#135
b0 &
b0 B
b0 L
b0 !
b0 D
b0 h
b10000011110010011 #
b10000011110010011 a
b1000000010001000011111101 7
b1000000010001000011111101 =
b1000000010001000011111101 C
b1000000010001000011111101 H
b1000000010001000011111101 I
b1100 8
b1100 F
b0 +
b0 A
b0 Y
0,
11
b1000000000000000000111000 .
b1000000000000000000111000 ?
b1000000000000000000111000 ^
b1100 "
b1100 [
13
b100011 R
b1100 )
b1100 W
b1100 e
b10 T
b1000000010001000011110101 $
b1000000010001000011110101 J
b1000000010001000011110101 j
b1111 '
b1111 U
b1111 g
b111100010010011000100011 <
b111100010010011000100011 Q
b1000000000000000000111000 @
b1000000000000000000110100 0
b1000000000000000000110100 >
b1000000000000000000110100 P
1;
#140
0;
#145
b111100010010010000100011 #
b111100010010010000100011 a
b1000000010001000011110001 !
b1000000010001000011110001 D
b1000000010001000011110001 h
b100100 &
b100100 B
b100100 L
b1000000010001000011110001 7
b1000000010001000011110001 =
b1000000010001000011110001 C
b1000000010001000011110001 H
b1000000010001000011110001 I
b0 8
b0 F
b1000000000000000000111100 .
b1000000000000000000111100 ?
b1000000000000000000111100 ^
b1 +
b1 A
b1 Y
1,
01
b0 "
b0 [
03
b10011 R
b1111 )
b1111 W
b1111 e
b0 T
b0 $
b0 J
b0 j
b0 '
b0 U
b0 g
b1000000000000000000111100 @
b1000000000000000000111000 0
b1000000000000000000111000 >
b1000000000000000000111000 P
b10000011110010011 <
b10000011110010011 Q
1;
#150
0;
#155
b0 &
b0 B
b0 L
b0 !
b0 D
b0 h
b100000010010010110000011 #
b100000010010010110000011 a
b1000000010001000011111001 7
b1000000010001000011111001 =
b1000000010001000011111001 C
b1000000010001000011111001 H
b1000000010001000011111001 I
b1000 8
b1000 F
b0 +
b0 A
b0 Y
0,
11
b1000000000000000001000000 .
b1000000000000000001000000 ?
b1000000000000000001000000 ^
b1000 "
b1000 [
b100011 R
b1000 )
b1000 W
b1000 e
b10 T
14
b1000000010001000011110001 $
b1000000010001000011110001 J
b1000000010001000011110001 j
b1111 '
b1111 U
b1111 g
b111100010010010000100011 <
b111100010010010000100011 Q
b1000000000000000001000000 @
b1000000000000000000111100 0
b1000000000000000000111100 >
b1000000000000000000111100 P
1;
#160
0;
#165
b1000000010001000011110001 !
b1000000010001000011110001 D
b1000000010001000011110001 h
b110000010010010100000011 #
b110000010010010100000011 a
b1000000010001000011110001 &
b1000000010001000011110001 B
b1000000010001000011110001 L
b1000000000000000001000100 .
b1000000000000000001000100 ?
b1000000000000000001000100 ^
1,
01
b11 R
b1011 )
b1011 W
b1011 e
04
b1000 $
b1000 J
b1000 j
b1000 '
b1000 U
b1000 g
b1000000000000000001000100 @
b1000000000000000001000000 0
b1000000000000000001000000 >
b1000000000000000001000000 P
b100000010010010110000011 <
b100000010010010110000011 Q
1;
#170
0;
#175
b1000000010001000011110101 !
b1000000010001000011110101 D
b1000000010001000011110101 h
b1000000010001000011110101 &
b1000000010001000011110101 B
b1000000010001000011110101 L
b100010000000000000011101111 #
b100010000000000000011101111 a
b1000000010001000011111101 7
b1000000010001000011111101 =
b1000000010001000011111101 C
b1000000010001000011111101 H
b1000000010001000011111101 I
b1100 8
b1100 F
b1000000000000000001001000 .
b1000000000000000001001000 ?
b1000000000000000001001000 ^
b1100 "
b1100 [
b1010 )
b1010 W
b1010 e
b1100 $
b1100 J
b1100 j
b1100 '
b1100 U
b1100 g
b110000010010010100000011 <
b110000010010010100000011 Q
b1000000000000000001001000 @
b1000000000000000001000100 0
b1000000000000000001000100 >
b1000000000000000001000100 P
1;
#180
0;
#185
b11111110000000010000000100010011 #
b11111110000000010000000100010011 a
b1000000000000000001001100 !
b1000000000000000001001100 D
b1000000000000000001001100 h
b1000100 8
b1000100 F
b11111110000000010000000100010011 &
b11111110000000010000000100010011 B
b11111110000000010000000100010011 L
b1000000000000000010001100 .
b1000000000000000010001100 ?
b1000000000000000010001100 ^
b10 +
b10 A
b10 Y
b1100 :
b1100 G
b1100 X
06
0/
b1000100 "
b1000100 [
b1000000000000000010001100 7
b1000000000000000010001100 =
b1000000000000000010001100 C
b1000000000000000010001100 H
b1000000000000000010001100 I
13
b1000000000000000001001000 9
b1000000000000000001001000 E
b1101111 R
b1 )
b1 W
b1 e
b0 T
b0 %
b0 i
b0 (
b0 V
b0 f
b100 $
b100 J
b100 j
b100 '
b100 U
b100 g
b10 S
b1000000000000000001001100 @
b1000000000000000001001000 0
b1000000000000000001001000 >
b1000000000000000001001000 P
b100010000000000000011101111 <
b100010000000000000011101111 Q
1;
#190
0;
#195
b101000010010011000100011 #
b101000010010011000100011 a
b11111111111111111111111111100000 8
b11111111111111111111111111100000 F
b1000000000000000010010000 .
b1000000000000000010010000 ?
b1000000000000000010010000 ^
b0 &
b0 B
b0 L
b0 :
b0 G
b0 X
b1 +
b1 A
b1 Y
16
1/
b11111111111111111111111111100000 "
b11111111111111111111111111100000 [
b1000000010001000011010001 !
b1000000010001000011010001 D
b1000000010001000011010001 h
03
b1000000010001000011010001 7
b1000000010001000011010001 =
b1000000010001000011010001 C
b1000000010001000011010001 H
b1000000010001000011010001 I
b10011 R
b10 )
b10 W
b10 e
b1000000010001000011110001 %
b1000000010001000011110001 i
b10 (
b10 V
b10 f
04
b0 $
b0 J
b0 j
b0 '
b0 U
b0 g
b1111111 S
b1000000010001000011110001 9
b1000000010001000011110001 E
b11111110000000010000000100010011 <
b11111110000000010000000100010011 Q
b1000000000000000010010000 @
b1000000000000000010001100 0
b1000000000000000010001100 >
b1000000000000000010001100 P
1;
#200
0;
#205
b101100010010010000100011 #
b101100010010010000100011 a
b1100 8
b1100 F
b0 !
b0 D
b0 h
b1000000000000000010010100 .
b1000000000000000010010100 ?
b1000000000000000010010100 ^
b0 +
b0 A
b0 Y
0,
11
b1100 "
b1100 [
b1000000010001000011011101 7
b1000000010001000011011101 =
b1000000010001000011011101 C
b1000000010001000011011101 H
b1000000010001000011011101 I
13
b1000000010001000011010001 9
b1000000010001000011010001 E
b100011 R
b1100 )
b1100 W
b1100 e
b10 T
b1000000010001000011110101 $
b1000000010001000011110101 J
b1000000010001000011110101 j
b1010 '
b1010 U
b1010 g
b0 S
b1000000000000000010010100 @
b1000000000000000010010000 0
b1000000000000000010010000 >
b1000000000000000010010000 P
b1000000010001000011010001 %
b1000000010001000011010001 i
b101000010010011000100011 <
b101000010010011000100011 Q
1;
#210
0;
#215
b110000010010011110000011 #
b110000010010011110000011 a
b1000000010001000011011001 7
b1000000010001000011011001 =
b1000000010001000011011001 C
b1000000010001000011011001 H
b1000000010001000011011001 I
b1000 8
b1000 F
b1000000000000000010011000 .
b1000000000000000010011000 ?
b1000000000000000010011000 ^
b1000 "
b1000 [
b1000 )
b1000 W
b1000 e
b1000000010001000011110001 $
b1000000010001000011110001 J
b1000000010001000011110001 j
b1011 '
b1011 U
b1011 g
b101100010010010000100011 <
b101100010010010000100011 Q
b1000000000000000010011000 @
b1000000000000000010010100 0
b1000000000000000010010100 >
b1000000000000000010010100 P
1;
#220
0;
#225
b1000000010001000011110101 !
b1000000010001000011110101 D
b1000000010001000011110101 h
b1111010011110000011 #
b1111010011110000011 a
b1000000010001000011110101 &
b1000000010001000011110101 B
b1000000010001000011110101 L
b1000000010001000011011101 7
b1000000010001000011011101 =
b1000000010001000011011101 C
b1000000010001000011011101 H
b1000000010001000011011101 I
b1100 8
b1100 F
b1000000000000000010011100 .
b1000000000000000010011100 ?
b1000000000000000010011100 ^
1,
01
b1100 "
b1100 [
03
b11 R
b1111 )
b1111 W
b1111 e
b1100 $
b1100 J
b1100 j
b1100 '
b1100 U
b1100 g
b1000000000000000010011100 @
b1000000000000000010011000 0
b1000000000000000010011000 >
b1000000000000000010011000 P
b110000010010011110000011 <
b110000010010011110000011 Q
1;
#230
0;
#235
b10 !
b10 D
b10 h
b111100010010111000100011 #
b111100010010111000100011 a
b0 8
b0 F
b10 &
b10 B
b10 L
b1000000000000000010100000 .
b1000000000000000010100000 ?
b1000000000000000010100000 ^
b0 "
b0 [
b1000000010001000011110101 7
b1000000010001000011110101 =
b1000000010001000011110101 C
b1000000010001000011110101 H
b1000000010001000011110101 I
b1000000010001000011110101 9
b1000000010001000011110101 E
b1000000010001000011110101 %
b1000000010001000011110101 i
b1111 (
b1111 V
b1111 f
b0 $
b0 J
b0 j
b0 '
b0 U
b0 g
b1111010011110000011 <
b1111010011110000011 Q
b1000000000000000010100000 @
b1000000000000000010011100 0
b1000000000000000010011100 >
b1000000000000000010011100 P
1;
#240
0;
#245
b0 !
b0 D
b0 h
b100000010010011110000011 #
b100000010010011110000011 a
b11100 8
b11100 F
b0 &
b0 B
b0 L
b1000000000000000010100100 .
b1000000000000000010100100 ?
b1000000000000000010100100 ^
0,
11
b11100 "
b11100 [
b1000000010001000011101101 7
b1000000010001000011101101 =
b1000000010001000011101101 C
b1000000010001000011101101 H
b1000000010001000011101101 I
b1000000010001000011010001 9
b1000000010001000011010001 E
b100011 R
b11100 )
b11100 W
b11100 e
b10 (
b10 V
b10 f
04
b10 $
b10 J
b10 j
b1111 '
b1111 U
b1111 g
b1000000000000000010100100 @
b1000000000000000010100000 0
b1000000000000000010100000 >
b1000000000000000010100000 P
b1000000010001000011010001 %
b1000000010001000011010001 i
b111100010010111000100011 <
b111100010010111000100011 Q
1;
#250
0;
#255
b1000000010001000011110001 !
b1000000010001000011110001 D
b1000000010001000011110001 h
b1000000010001000011110001 &
b1000000010001000011110001 B
b1000000010001000011110001 L
b1111010011100000011 #
b1111010011100000011 a
b1000000010001000011011001 7
b1000000010001000011011001 =
b1000000010001000011011001 C
b1000000010001000011011001 H
b1000000010001000011011001 I
b1000 8
b1000 F
1,
01
b1000000000000000010101000 .
b1000000000000000010101000 ?
b1000000000000000010101000 ^
b1000 "
b1000 [
b11 R
b1111 )
b1111 W
b1111 e
b1000 $
b1000 J
b1000 j
b1000 '
b1000 U
b1000 g
b100000010010011110000011 <
b100000010010011110000011 Q
b1000000000000000010101000 @
b1000000000000000010100100 0
b1000000000000000010100100 >
b1000000000000000010100100 P
1;
#260
0;
#265
b100100 !
b100100 D
b100100 h
b100100 &
b100100 B
b100100 L
b110000010010011110000011 #
b110000010010011110000011 a
b0 8
b0 F
b1000000000000000010101100 .
b1000000000000000010101100 ?
b1000000000000000010101100 ^
b0 "
b0 [
b1000000010001000011110001 7
b1000000010001000011110001 =
b1000000010001000011110001 C
b1000000010001000011110001 H
b1000000010001000011110001 I
b1000000010001000011110001 9
b1000000010001000011110001 E
b1110 )
b1110 W
b1110 e
b1000000010001000011110001 %
b1000000010001000011110001 i
b1111 (
b1111 V
b1111 f
b0 $
b0 J
b0 j
b0 '
b0 U
b0 g
b1000000000000000010101100 @
b1000000000000000010101000 0
b1000000000000000010101000 >
b1000000000000000010101000 P
b1111010011100000011 <
b1111010011100000011 Q
1;
#270
0;
#275
b1000000010001000011110101 !
b1000000010001000011110101 D
b1000000010001000011110101 h
b111001111010000000100011 #
b111001111010000000100011 a
b1100 8
b1100 F
b1000000010001000011110101 &
b1000000010001000011110101 B
b1000000010001000011110101 L
b1000000000000000010110000 .
b1000000000000000010110000 ?
b1000000000000000010110000 ^
b1100 "
b1100 [
b1000000010001000011011101 7
b1000000010001000011011101 =
b1000000010001000011011101 C
b1000000010001000011011101 H
b1000000010001000011011101 I
b1000000010001000011010001 9
b1000000010001000011010001 E
b1111 )
b1111 W
b1111 e
b1000000010001000011010001 %
b1000000010001000011010001 i
b10 (
b10 V
b10 f
b1100 $
b1100 J
b1100 j
b1100 '
b1100 U
b1100 g
b110000010010011110000011 <
b110000010010011110000011 Q
b1000000000000000010110000 @
b1000000000000000010101100 0
b1000000000000000010101100 >
b1000000000000000010101100 P
1;
#280
0;
#285
b10 !
b10 D
b10 h
b100000010010011110000011 #
b100000010010011110000011 a
b0 8
b0 F
b10 &
b10 B
b10 L
b1000000000000000010110100 .
b1000000000000000010110100 ?
b1000000000000000010110100 ^
0,
11
b0 "
b0 [
b1000000010001000011110101 7
b1000000010001000011110101 =
b1000000010001000011110101 C
b1000000010001000011110101 H
b1000000010001000011110101 I
b1000000010001000011110101 9
b1000000010001000011110101 E
b100011 R
b0 )
b0 W
b0 e
b1000000010001000011110101 %
b1000000010001000011110101 i
b1111 (
b1111 V
b1111 f
b100100 $
b100100 J
b100100 j
b1110 '
b1110 U
b1110 g
b1000000000000000010110100 @
b1000000000000000010110000 0
b1000000000000000010110000 >
b1000000000000000010110000 P
b111001111010000000100011 <
b111001111010000000100011 Q
1;
#290
0;
#295
b1000000010001000011110001 !
b1000000010001000011110001 D
b1000000010001000011110001 h
b1110000010010011100000011 #
b1110000010010011100000011 a
b1000 8
b1000 F
b1000000010001000011110001 &
b1000000010001000011110001 B
b1000000010001000011110001 L
1,
01
b1000000000000000010111000 .
b1000000000000000010111000 ?
b1000000000000000010111000 ^
b1000 "
b1000 [
b1000000010001000011011001 7
b1000000010001000011011001 =
b1000000010001000011011001 C
b1000000010001000011011001 H
b1000000010001000011011001 I
b1000000010001000011010001 9
b1000000010001000011010001 E
b11 R
b1111 )
b1111 W
b1111 e
b1000000010001000011010001 %
b1000000010001000011010001 i
b10 (
b10 V
b10 f
b1000 $
b1000 J
b1000 j
b1000 '
b1000 U
b1000 g
b100000010010011110000011 <
b100000010010011110000011 Q
b1000000000000000010111000 @
b1000000000000000010110100 0
b1000000000000000010110100 >
b1000000000000000010110100 P
1;
#300
0;
#305
b10 !
b10 D
b10 h
b10 &
b10 B
b10 L
b111001111010000000100011 #
b111001111010000000100011 a
b1000000010001000011101101 7
b1000000010001000011101101 =
b1000000010001000011101101 C
b1000000010001000011101101 H
b1000000010001000011101101 I
b11100 8
b11100 F
b1000000000000000010111100 .
b1000000000000000010111100 ?
b1000000000000000010111100 ^
b11100 "
b11100 [
b1110 )
b1110 W
b1110 e
b11100 $
b11100 J
b11100 j
b11100 '
b11100 U
b11100 g
b1000000000000000010111100 @
b1000000000000000010111000 0
b1000000000000000010111000 >
b1000000000000000010111000 P
b1110000010010011100000011 <
b1110000010010011100000011 Q
1;
#310
0;
