PD3/Submission/ADDI-instruction-test.vcd
$date
	Thu Jun 11 20:14:22 2020
$end
$version
	Icarus Verilog
$end
$timescale
	1s
$end
$scope module dut $end
$var wire 32 ! wb [31:0] $end
$var wire 32 " imm [31:0] $end
$var wire 32 # i_mem_out [31:0] $end
$var wire 32 $ data_rs2 [31:0] $end
$var wire 32 % data_rs1 [31:0] $end
$var wire 32 & d_mem_out [31:0] $end
$var wire 5 ' addr_rs2 [4:0] $end
$var wire 5 ( addr_rs1 [4:0] $end
$var wire 5 ) addr_rd [4:0] $end
$var wire 2 * access_size [1:0] $end
$var wire 2 + WBSel [1:0] $end
$var wire 1 , RegWE $end
$var wire 1 - RdUn $end
$var wire 32 . PC_next [31:0] $end
$var wire 1 / PCSel $end
$var wire 32 0 PC [31:0] $end
$var wire 1 1 MemRW $end
$var wire 1 2 BrUn $end
$var wire 1 3 BrLt $end
$var wire 1 4 BrEq $end
$var wire 1 5 BSel $end
$var wire 1 6 ASel $end
$var wire 32 7 ALU_out [31:0] $end
$var wire 32 8 ALU_in2 [31:0] $end
$var wire 32 9 ALU_in1 [31:0] $end
$var wire 4 : ALUSel [3:0] $end
$var reg 1 ; clk $end
$var reg 32 < instruction [31:0] $end
$scope module PCMux $end
$var wire 1 ; clk $end
$var wire 1 / PCSel $end
$var wire 32 = ALU_out [31:0] $end
$var reg 32 > PC [31:0] $end
$var reg 32 ? PC_next [31:0] $end
$upscope $end
$scope module WBMux1 $end
$var wire 1 ; clk $end
$var wire 32 @ pc_next [31:0] $end
$var wire 2 A sel [1:0] $end
$var wire 32 B dmem [31:0] $end
$var wire 32 C alu [31:0] $end
$var reg 32 D out [31:0] $end
$upscope $end
$scope module alu1 $end
$var wire 32 E rs1 [31:0] $end
$var wire 32 F rs2 [31:0] $end
$var wire 4 G ALUsel [3:0] $end
$var reg 32 H alu_res [31:0] $end
$upscope $end
$scope module d_mem $end
$var wire 32 I address [31:0] $end
$var wire 1 ; clk $end
$var wire 1 1 w_enable $end
$var wire 32 J data_in [31:0] $end
$var wire 2 K access_size [1:0] $end
$var wire 1 - RdUn $end
$var reg 32 L data_out [31:0] $end
$var integer 32 M i [31:0] $end
$upscope $end
$scope module fd1 $end
$var wire 1 4 BrEq $end
$var wire 1 3 BrLt $end
$var wire 32 N PC [31:0] $end
$var wire 1 ; clk $end
$var wire 32 O instruction [31:0] $end
$var wire 7 P opcode [6:0] $end
$var wire 7 Q funct7 [6:0] $end
$var wire 3 R funct3 [2:0] $end
$var wire 5 S addr_rs2 [4:0] $end
$var wire 5 T addr_rs1 [4:0] $end
$var wire 5 U addr_rd [4:0] $end
$var wire 1 2 BrUn $end
$var reg 4 V ALUSel [3:0] $end
$var reg 1 6 ASel $end
$var reg 1 5 BSel $end
$var reg 1 1 MemRW $end
$var reg 1 / PCSel $end
$var reg 1 - RdUn $end
$var reg 1 , RegWE $end
$var reg 2 W WBSel [1:0] $end
$var reg 2 X access_size [1:0] $end
$var reg 32 Y imm [31:0] $end
$scope task decode_bType $end
$upscope $end
$scope task decode_iType $end
$upscope $end
$scope task decode_jType $end
$upscope $end
$scope task decode_rType $end
$upscope $end
$scope task decode_sType $end
$upscope $end
$scope task decode_uType $end
$upscope $end
$upscope $end
$scope module i_mem $end
$var wire 1 Z RdUn $end
$var wire 2 [ access_size [1:0] $end
$var wire 32 \ address [31:0] $end
$var wire 1 ; clk $end
$var wire 32 ] data_in [31:0] $end
$var wire 1 ^ w_enable $end
$var reg 32 _ data_out [31:0] $end
$var reg 32 ` t_reg [31:0] $end
$var integer 32 a i [31:0] $end
$upscope $end
$scope module reg_file $end
$var wire 5 b addr_rd [4:0] $end
$var wire 5 c addr_rs1 [4:0] $end
$var wire 5 d addr_rs2 [4:0] $end
$var wire 1 ; clk $end
$var wire 32 e data_rd [31:0] $end
$var wire 32 f data_rs1 [31:0] $end
$var wire 32 g data_rs2 [31:0] $end
$var wire 1 , write_enable $end
$var integer 32 h i [31:0] $end
$scope begin genblk1[0] $end
$upscope $end
$scope begin genblk1[1] $end
$upscope $end
$scope begin genblk1[2] $end
$upscope $end
$scope begin genblk1[3] $end
$upscope $end
$scope begin genblk1[4] $end
$upscope $end
$scope begin genblk1[5] $end
$upscope $end
$scope begin genblk1[6] $end
$upscope $end
$scope begin genblk1[7] $end
$upscope $end
$scope begin genblk1[8] $end
$upscope $end
$scope begin genblk1[9] $end
$upscope $end
$scope begin genblk1[10] $end
$upscope $end
$scope begin genblk1[11] $end
$upscope $end
$scope begin genblk1[12] $end
$upscope $end
$scope begin genblk1[13] $end
$upscope $end
$scope begin genblk1[14] $end
$upscope $end
$scope begin genblk1[15] $end
$upscope $end
$scope begin genblk1[16] $end
$upscope $end
$scope begin genblk1[17] $end
$upscope $end
$scope begin genblk1[18] $end
$upscope $end
$scope begin genblk1[19] $end
$upscope $end
$scope begin genblk1[20] $end
$upscope $end
$scope begin genblk1[21] $end
$upscope $end
$scope begin genblk1[22] $end
$upscope $end
$scope begin genblk1[23] $end
$upscope $end
$scope begin genblk1[24] $end
$upscope $end
$scope begin genblk1[25] $end
$upscope $end
$scope begin genblk1[26] $end
$upscope $end
$scope begin genblk1[27] $end
$upscope $end
$scope begin genblk1[28] $end
$upscope $end
$scope begin genblk1[29] $end
$upscope $end
$scope begin genblk1[30] $end
$upscope $end
$scope begin genblk1[31] $end
$upscope $end
$upscope $end
$upscope $end
$enddefinitions $end
#0
$dumpvars
b100000 h
bx g
bx f
bx e
bx d
bx c
bx b
b100000000000000000001 a
bx `
b10010011 _
0^
b0 ]
b1000000000000000000000000 \
b10 [
0Z
bx Y
b0 X
b1 W
b0 V
bx U
bx T
bx S
bx R
bx Q
bx P
bx O
b111111111111111111111100 N
b1000100000000000000000000 M
bx L
b0 K
bx J
bx I
bx H
b0 G
bx F
bx E
bx D
bx C
bx B
b1 A
b1000000000000000000000000 @
b1000000000000000000000000 ?
b111111111111111111111100 >
bx =
bx <
0;
b0 :
bx 9
bx 8
bx 7
x6
x5
x4
x3
x2
x1
b111111111111111111111100 0
1/
b1000000000000000000000000 .
0-
x,
b1 +
b0 *
bx )
bx (
bx '
bx &
bx %
bx $
b10010011 #
bx "
bx !
$end
#5
b0 !
b0 D
b0 e
02
b1000111100010011 #
b1000111100010011 _
b0 7
b0 =
b0 C
b0 H
b0 I
b10111010110110111010110111111111 &
b10111010110110111010110111111111 B
b10111010110110111010110111111111 L
03
b0 8
b0 F
b1000000000000000000000100 .
b1000000000000000000000100 ?
b1000000000000000000000100 \
b0 9
b0 E
1,
01
05
16
b0 "
b0 Y
b10011 P
b1 )
b1 U
b1 b
b0 R
14
b0 %
b0 f
b0 (
b0 T
b0 c
b0 $
b0 J
b0 g
b0 '
b0 S
b0 d
b0 Q
b1000000000000000000000100 @
b1000000000000000000000000 0
b1000000000000000000000000 >
b1000000000000000000000000 N
b10010011 <
b10010011 O
1;
#10
0;
#15
b111010010011 #
b111010010011 _
b11110 )
b11110 U
b11110 b
b1 (
b1 T
b1 c
b1000000000000000000001000 .
b1000000000000000000001000 ?
b1000000000000000000001000 \
b1000111100010011 <
b1000111100010011 O
b1000000000000000000001000 @
b1000000000000000000000100 0
b1000000000000000000000100 >
b1000000000000000000000100 N
1;
#20
0;
#25
b1000000000000110010011 #
b1000000000000110010011 _
b1000000000000000000001100 .
b1000000000000000000001100 ?
b1000000000000000000001100 \
b11101 )
b11101 U
b11101 b
b0 (
b0 T
b0 c
b1000000000000000000001100 @
b1000000000000000000001000 0
b1000000000000000000001000 >
b1000000000000000000001000 N
b111010010011 <
b111010010011 O
1;
#30
0;
#35
b10 !
b10 D
b10 e
b10 7
b10 =
b10 C
b10 H
b10 I
13
b100111110111110001110001100011 #
b100111110111110001110001100011 _
b10 8
b10 F
b11 )
b11 U
b11 b
04
b10 $
b10 J
b10 g
b10 '
b10 S
b10 d
b1000000000000000000010000 .
b1000000000000000000010000 ?
b1000000000000000000010000 \
b10 "
b10 Y
b1000000000000110010011 <
b1000000000000110010011 O
b1000000000000000000010000 @
b1000000000000000000001100 0
b1000000000000000000001100 >
b1000000000000000000001100 N
1;
#40
0;
#45
b0 !
b0 D
b0 e
b0 &
b0 B
b0 L
b1000000000000001010001000 7
b1000000000000001010001000 =
b1000000000000001010001000 C
b1000000000000001010001000 H
b1000000000000001010001000 I
b100000000000010010011 #
b100000000000010010011 _
b1000000000000000000010000 9
b1000000000000000000010000 E
b1001111000 8
b1001111000 F
03
b1000000000000000000010100 .
b1000000000000000000010100 ?
b1000000000000000000010100 \
b0 +
b0 A
b0 W
0,
06
b1001111000 "
b1001111000 Y
b1100011 P
b11000 )
b11000 U
b11000 b
b1 R
b11110 (
b11110 T
b11110 c
14
b0 $
b0 J
b0 g
b11101 '
b11101 S
b11101 d
b10011 Q
b1000000000000000000010100 @
b1000000000000000000010000 0
b1000000000000000000010000 >
b1000000000000000000010000 N
b100111110111110001110001100011 <
b100111110111110001110001100011 O
1;
#50
0;
#55
b1 !
b1 D
b1 e
b10111010110110111010110111111111 &
b10111010110110111010110111111111 B
b10111010110110111010110111111111 L
b1 +
b1 A
b1 W
1,
16
b100001000111100010011 #
b100001000111100010011 _
b1 8
b1 F
b1 7
b1 =
b1 C
b1 H
b1 I
b10011 P
b1 )
b1 U
b1 b
b0 R
b0 (
b0 T
b0 c
b1 '
b1 S
b1 d
b0 Q
b1000000000000000000011000 .
b1000000000000000000011000 ?
b1000000000000000000011000 \
b1 "
b1 Y
b0 9
b0 E
b100000000000010010011 <
b100000000000010010011 O
b1000000000000000000011000 @
b1000000000000000000010100 0
b1000000000000000000010100 >
b1000000000000000000010100 N
1;
#60
0;
#65
b10 !
b10 D
b10 e
b10 7
b10 =
b10 C
b10 H
b10 I
b1000000000111010010011 #
b1000000000111010010011 _
b1 9
b1 E
b1000000000000000000011100 .
b1000000000000000000011100 ?
b1000000000000000000011100 \
b11110 )
b11110 U
b11110 b
b1 %
b1 f
b1 (
b1 T
b1 c
b1000000000000000000011100 @
b1000000000000000000011000 0
b1000000000000000000011000 >
b1000000000000000000011000 N
14
b1 $
b1 J
b1 g
b100001000111100010011 <
b100001000111100010011 O
1;
#70
0;
#75
b0 9
b0 E
13
b1100000000000110010011 #
b1100000000000110010011 _
b10 8
b10 F
b11101 )
b11101 U
b11101 b
b0 %
b0 f
b0 (
b0 T
b0 c
04
b10 $
b10 J
b10 g
b10 '
b10 S
b10 d
b1000000000000000000100000 .
b1000000000000000000100000 ?
b1000000000000000000100000 \
b10 "
b10 Y
b1000000000111010010011 <
b1000000000111010010011 O
b1000000000000000000100000 @
b1000000000000000000011100 0
b1000000000000000000011100 >
b1000000000000000000011100 N
1;
#80
0;
#85
b11 !
b11 D
b11 e
b11 7
b11 =
b11 C
b11 H
b11 I
b100111110111110001001001100011 #
b100111110111110001001001100011 _
b11 8
b11 F
b1000000000000000000100100 .
b1000000000000000000100100 ?
b1000000000000000000100100 \
b11 "
b11 Y
b11 )
b11 U
b11 b
b11 '
b11 S
b11 d
b1000000000000000000100100 @
b1000000000000000000100000 0
b1000000000000000000100000 >
b1000000000000000000100000 N
b1100000000000110010011 <
b1100000000000110010011 O
1;
#90
0;
#95
b0 !
b0 D
b0 e
b0 &
b0 B
b0 L
b1000000000000001010001000 7
b1000000000000001010001000 =
b1000000000000001010001000 C
b1000000000000001010001000 H
b1000000000000001010001000 I
03
b1000000000000000000100100 9
b1000000000000000000100100 E
b0 +
b0 A
b0 W
0,
06
b1100000000000010010011 #
b1100000000000010010011 _
b1001100100 8
b1001100100 F
b1100011 P
b100 )
b100 U
b100 b
b1 R
14
b10 %
b10 f
b11110 (
b11110 T
b11110 c
b11101 '
b11101 S
b11101 d
b10011 Q
b1000000000000000000101000 .
b1000000000000000000101000 ?
b1000000000000000000101000 \
b1001100100 "
b1001100100 Y
b100111110111110001001001100011 <
b100111110111110001001001100011 O
b10 $
b10 J
b10 g
b1000000000000000000101000 @
b1000000000000000000100100 0
b1000000000000000000100100 >
b1000000000000000000100100 N
1;
#100
0;
#105
b11 !
b11 D
b11 e
b10111010110110111010110111111111 &
b10111010110110111010110111111111 B
b10111010110110111010110111111111 L
b11100001000111100010011 #
b11100001000111100010011 _
b11 7
b11 =
b11 C
b11 H
b11 I
b11 8
b11 F
13
b1000000000000000000101100 .
b1000000000000000000101100 ?
b1000000000000000000101100 \
b0 9
b0 E
b1 +
b1 A
b1 W
1,
16
b11 "
b11 Y
b10011 P
b1 )
b1 U
b1 b
b0 R
b0 %
b0 f
b0 (
b0 T
b0 c
04
b11 $
b11 J
b11 g
b11 '
b11 S
b11 d
b0 Q
b1000000000000000000101100 @
b1000000000000000000101000 0
b1000000000000000000101000 >
b1000000000000000000101000 N
b1100000000000010010011 <
b1100000000000010010011 O
1;
#110
0;
#115
b1010 !
b1010 D
b1010 e
b1010 7
b1010 =
b1010 C
b1010 H
b1010 I
b11 9
b11 E
b101000000000111010010011 #
b101000000000111010010011 _
b111 8
b111 F
b11110 )
b11110 U
b11110 b
b11 %
b11 f
b1 (
b1 T
b1 c
b111 $
b111 J
b111 g
b111 '
b111 S
b111 d
b1000000000000000000110000 .
b1000000000000000000110000 ?
b1000000000000000000110000 \
b111 "
b111 Y
b11100001000111100010011 <
b11100001000111100010011 O
b1000000000000000000110000 @
b1000000000000000000101100 0
b1000000000000000000101100 >
b1000000000000000000101100 N
1;
#120
0;
#125
b10000000000000110010011 #
b10000000000000110010011 _
b1010 8
b1010 F
b0 9
b0 E
b1000000000000000000110100 .
b1000000000000000000110100 ?
b1000000000000000000110100 \
b1010 "
b1010 Y
b11101 )
b11101 U
b11101 b
b0 %
b0 f
b0 (
b0 T
b0 c
b1010 $
b1010 J
b1010 g
b1010 '
b1010 S
b1010 d
b1000000000000000000110100 @
b1000000000000000000110000 0
b1000000000000000000110000 >
b1000000000000000000110000 N
b101000000000111010010011 <
b101000000000111010010011 O
1;
#130
0;
#135
b100 !
b100 D
b100 e
b100 7
b100 =
b100 C
b100 H
b100 I
b100101110111110001100001100011 #
b100101110111110001100001100011 _
b100 8
b100 F
b11 )
b11 U
b11 b
b100 $
b100 J
b100 g
b100 '
b100 S
b100 d
b1000000000000000000111000 .
b1000000000000000000111000 ?
b1000000000000000000111000 \
b100 "
b100 Y
b10000000000000110010011 <
b10000000000000110010011 O
b1000000000000000000111000 @
b1000000000000000000110100 0
b1000000000000000000110100 >
b1000000000000000000110100 N
1;
#140
0;
#145
b0 !
b0 D
b0 e
b0 &
b0 B
b0 L
b1000000000000001010001000 7
b1000000000000001010001000 =
b1000000000000001010001000 C
b1000000000000001010001000 H
b1000000000000001010001000 I
b10010011 #
b10010011 _
b1001010000 8
b1001010000 F
03
b1000000000000000000111000 9
b1000000000000000000111000 E
b1000000000000000000111100 .
b1000000000000000000111100 ?
b1000000000000000000111100 \
b0 +
b0 A
b0 W
0,
06
b1001010000 "
b1001010000 Y
b1100011 P
b10000 )
b10000 U
b10000 b
b1 R
14
b1010 %
b1010 f
b11110 (
b11110 T
b11110 c
b1010 $
b1010 J
b1010 g
b11101 '
b11101 S
b11101 d
b10010 Q
b1000000000000000000111100 @
b1000000000000000000111000 0
b1000000000000000000111000 >
b1000000000000000000111000 N
b100101110111110001100001100011 <
b100101110111110001100001100011 O
1;
#150
0;
#155
b0 !
b0 D
b0 e
b10111010110110111010110111111111 &
b10111010110110111010110111111111 B
b10111010110110111010110111111111 L
b1 +
b1 A
b1 W
1,
16
b10000000000000001000111100010011 #
b10000000000000001000111100010011 _
b0 8
b0 F
b0 7
b0 =
b0 C
b0 H
b0 I
b10011 P
b1 )
b1 U
b1 b
b0 R
b0 %
b0 f
b0 (
b0 T
b0 c
14
b0 $
b0 J
b0 g
b0 '
b0 S
b0 d
b0 Q
b1000000000000000001000000 .
b1000000000000000001000000 ?
b1000000000000000001000000 \
b0 "
b0 Y
b0 9
b0 E
b10010011 <
b10010011 O
b1000000000000000001000000 @
b1000000000000000000111100 0
b1000000000000000000111100 >
b1000000000000000000111100 N
1;
#160
0;
#165
b11111111111111111111100000000000 !
b11111111111111111111100000000000 D
b11111111111111111111100000000000 e
b11111111111111111111100000000000 7
b11111111111111111111100000000000 =
b11111111111111111111100000000000 C
b11111111111111111111100000000000 H
b11111111111111111111100000000000 I
b10000000000000000000111010010011 #
b10000000000000000000111010010011 _
b11111111111111111111100000000000 8
b11111111111111111111100000000000 F
b1000000000000000001000100 .
b1000000000000000001000100 ?
b1000000000000000001000100 \
b11111111111111111111100000000000 "
b11111111111111111111100000000000 Y
b11110 )
b11110 U
b11110 b
b1 (
b1 T
b1 c
b1000000 Q
b1000000000000000001000100 @
b1000000000000000001000000 0
b1000000000000000001000000 >
b1000000000000000001000000 N
b10000000000000001000111100010011 <
b10000000000000001000111100010011 O
1;
#170
0;
#175
b10100000000000110010011 #
b10100000000000110010011 _
b11101 )
b11101 U
b11101 b
b0 (
b0 T
b0 c
b1000000000000000001001000 .
b1000000000000000001001000 ?
b1000000000000000001001000 \
b10000000000000000000111010010011 <
b10000000000000000000111010010011 O
b1000000000000000001001000 @
b1000000000000000001000100 0
b1000000000000000001000100 >
b1000000000000000001000100 N
1;
#180
0;
#185
b101 !
b101 D
b101 e
b101 7
b101 =
b101 C
b101 H
b101 I
b100011110111110001111001100011 #
b100011110111110001111001100011 _
b101 8
b101 F
13
b1000000000000000001001100 .
b1000000000000000001001100 ?
b1000000000000000001001100 \
b101 "
b101 Y
b11 )
b11 U
b11 b
04
b101 $
b101 J
b101 g
b101 '
b101 S
b101 d
b0 Q
b1000000000000000001001100 @
b1000000000000000001001000 0
b1000000000000000001001000 >
b1000000000000000001001000 N
b10100000000000110010011 <
b10100000000000110010011 O
1;
#190
0;
#195
b0 !
b0 D
b0 e
b0 &
b0 B
b0 L
b1000000000000001010001000 7
b1000000000000001010001000 =
b1000000000000001010001000 C
b1000000000000001010001000 H
b1000000000000001010001000 I
b1000000000000000001001100 9
b1000000000000000001001100 E
03
b0 +
b0 A
b0 W
0,
06
b10000000000000000000000010110111 #
b10000000000000000000000010110111 _
b1000111100 8
b1000111100 F
b1100011 P
b11100 )
b11100 U
b11100 b
b1 R
14
b11111111111111111111100000000000 %
b11111111111111111111100000000000 f
b11110 (
b11110 T
b11110 c
b11111111111111111111100000000000 $
b11111111111111111111100000000000 J
b11111111111111111111100000000000 g
b11101 '
b11101 S
b11101 d
b10001 Q
b1000000000000000001010000 .
b1000000000000000001010000 ?
b1000000000000000001010000 \
b1000111100 "
b1000111100 Y
b100011110111110001111001100011 <
b100011110111110001111001100011 O
b1000000000000000001010000 @
b1000000000000000001001100 0
b1000000000000000001001100 >
b1000000000000000001001100 N
1;
#200
0;
#205
b10000000000000000000000000000000 !
b10000000000000000000000000000000 D
b10000000000000000000000000000000 e
b10111010110110111010110111111111 &
b10111010110110111010110111111111 B
b10111010110110111010110111111111 L
b1000111100010011 #
b1000111100010011 _
b10000000000000000000000000000000 7
b10000000000000000000000000000000 =
b10000000000000000000000000000000 C
b10000000000000000000000000000000 H
b10000000000000000000000000000000 I
b10000000000000000000000000000000 8
b10000000000000000000000000000000 F
b1000000000000000001010100 .
b1000000000000000001010100 ?
b1000000000000000001010100 \
b0 9
b0 E
b1 +
b1 A
b1 W
1,
b1011 :
b1011 G
b1011 V
16
b10000000000000000000000000000000 "
b10000000000000000000000000000000 Y
b110111 P
b1 )
b1 U
b1 b
b0 R
b0 %
b0 f
b0 (
b0 T
b0 c
14
b0 $
b0 J
b0 g
b0 '
b0 S
b0 d
b1000000 Q
b1000000000000000001010100 @
b1000000000000000001010000 0
b1000000000000000001010000 >
b1000000000000000001010000 N
b10000000000000000000000010110111 <
b10000000000000000000000010110111 O
1;
#210
0;
#215
b10000000000000000000000000000000 !
b10000000000000000000000000000000 D
b10000000000000000000000000000000 e
b10000000000000000000000000000000 7
b10000000000000000000000000000000 =
b10000000000000000000000000000000 C
b10000000000000000000000000000000 H
b10000000000000000000000000000000 I
13
b10000000000000000000000000000000 9
b10000000000000000000000000000000 E
b0 :
b0 G
b0 V
b10000000000000000000111010110111 #
b10000000000000000000111010110111 _
b0 8
b0 F
b10011 P
b11110 )
b11110 U
b11110 b
04
b10000000000000000000000000000000 %
b10000000000000000000000000000000 f
b1 (
b1 T
b1 c
b0 Q
b1000000000000000001011000 .
b1000000000000000001011000 ?
b1000000000000000001011000 \
b0 "
b0 Y
b1000111100010011 <
b1000111100010011 O
b1000000000000000001011000 @
b1000000000000000001010100 0
b1000000000000000001010100 >
b1000000000000000001010100 N
1;
#220
0;
#225
b11000000000000110010011 #
b11000000000000110010011 _
b10000000000000000000000000000000 8
b10000000000000000000000000000000 F
03
b0 9
b0 E
b1000000000000000001011100 .
b1000000000000000001011100 ?
b1000000000000000001011100 \
b1011 :
b1011 G
b1011 V
b10000000000000000000000000000000 "
b10000000000000000000000000000000 Y
b110111 P
b11101 )
b11101 U
b11101 b
14
b0 %
b0 f
b0 (
b0 T
b0 c
b1000000 Q
b1000000000000000001011100 @
b1000000000000000001011000 0
b1000000000000000001011000 >
b1000000000000000001011000 N
b10000000000000000000111010110111 <
b10000000000000000000111010110111 O
1;
#230
0;
#235
b110 !
b110 D
b110 e
b110 7
b110 =
b110 C
b110 H
b110 I
13
b0 :
b0 G
b0 V
b100011110111110001010001100011 #
b100011110111110001010001100011 _
b110 8
b110 F
b10011 P
b11 )
b11 U
b11 b
04
b110 $
b110 J
b110 g
b110 '
b110 S
b110 d
b0 Q
b1000000000000000001100000 .
b1000000000000000001100000 ?
b1000000000000000001100000 \
b110 "
b110 Y
b11000000000000110010011 <
b11000000000000110010011 O
b1000000000000000001100000 @
b1000000000000000001011100 0
b1000000000000000001011100 >
b1000000000000000001011100 N
1;
#240
0;
#245
b0 !
b0 D
b0 e
b0 &
b0 B
b0 L
b1000000000000001010001000 7
b1000000000000001010001000 =
b1000000000000001010001000 C
b1000000000000001010001000 H
b1000000000000001010001000 I
b10000000000000000000000010110111 #
b10000000000000000000000010110111 _
b1000101000 8
b1000101000 F
b1000000000000000001100000 9
b1000000000000000001100000 E
03
b1000000000000000001100100 .
b1000000000000000001100100 ?
b1000000000000000001100100 \
b0 +
b0 A
b0 W
0,
06
b1000101000 "
b1000101000 Y
b1100011 P
b1000 )
b1000 U
b1000 b
b1 R
14
b10000000000000000000000000000000 %
b10000000000000000000000000000000 f
b11110 (
b11110 T
b11110 c
b10000000000000000000000000000000 $
b10000000000000000000000000000000 J
b10000000000000000000000000000000 g
b11101 '
b11101 S
b11101 d
b10001 Q
b1000000000000000001100100 @
b1000000000000000001100000 0
b1000000000000000001100000 >
b1000000000000000001100000 N
b100011110111110001010001100011 <
b100011110111110001010001100011 O
1;
#250
0;
#255
b10000000000000000000000000000000 !
b10000000000000000000000000000000 D
b10000000000000000000000000000000 e
b10111010110110111010110111111111 &
b10111010110110111010110111111111 B
b10111010110110111010110111111111 L
b1 +
b1 A
b1 W
1,
b1011 :
b1011 G
b1011 V
16
b10000000000000001000111100010011 #
b10000000000000001000111100010011 _
b10000000000000000000000000000000 8
b10000000000000000000000000000000 F
b10000000000000000000000000000000 7
b10000000000000000000000000000000 =
b10000000000000000000000000000000 C
b10000000000000000000000000000000 H
b10000000000000000000000000000000 I
b110111 P
b1 )
b1 U
b1 b
b0 R
b0 %
b0 f
b0 (
b0 T
b0 c
14
b0 $
b0 J
b0 g
b0 '
b0 S
b0 d
b1000000 Q
b1000000000000000001101000 .
b1000000000000000001101000 ?
b1000000000000000001101000 \
b10000000000000000000000000000000 "
b10000000000000000000000000000000 Y
b0 9
b0 E
b10000000000000000000000010110111 <
b10000000000000000000000010110111 O
b1000000000000000001101000 @
b1000000000000000001100100 0
b1000000000000000001100100 >
b1000000000000000001100100 N
1;
#260
0;
#265
b1111111111111111111100000000000 !
b1111111111111111111100000000000 D
b1111111111111111111100000000000 e
b10000000000000000000111010110111 #
b10000000000000000000111010110111 _
b1111111111111111111100000000000 7
b1111111111111111111100000000000 =
b1111111111111111111100000000000 C
b1111111111111111111100000000000 H
b1111111111111111111100000000000 I
b11111111111111111111100000000000 8
b11111111111111111111100000000000 F
13
b10000000000000000000000000000000 9
b10000000000000000000000000000000 E
b1000000000000000001101100 .
b1000000000000000001101100 ?
b1000000000000000001101100 \
b0 :
b0 G
b0 V
b11111111111111111111100000000000 "
b11111111111111111111100000000000 Y
b10011 P
b11110 )
b11110 U
b11110 b
04
b10000000000000000000000000000000 %
b10000000000000000000000000000000 f
b1 (
b1 T
b1 c
b1000000000000000001101100 @
b1000000000000000001101000 0
b1000000000000000001101000 >
b1000000000000000001101000 N
b10000000000000001000111100010011 <
b10000000000000001000111100010011 O
1;
#270
0;
#275
b10000000000000000000000000000000 !
b10000000000000000000000000000000 D
b10000000000000000000000000000000 e
b10000000000000000000000000000000 8
b10000000000000000000000000000000 F
b10000000000000000000000000000000 7
b10000000000000000000000000000000 =
b10000000000000000000000000000000 C
b10000000000000000000000000000000 H
b10000000000000000000000000000000 I
03
b1011 :
b1011 G
b1011 V
b10000000000000000000000000000000 "
b10000000000000000000000000000000 Y
b0 9
b0 E
b10000000000011101000111010010011 #
b10000000000011101000111010010011 _
b110111 P
b11101 )
b11101 U
b11101 b
14
b0 %
b0 f
b0 (
b0 T
b0 c
b1000000000000000001110000 .
b1000000000000000001110000 ?
b1000000000000000001110000 \
b10000000000000000000111010110111 <
b10000000000000000000111010110111 O
b1000000000000000001110000 @
b1000000000000000001101100 0
b1000000000000000001101100 >
b1000000000000000001101100 N
1;
#280
0;
#285
b1111111111111111111100000000000 !
b1111111111111111111100000000000 D
b1111111111111111111100000000000 e
b11100000000000110010011 #
b11100000000000110010011 _
b1111111111111111111100000000000 7
b1111111111111111111100000000000 =
b1111111111111111111100000000000 C
b1111111111111111111100000000000 H
b1111111111111111111100000000000 I
b11111111111111111111100000000000 8
b11111111111111111111100000000000 F
13
b10000000000000000000000000000000 9
b10000000000000000000000000000000 E
b1000000000000000001110100 .
b1000000000000000001110100 ?
b1000000000000000001110100 \
b0 :
b0 G
b0 V
b11111111111111111111100000000000 "
b11111111111111111111100000000000 Y
b10011 P
04
b10000000000000000000000000000000 %
b10000000000000000000000000000000 f
b11101 (
b11101 T
b11101 c
b1000000000000000001110100 @
b1000000000000000001110000 0
b1000000000000000001110000 >
b1000000000000000001110000 N
b10000000000011101000111010010011 <
b10000000000011101000111010010011 O
1;
#290
0;
#295
b111 !
b111 D
b111 e
b111 7
b111 =
b111 C
b111 H
b111 I
b100001110111110001100001100011 #
b100001110111110001100001100011 _
b111 8
b111 F
b11 )
b11 U
b11 b
b0 (
b0 T
b0 c
b111 $
b111 J
b111 g
b111 '
b111 S
b111 d
b0 Q
13
b0 9
b0 E
b1000000000000000001111000 .
b1000000000000000001111000 ?
b1000000000000000001111000 \
b111 "
b111 Y
b11100000000000110010011 <
b11100000000000110010011 O
b0 %
b0 f
b1000000000000000001111000 @
b1000000000000000001110100 0
b1000000000000000001110100 >
b1000000000000000001110100 N
1;
#300
0;
#305
b0 !
b0 D
b0 e
b0 &
b0 B
b0 L
b1000000000000001010001000 7
b1000000000000001010001000 =
b1000000000000001010001000 C
b1000000000000001010001000 H
b1000000000000001010001000 I
b10010011 #
b10010011 _
b1000010000 8
b1000010000 F
03
b1000000000000000001111000 9
b1000000000000000001111000 E
b1000000000000000001111100 .
b1000000000000000001111100 ?
b1000000000000000001111100 \
b0 +
b0 A
b0 W
0,
06
b1000010000 "
b1000010000 Y
b1100011 P
b10000 )
b10000 U
b10000 b
b1 R
14
b1111111111111111111100000000000 %
b1111111111111111111100000000000 f
b11110 (
b11110 T
b11110 c
b1111111111111111111100000000000 $
b1111111111111111111100000000000 J
b1111111111111111111100000000000 g
b11101 '
b11101 S
b11101 d
b10000 Q
b1000000000000000001111100 @
b1000000000000000001111000 0
b1000000000000000001111000 >
b1000000000000000001111000 N
b100001110111110001100001100011 <
b100001110111110001100001100011 O
1;
#310
0;
#315
b0 !
b0 D
b0 e
b10111010110110111010110111111111 &
b10111010110110111010110111111111 B
b10111010110110111010110111111111 L
b1 +
b1 A
b1 W
1,
16
b1111111111100001000111100010011 #
b1111111111100001000111100010011 _
b0 8
b0 F
b0 7
b0 =
b0 C
b0 H
b0 I
b10011 P
b1 )
b1 U
b1 b
b0 R
b0 %
b0 f
b0 (
b0 T
b0 c
14
b0 $
b0 J
b0 g
b0 '
b0 S
b0 d
b0 Q
b1000000000000000010000000 .
b1000000000000000010000000 ?
b1000000000000000010000000 \
b0 "
b0 Y
b0 9
b0 E
b10010011 <
b10010011 O
b1000000000000000010000000 @
b1000000000000000001111100 0
b1000000000000000001111100 >
b1000000000000000001111100 N
1;
#320
0;
#325
b11111111111 !
b11111111111 D
b11111111111 e
b11111111111 7
b11111111111 =
b11111111111 C
b11111111111 H
b11111111111 I
b1111111111100000000111010010011 #
b1111111111100000000111010010011 _
b11111111111 8
b11111111111 F
13
b1000000000000000010000100 .
b1000000000000000010000100 ?
b1000000000000000010000100 \
b11111111111 "
b11111111111 Y
b11110 )
b11110 U
b11110 b
b1 (
b1 T
b1 c
04
b11111 $
b11111 J
b11111 g
b11111 '
b11111 S
b11111 d
b111111 Q
b1000000000000000010000100 @
b1000000000000000010000000 0
b1000000000000000010000000 >
b1000000000000000010000000 N
b1111111111100001000111100010011 <
b1111111111100001000111100010011 O
1;
#330
0;
#335
b100000000000000110010011 #
b100000000000000110010011 _
b11101 )
b11101 U
b11101 b
b0 (
b0 T
b0 c
b1000000000000000010001000 .
b1000000000000000010001000 ?
b1000000000000000010001000 \
b1111111111100000000111010010011 <
b1111111111100000000111010010011 O
b1000000000000000010001000 @
b1000000000000000010000100 0
b1000000000000000010000100 >
b1000000000000000010000100 N
1;
#340
0;
