PD5/Submission/vcd/CheckVowel.vcd
$date
	Tue Jul 21 18:41:05 2020
$end
$version
	Icarus Verilog
$end
$timescale
	1s
$end
$scope module dut $end
$var wire 32 ! wb_w [31:0] $end
$var wire 32 " wb_m [31:0] $end
$var wire 32 # rs2_x [31:0] $end
$var wire 1 $ kill_dx $end
$var wire 7 % inst_x_opcode [6:0] $end
$var wire 5 & inst_x_addr_rs2 [4:0] $end
$var wire 5 ' inst_x_addr_rs1 [4:0] $end
$var wire 5 ( inst_x_addr_rd [4:0] $end
$var wire 32 ) inst_x [31:0] $end
$var wire 7 * inst_w_opcode [6:0] $end
$var wire 5 + inst_w_addr_rd [4:0] $end
$var wire 32 , inst_w [31:0] $end
$var wire 7 - inst_m_opcode [6:0] $end
$var wire 5 . inst_m_addr_rs2 [4:0] $end
$var wire 5 / inst_m_addr_rd [4:0] $end
$var wire 32 0 inst_m [31:0] $end
$var wire 32 1 inst_f [31:0] $end
$var wire 7 2 inst_d_opcode [6:0] $end
$var wire 5 3 inst_d_addr_rs2 [4:0] $end
$var wire 5 4 inst_d_addr_rs1 [4:0] $end
$var wire 32 5 inst_d [31:0] $end
$var wire 32 6 hazard_mux_out [31:0] $end
$var wire 32 7 data_rs2 [31:0] $end
$var wire 32 8 data_rs1 [31:0] $end
$var wire 32 9 alu_x [31:0] $end
$var wire 32 : alu_m_bypass [31:0] $end
$var wire 5 ; addr_rs2 [4:0] $end
$var wire 5 < addr_rs1 [4:0] $end
$var wire 5 = addr_rd [4:0] $end
$var wire 1 > WM_bypass $end
$var wire 1 ? RegWE $end
$var wire 32 @ PC_x [31:0] $end
$var wire 32 A PC_f [31:0] $end
$var wire 32 B PC_d [31:0] $end
$var wire 1 C PCSel $end
$var reg 1 D clk $end
$var reg 33 E counter [32:0] $end
$var reg 2 F rs1_bypass [1:0] $end
$var reg 2 G rs2_bypass [1:0] $end
$var reg 1 H stall $end
$var integer 32 I i [31:0] $end
$scope module WB $end
$var wire 1 D clk $end
$var wire 32 J wb_m [31:0] $end
$var wire 7 K opcode [6:0] $end
$var wire 32 L inst_m [31:0] $end
$var wire 5 M addr_rd [4:0] $end
$var wire 1 ? RegWE $end
$var reg 32 N inst_w [31:0] $end
$var reg 32 O wb_w [31:0] $end
$upscope $end
$scope module decode_stage $end
$var wire 1 D clk $end
$var wire 1 H stall $end
$var wire 1 P opcode $end
$var wire 1 $ kill_dx $end
$var wire 1 Q kill_d $end
$var wire 32 R inst_f [31:0] $end
$var wire 32 S inst_d_out [31:0] $end
$var wire 5 T addr_rs2 [4:0] $end
$var wire 5 U addr_rs1 [4:0] $end
$var wire 32 V PC_f [31:0] $end
$var reg 32 W PC_d [31:0] $end
$var reg 32 X inst_d [31:0] $end
$upscope $end
$scope module execute $end
$var wire 32 Y PC_d [31:0] $end
$var wire 1 D clk $end
$var wire 32 Z inst_d [31:0] $end
$var wire 2 [ rs1_bypass [1:0] $end
$var wire 2 \ rs2_bypass [1:0] $end
$var wire 32 ] wb_w_bypass [31:0] $end
$var wire 1 ^ write_data $end
$var wire 32 _ rs2_d [31:0] $end
$var wire 32 ` rs1_d [31:0] $end
$var wire 7 a opcode [6:0] $end
$var wire 7 b funct7 [6:0] $end
$var wire 3 c funct3 [2:0] $end
$var wire 32 d alu_x [31:0] $end
$var wire 32 e alu_m_bypass [31:0] $end
$var wire 1 f BrUn $end
$var wire 1 g BrLt $end
$var wire 1 h BrEq $end
$var wire 1 i BSel $end
$var wire 1 j ASel $end
$var reg 4 k ALUSel [3:0] $end
$var reg 32 l ALU_in1 [31:0] $end
$var reg 32 m ALU_in2 [31:0] $end
$var reg 1 C PCSel $end
$var reg 32 n PC_x [31:0] $end
$var reg 32 o imm [31:0] $end
$var reg 32 p inst_x [31:0] $end
$var reg 1 $ kill_dx $end
$var reg 32 q rs1 [31:0] $end
$var reg 32 r rs2 [31:0] $end
$scope module alu1 $end
$var wire 4 s ALUsel [3:0] $end
$var wire 32 t rs1 [31:0] $end
$var wire 32 u rs2 [31:0] $end
$var reg 32 v alu_res [31:0] $end
$upscope $end
$scope task decode_bType $end
$upscope $end
$scope task decode_iType $end
$upscope $end
$scope task decode_jType $end
$upscope $end
$scope task decode_rType $end
$upscope $end
$scope task decode_sType $end
$upscope $end
$scope task decode_uType $end
$upscope $end
$upscope $end
$scope module fetch_stage $end
$var wire 1 C PCSel $end
$var wire 32 w alu_x [31:0] $end
$var wire 1 D clk $end
$var wire 1 H stall $end
$var reg 32 x PC_f [31:0] $end
$upscope $end
$scope module i_mem $end
$var wire 1 y RdUn $end
$var wire 2 z access_size [1:0] $end
$var wire 32 { address [31:0] $end
$var wire 1 D clk $end
$var wire 32 | data_in [31:0] $end
$var wire 1 } w_enable $end
$var reg 32 ~ data_out [31:0] $end
$var reg 32 !" t_reg [31:0] $end
$var integer 32 "" i [31:0] $end
$upscope $end
$scope module mem_stage $end
$var wire 32 #" PC_x [31:0] $end
$var wire 1 > WM_bypass $end
$var wire 32 $" alu_x [31:0] $end
$var wire 1 D clk $end
$var wire 32 %" inst_x [31:0] $end
$var wire 32 &" rs2_x [31:0] $end
$var wire 32 '" wb_w_bypass [31:0] $end
$var wire 7 (" opcode [6:0] $end
$var wire 3 )" funct3 [2:0] $end
$var wire 32 *" data_in [31:0] $end
$var wire 32 +" d_mem_out [31:0] $end
$var wire 1 ," WEn $end
$var wire 1 -" RdUn $end
$var reg 32 ." PC_m [31:0] $end
$var reg 2 /" access_size [1:0] $end
$var reg 32 0" alu_m [31:0] $end
$var reg 32 1" inst_m [31:0] $end
$var reg 32 2" rs2_m [31:0] $end
$var reg 32 3" wb_m [31:0] $end
$scope module d_mem $end
$var wire 1 -" RdUn $end
$var wire 2 4" access_size [1:0] $end
$var wire 32 5" address [31:0] $end
$var wire 1 D clk $end
$var wire 32 6" data_in [31:0] $end
$var wire 1 ," w_enable $end
$var reg 32 7" data_out [31:0] $end
$var reg 32 8" t_reg [31:0] $end
$var integer 32 9" i [31:0] $end
$upscope $end
$upscope $end
$scope module reg_file $end
$var wire 5 :" addr_rd [4:0] $end
$var wire 5 ;" addr_rs1 [4:0] $end
$var wire 5 <" addr_rs2 [4:0] $end
$var wire 1 D clk $end
$var wire 32 =" data_rd [31:0] $end
$var wire 32 >" data_rs1 [31:0] $end
$var wire 32 ?" data_rs2 [31:0] $end
$var wire 1 ? write_enable $end
$var integer 32 @" i [31:0] $end
$upscope $end
$upscope $end
$enddefinitions $end
#0
$dumpvars
b100000 @"
bx ?"
bx >"
bx ="
bx <"
bx ;"
bx :"
b100000000000000000001 9"
bx 8"
b10011 7"
bx 6"
bx 5"
bx 4"
bx 3"
bx 2"
bx 1"
bx 0"
bx /"
bx ."
x-"
x,"
b10011 +"
bx *"
bx )"
bx ("
bx '"
bx &"
bx %"
bx $"
bx #"
b100000000000000000001 ""
bx !"
b10011 ~
0}
b0 |
b111111111111111111111100 {
b10 z
0y
b111111111111111111111100 x
bx w
bx v
bx u
bx t
bx s
bx r
bx q
bx p
bx o
bx n
bx m
bx l
bx k
xj
xi
xh
xg
xf
bx e
bx d
bx c
bx b
bx a
bx `
bx _
x^
bx ]
bx \
bx [
bx Z
bx Y
bx X
bx W
b111111111111111111111100 V
bx U
bx T
bx S
b10011 R
0Q
xP
bx O
bx N
bx M
bx L
bx K
bx J
bx I
0H
bx G
bx F
b0 E
0D
xC
bx B
b111111111111111111111100 A
bx @
x?
x>
bx =
bx <
bx ;
bx :
bx 9
bx 8
bx 7
bx 6
bx 5
bx 4
bx 3
bx 2
b10011 1
bx 0
bx /
bx .
bx -
bx ,
bx +
bx *
bx )
bx (
bx '
bx &
bx %
x$
bx #
bx "
bx !
$end
#5
0^
0P
b11111101000000010000000100010011 1
b11111101000000010000000100010011 R
b11111101000000010000000100010011 ~
b0 8
b0 `
b0 >"
b0 <
b0 U
b0 ;"
b0 7
b0 _
b0 ?"
b0 ;
b0 T
b0 <"
b10011 S
b10011 6
b10011 Z
b0 3
b0 4
b10011 2
b1000000000000000000000000 A
b1000000000000000000000000 V
b1000000000000000000000000 x
b1000000000000000000000000 {
b10011 5
b10011 X
b111111111111111111111100 B
b111111111111111111111100 W
b111111111111111111111100 Y
b1 E
1D
#10
0D
#15
b10 G
b10 \
b10 F
b10 [
1j
0f
0i
b0 9
b0 d
b0 v
b0 w
b0 $"
b0 m
b0 u
b0 k
b0 s
b0 o
b10011 a
b0 c
b0 b
b0 (
b0 &
b0 '
b10011 %
0$
0C
0g
b0 l
b0 t
b1000000010001000100010001 8
b1000000010001000100010001 `
b1000000010001000100010001 >"
b10 <
b10 U
b10 ;"
b10000 ;
b10000 T
b10000 <"
b11111101000000010000000100010011 S
b11111101000000010000000100010011 6
b11111101000000010000000100010011 Z
b10000 3
b10 4
b10000100010010011000100011 1
b10000100010010011000100011 R
b10000100010010011000100011 ~
b10 E
b10011 )
b10011 p
b10011 %"
b111111111111111111111100 @
b111111111111111111111100 n
b111111111111111111111100 #"
1h
b0 #
b0 r
b0 &"
b0 q
b11111101000000010000000100010011 5
b11111101000000010000000100010011 X
b1000000000000000000000000 B
b1000000000000000000000000 W
b1000000000000000000000000 Y
b1000000000000000000000100 A
b1000000000000000000000100 V
b1000000000000000000000100 x
b1000000000000000000000100 {
1D
#20
0D
#25
b0 *"
b0 6"
0-"
0>
0,"
b11111111111111111111111111010000 m
b11111111111111111111111111010000 u
b1000000010001000011100001 9
b1000000010001000011100001 d
b1000000010001000011100001 v
b1000000010001000011100001 w
b1000000010001000011100001 $"
b0 /"
b0 4"
b10010111000100011 1
b10010111000100011 R
b10010111000100011 ~
b1 ;
b1 T
b1 <"
b10000100010010011000100011 S
b10000100010010011000100011 6
b10000100010010011000100011 Z
b1 3
b100011 2
b11111111111111111111111111010000 o
b1111110 b
b10 (
b10000 &
b10 '
b1000000010001000100010001 l
b1000000010001000100010001 t
b10011 ("
b0 )"
b0 /
b0 .
b10011 -
b0 "
b0 J
b0 3"
b1000000000000000000001000 A
b1000000000000000000001000 V
b1000000000000000000001000 x
b1000000000000000000001000 {
b10000100010010011000100011 5
b10000100010010011000100011 X
b1000000000000000000000100 B
b1000000000000000000000100 W
b1000000000000000000000100 Y
b11111101000000010000000100010011 )
b11111101000000010000000100010011 p
b11111101000000010000000100010011 %"
b1000000000000000000000000 @
b1000000000000000000000000 n
b1000000000000000000000000 #"
0h
b1000000010001000100010001 q
b111111111111111111111100 ."
b0 :
b0 e
b0 0"
b0 5"
b0 2"
b10011 0
b10011 L
b10011 1"
b11 E
1D
#30
0D
#35
b1000000010001000011100001 l
b1000000010001000011100001 t
b0 F
b0 [
1?
b1000000010001000100001101 9
b1000000010001000100001101 d
b1000000010001000100001101 v
b1000000010001000100001101 w
b1000000010001000100001101 $"
b101100 m
b101100 u
b0 =
b0 M
b0 :"
b10011 K
b0 +
b10011 *
b0 +"
b0 7"
b10 /
b10000 .
b1000000010001000011100001 "
b1000000010001000011100001 J
b1000000010001000011100001 3"
b101100 o
b100011 a
b10 c
b1 b
b1100 (
b1 &
b100011 %
b0 ;
b0 T
b0 <"
b10010111000100011 S
b10010111000100011 6
b10010111000100011 Z
b0 3
b10010110000100011 1
b10010110000100011 R
b10010110000100011 ~
b100 E
b10011 ,
b10011 N
b0 !
b0 O
b0 ]
b0 '"
b0 ="
b1000000000000000000000000 ."
b1000000010001000011100001 :
b1000000010001000011100001 e
b1000000010001000011100001 0"
b1000000010001000011100001 5"
b11111101000000010000000100010011 0
b11111101000000010000000100010011 L
b11111101000000010000000100010011 1"
b10000100010010011000100011 )
b10000100010010011000100011 p
b10000100010010011000100011 %"
b1000000000000000000000100 @
b1000000000000000000000100 n
b1000000000000000000000100 #"
b10010111000100011 5
b10010111000100011 X
b1000000000000000000001000 B
b1000000000000000000001000 W
b1000000000000000000001000 Y
b1000000000000000000001100 A
b1000000000000000000001100 V
b1000000000000000000001100 x
b1000000000000000000001100 {
1D
#40
0D
#45
b1 F
b1 [
1,"
b11100 m
b11100 u
b10 /"
b10 4"
1H
b1000000010001000011111101 9
b1000000010001000011111101 d
b1000000010001000011111101 v
b1000000010001000011111101 w
b1000000010001000011111101 $"
b1000000000000011110110111 1
b1000000000000011110110111 R
b1000000000000011110110111 ~
b10011 S
b10011 6
b10011 Z
b11100 o
b0 b
b11100 (
b0 &
b100011 ("
b10 )"
b1100 /
b1 .
b100011 -
b1000000010001000100001101 "
b1000000010001000100001101 J
b1000000010001000100001101 3"
b10 =
b10 M
b10 :"
b10 +
b1000000010001000011100001 l
b1000000010001000011100001 t
b1000000000000000000010000 A
b1000000000000000000010000 V
b1000000000000000000010000 x
b1000000000000000000010000 {
b10010110000100011 5
b10010110000100011 X
b1000000000000000000001100 B
b1000000000000000000001100 W
b1000000000000000000001100 Y
b10010111000100011 )
b10010111000100011 p
b10010111000100011 %"
b1000000000000000000001000 @
b1000000000000000000001000 n
b1000000000000000000001000 #"
b1000000000000000000000100 ."
b1000000010001000100001101 :
b1000000010001000100001101 e
b1000000010001000100001101 0"
b1000000010001000100001101 5"
b10000100010010011000100011 0
b10000100010010011000100011 L
b10000100010010011000100011 1"
b11111101000000010000000100010011 ,
b11111101000000010000000100010011 N
b1000000010001000011100001 !
b1000000010001000011100001 O
b1000000010001000011100001 ]
b1000000010001000011100001 '"
b1000000010001000011100001 ="
b101 E
1D
#50
0D
#55
b10 F
b10 [
0?
b10010110000100011 6
b10010110000100011 Z
b10010110000100011 S
b0 m
b0 u
0H
b1000000010001000100010001 9
b1000000010001000100010001 d
b1000000010001000100010001 v
b1000000010001000100010001 w
b1000000010001000100010001 $"
b1100 =
b1100 M
b1100 :"
b100011 K
b1100 +
b100011 *
b11100 /
b0 .
b1000000010001000011111101 "
b1000000010001000011111101 J
b1000000010001000011111101 3"
b0 o
b10011 a
b0 c
b0 (
b0 '
b10011 %
b1000000010001000100010001 l
b1000000010001000100010001 t
b110 E
b10000100010010011000100011 ,
b10000100010010011000100011 N
b1000000010001000100001101 !
b1000000010001000100001101 O
b1000000010001000100001101 ]
b1000000010001000100001101 '"
b1000000010001000100001101 ="
b1000000000000000000001000 ."
b1000000010001000011111101 :
b1000000010001000011111101 e
b1000000010001000011111101 0"
b1000000010001000011111101 5"
b10010111000100011 0
b10010111000100011 L
b10010111000100011 1"
b10011 )
b10011 p
b10011 %"
b1000000000000000000001100 @
b1000000000000000000001100 n
b1000000000000000000001100 #"
b1000000010001000011100001 8
b1000000010001000011100001 `
b1000000010001000011100001 >"
1D
#60
0D
#65
0,"
b11000 m
b11000 u
b0 /"
b0 4"
b1000000010001000011111001 9
b1000000010001000011111001 d
b1000000010001000011111001 v
b1000000010001000011111001 w
b1000000010001000011111001 $"
b11110100001111010011000000011 1
b11110100001111010011000000011 R
b11110100001111010011000000011 ~
b0 8
b0 `
b0 >"
b0 <
b0 U
b0 ;"
b10000 ;
b10000 T
b10000 <"
b1000000000000011110110111 S
b1000000000000011110110111 6
b1000000000000011110110111 Z
b10000 3
b0 4
b110111 2
b11000 o
b100011 a
b10 c
b11000 (
b10 '
b100011 %
b10011 ("
b0 )"
b0 /
b10011 -
b1000000010001000100010001 "
b1000000010001000100010001 J
b1000000010001000100010001 3"
b11100 =
b11100 M
b11100 :"
b11100 +
b1000000010001000011100001 l
b1000000010001000011100001 t
b1000000000000000000010100 A
b1000000000000000000010100 V
b1000000000000000000010100 x
b1000000000000000000010100 {
b1000000000000011110110111 5
b1000000000000011110110111 X
b1000000000000000000010000 B
b1000000000000000000010000 W
b1000000000000000000010000 Y
b10010110000100011 )
b10010110000100011 p
b10010110000100011 %"
b1000000010001000011100001 q
b1000000000000000000001100 ."
b1000000010001000100010001 :
b1000000010001000100010001 e
b1000000010001000100010001 0"
b1000000010001000100010001 5"
b10011 0
b10011 L
b10011 1"
b10010111000100011 ,
b10010111000100011 N
b1000000010001000011111101 !
b1000000010001000011111101 O
b1000000010001000011111101 ]
b1000000010001000011111101 '"
b1000000010001000011111101 ="
b111 E
1D
#70
0D
#75
1?
1,"
b10 /"
b10 4"
b1000000000000000000000000 m
b1000000000000000000000000 u
b1011 k
b1011 s
b1000000000000000000000000 9
b1000000000000000000000000 d
b1000000000000000000000000 v
b1000000000000000000000000 w
b1000000000000000000000000 $"
b0 =
b0 M
b0 :"
b10011 K
b0 +
b10011 *
b100011 ("
b10 )"
b11000 /
b100011 -
b1000000010001000011111001 "
b1000000010001000011111001 J
b1000000010001000011111001 3"
b1000000000000000000000000 o
b110111 a
b0 c
b1111 (
b10000 &
b0 '
b110111 %
b0 l
b0 t
b1111 <
b1111 U
b1111 ;"
b1000 ;
b1000 T
b1000 <"
b11110100001111010011000000011 S
b11110100001111010011000000011 6
b11110100001111010011000000011 Z
b1000 3
b1111 4
b11 2
b11110100001111000011100010011 1
b11110100001111000011100010011 R
b11110100001111000011100010011 ~
b1000 E
b10011 ,
b10011 N
b1000000010001000100010001 !
b1000000010001000100010001 O
b1000000010001000100010001 ]
b1000000010001000100010001 '"
b1000000010001000100010001 ="
b1000000010001000011111001 :
b1000000010001000011111001 e
b1000000010001000011111001 0"
b1000000010001000011111001 5"
b10010110000100011 0
b10010110000100011 L
b10010110000100011 1"
b1000000000000011110110111 )
b1000000000000011110110111 p
b1000000000000011110110111 %"
b1000000000000000000010000 @
b1000000000000000000010000 n
b1000000000000000000010000 #"
1h
b0 q
b11110100001111010011000000011 5
b11110100001111010011000000011 X
b1000000000000000000010100 B
b1000000000000000000010100 W
b1000000000000000000010100 Y
b1000000000000000000011000 A
b1000000000000000000011000 V
b1000000000000000000011000 x
b1000000000000000000011000 {
1D
#80
0D
#85
b1000000000000000000000000 l
b1000000000000000000000000 t
b0 F
b0 [
0?
b1000000000000000111101000 9
b1000000000000000111101000 d
b1000000000000000111101000 v
b1000000000000000111101000 w
b1000000000000000111101000 $"
0,"
b111101000 m
b111101000 u
b0 k
b0 s
b0 /"
b0 4"
b10001110010011010000011 1
b10001110010011010000011 R
b10001110010011010000011 ~
b11110100001111000011100010011 S
b11110100001111000011100010011 6
b11110100001111000011100010011 Z
b10011 2
b111101000 o
b11 a
b10 c
b1111 b
b1100 (
b1000 &
b1111 '
b11 %
b10011 +"
b10011 7"
b110111 ("
b0 )"
b1111 /
b10000 .
b110111 -
b1000000000000000000000000 "
b1000000000000000000000000 J
b1000000000000000000000000 3"
b11000 =
b11000 M
b11000 :"
b100011 K
b11000 +
b100011 *
b1000000000000000000011100 A
b1000000000000000000011100 V
b1000000000000000000011100 x
b1000000000000000000011100 {
b11110100001111000011100010011 5
b11110100001111000011100010011 X
b1000000000000000000011000 B
b1000000000000000000011000 W
b1000000000000000000011000 Y
b11110100001111010011000000011 )
b11110100001111010011000000011 p
b11110100001111010011000000011 %"
b1000000000000000000010100 @
b1000000000000000000010100 n
b1000000000000000000010100 #"
b1000000000000000000010000 ."
b1000000000000000000000000 :
b1000000000000000000000000 e
b1000000000000000000000000 0"
b1000000000000000000000000 5"
b1000000000000011110110111 0
b1000000000000011110110111 L
b1000000000000011110110111 1"
b10010110000100011 ,
b10010110000100011 N
b1000000010001000011111001 !
b1000000010001000011111001 O
b1000000010001000011111001 ]
b1000000010001000011111001 '"
b1000000010001000011111001 ="
b1001 E
1D
#90
0D
#95
b1 F
b1 [
1?
b10 /"
b10 4"
b1000000000000000111101000 9
b1000000000000000111101000 d
b1000000000000000111101000 v
b1000000000000000111101000 w
b1000000000000000111101000 $"
b1111 =
b1111 M
b1111 :"
b110111 K
b1111 +
b110111 *
b1100011011001010110100001000011 +"
b1100011011001010110100001000011 7"
b11 ("
b10 )"
b1100 /
b1000 .
b11 -
b1100011011001010110100001000011 "
b1100011011001010110100001000011 J
b1100011011001010110100001000011 3"
b10011 a
b0 c
b1110 (
b10011 %
b1000000000000000000000000 l
b1000000000000000000000000 t
b1110 <
b1110 U
b1110 ;"
b100 ;
b100 T
b100 <"
b10001110010011010000011 S
b10001110010011010000011 6
b10001110010011010000011 Z
b100 3
b1110 4
b11 2
b11110100001111000011100010011 1
b11110100001111000011100010011 R
b11110100001111000011100010011 ~
b1010 E
b1000000000000011110110111 ,
b1000000000000011110110111 N
b1000000000000000000000000 !
b1000000000000000000000000 O
b1000000000000000000000000 ]
b1000000000000000000000000 '"
b1000000000000000000000000 ="
b1000000000000000000010100 ."
b1000000000000000111101000 :
b1000000000000000111101000 e
b1000000000000000111101000 0"
b1000000000000000111101000 5"
b11110100001111010011000000011 0
b11110100001111010011000000011 L
b11110100001111010011000000011 1"
b11110100001111000011100010011 )
b11110100001111000011100010011 p
b11110100001111000011100010011 %"
b1000000000000000000011000 @
b1000000000000000000011000 n
b1000000000000000000011000 #"
b10001110010011010000011 5
b10001110010011010000011 X
b1000000000000000000011100 B
b1000000000000000000011100 W
b1000000000000000000011100 Y
b1000000000000000000100000 A
b1000000000000000000100000 V
b1000000000000000000100000 x
b1000000000000000000100000 {
1D
#100
0D
#105
b0 F
b0 [
b1000011 +"
b1000011 7"
b100 m
b100 u
b0 /"
b0 4"
b1000000000000000111101100 9
b1000000000000000111101100 d
b1000000000000000111101100 v
b1000000000000000111101100 w
b1000000000000000111101100 $"
b100001110010011100000011 1
b100001110010011100000011 R
b100001110010011100000011 ~
b1000000000000000000000000 8
b1000000000000000000000000 `
b1000000000000000000000000 >"
b1111 <
b1111 U
b1111 ;"
b1000 ;
b1000 T
b1000 <"
b11110100001111000011100010011 S
b11110100001111000011100010011 6
b11110100001111000011100010011 Z
b1000 3
b1111 4
b10011 2
b100 o
b11 a
b10 c
b0 b
b1101 (
b100 &
b1110 '
b11 %
b10011 ("
b0 )"
b1110 /
b10011 -
b1000000000000000111101000 "
b1000000000000000111101000 J
b1000000000000000111101000 3"
b1100 =
b1100 M
b1100 :"
b11 K
b1100 +
b11 *
b1000000000000000111101000 l
b1000000000000000111101000 t
b1000000000000000000100100 A
b1000000000000000000100100 V
b1000000000000000000100100 x
b1000000000000000000100100 {
b11110100001111000011100010011 5
b11110100001111000011100010011 X
b1000000000000000000100000 B
b1000000000000000000100000 W
b1000000000000000000100000 Y
b10001110010011010000011 )
b10001110010011010000011 p
b10001110010011010000011 %"
b1000000000000000000011100 @
b1000000000000000000011100 n
b1000000000000000000011100 #"
b1000000000000000000011000 ."
b11110100001111000011100010011 0
b11110100001111000011100010011 L
b11110100001111000011100010011 1"
b11110100001111010011000000011 ,
b11110100001111010011000000011 N
b1100011011001010110100001000011 !
b1100011011001010110100001000011 O
b1100011011001010110100001000011 ]
b1100011011001010110100001000011 '"
b1100011011001010110100001000011 ="
b1011 E
1D
#110
0D
#115
b10 F
b10 [
b10 /"
b10 4"
b111101000 m
b111101000 u
b1000000000000000111101000 9
b1000000000000000111101000 d
b1000000000000000111101000 v
b1000000000000000111101000 w
b1000000000000000111101000 $"
1H
b1110 =
b1110 M
b1110 :"
b10011 K
b1110 +
b10011 *
b1110111011011110101011001101011 +"
b1110111011011110101011001101011 7"
b11 ("
b10 )"
b1101 /
b100 .
b11 -
b1110111011011110101011001101011 "
b1110111011011110101011001101011 J
b1110111011011110101011001101011 3"
b111101000 o
b10011 a
b0 c
b1111 b
b1110 (
b1000 &
b1111 '
b10011 %
b1000000000000000000000000 l
b1000000000000000000000000 t
b0 8
b0 `
b0 >"
b1110 <
b1110 U
b1110 ;"
b10011 S
b10011 6
b10011 Z
b1110 4
b11 2
b110000010010001000100011 1
b110000010010001000100011 R
b110000010010001000100011 ~
b1100 E
b11110100001111000011100010011 ,
b11110100001111000011100010011 N
b1000000000000000111101000 !
b1000000000000000111101000 O
b1000000000000000111101000 ]
b1000000000000000111101000 '"
b1000000000000000111101000 ="
b1000000000000000000011100 ."
b1000000000000000111101100 :
b1000000000000000111101100 e
b1000000000000000111101100 0"
b1000000000000000111101100 5"
b10001110010011010000011 0
b10001110010011010000011 L
b10001110010011010000011 1"
b11110100001111000011100010011 )
b11110100001111000011100010011 p
b11110100001111000011100010011 %"
b1000000000000000000100000 @
b1000000000000000000100000 n
b1000000000000000000100000 #"
0h
b1000000000000000000000000 q
b100001110010011100000011 5
b100001110010011100000011 X
b1000000000000000000100100 B
b1000000000000000000100100 W
b1000000000000000000100100 Y
b1000000000000000000101000 A
b1000000000000000000101000 V
b1000000000000000000101000 x
b1000000000000000000101000 {
1D
#120
0D
#125
b100001110010011100000011 6
b100001110010011100000011 Z
b100001110010011100000011 S
b0 m
b0 u
b0 /"
b0 4"
0H
b0 9
b0 d
b0 v
b0 w
b0 $"
b0 o
b0 b
b0 (
b0 &
b0 '
b1000011 +"
b1000011 7"
b10011 ("
b0 )"
b1110 /
b1000 .
b10011 -
b1000000000000000111101000 "
b1000000000000000111101000 J
b1000000000000000111101000 3"
b1101 =
b1101 M
b1101 :"
b11 K
b1101 +
b11 *
b0 l
b0 t
b1000000000000000111101000 8
b1000000000000000111101000 `
b1000000000000000111101000 >"
b10011 )
b10011 p
b10011 %"
b1000000000000000000100100 @
b1000000000000000000100100 n
b1000000000000000000100100 #"
1h
b0 q
b1000000000000000000100000 ."
b1000000000000000111101000 :
b1000000000000000111101000 e
b1000000000000000111101000 0"
b1000000000000000111101000 5"
b11110100001111000011100010011 0
b11110100001111000011100010011 L
b11110100001111000011100010011 1"
b10001110010011010000011 ,
b10001110010011010000011 N
b1110111011011110101011001101011 !
b1110111011011110101011001101011 O
b1110111011011110101011001101011 ]
b1110111011011110101011001101011 '"
b1110111011011110101011001101011 ="
b1101 E
1D
#130
0D
#135
b1 F
b1 [
b1000 m
b1000 u
b1000000000000000111110000 9
b1000000000000000111110000 d
b1000000000000000111110000 v
b1000000000000000111110000 w
b1000000000000000111110000 $"
1^
b1110 =
b1110 M
b1110 :"
b10011 K
b1110 +
b10011 *
b10011 +"
b10011 7"
b0 /
b0 .
b0 "
b0 J
b0 3"
b1000 o
b11 a
b10 c
b1110 (
b1000 &
b1110 '
b11 %
b1000000000000000111101000 l
b1000000000000000111101000 t
b1000000010001000011100001 8
b1000000010001000011100001 `
b1000000010001000011100001 >"
b10 <
b10 U
b10 ;"
b1100011011001010110100001000011 7
b1100011011001010110100001000011 _
b1100011011001010110100001000011 ?"
b1100 ;
b1100 T
b1100 <"
b110000010010001000100011 S
b110000010010001000100011 6
b110000010010001000100011 Z
b1100 3
b10 4
b100011 2
b110100010010010000100011 1
b110100010010010000100011 R
b110100010010010000100011 ~
b1110 E
b11110100001111000011100010011 ,
b11110100001111000011100010011 N
b1000000000000000111101000 !
b1000000000000000111101000 O
b1000000000000000111101000 ]
b1000000000000000111101000 '"
b1000000000000000111101000 ="
b1000000000000000000100100 ."
b0 :
b0 e
b0 0"
b0 5"
b10011 0
b10011 L
b10011 1"
b100001110010011100000011 )
b100001110010011100000011 p
b100001110010011100000011 %"
0h
b1000000000000000111101000 q
b110000010010001000100011 5
b110000010010001000100011 X
b1000000000000000000101000 B
b1000000000000000000101000 W
b1000000000000000000101000 Y
b1000000000000000000101100 A
b1000000000000000000101100 V
b1000000000000000000101100 x
b1000000000000000000101100 {
1D
#140
0D
#145
b10 F
b10 [
b100 m
b100 u
b10 /"
b10 4"
b1000000010001000011100101 9
b1000000010001000011100101 d
b1000000010001000011100101 v
b1000000010001000011100101 w
b1000000010001000011100101 $"
b111000010010011000100011 1
b111000010010011000100011 R
b111000010010011000100011 ~
b1110111011011110101011001101011 7
b1110111011011110101011001101011 _
b1110111011011110101011001101011 ?"
b1101 ;
b1101 T
b1101 <"
b110100010010010000100011 S
b110100010010010000100011 6
b110100010010010000100011 Z
b1101 3
b100 o
b100011 a
b100 (
b1100 &
b10 '
b100011 %
1g
b1010001000010110110001100101 +"
b1010001000010110110001100101 7"
b11 ("
b10 )"
b1110 /
b1000 .
b11 -
b1010001000010110110001100101 "
b1010001000010110110001100101 J
b1010001000010110110001100101 3"
b0 =
b0 M
b0 :"
b0 +
b1000000010001000011100001 l
b1000000010001000011100001 t
b1000000000000000000110000 A
b1000000000000000000110000 V
b1000000000000000000110000 x
b1000000000000000000110000 {
b110100010010010000100011 5
b110100010010010000100011 X
b1000000000000000000101100 B
b1000000000000000000101100 W
b1000000000000000000101100 Y
b110000010010001000100011 )
b110000010010001000100011 p
b110000010010001000100011 %"
b1000000000000000000101000 @
b1000000000000000000101000 n
b1000000000000000000101000 #"
b1100011011001010110100001000011 #
b1100011011001010110100001000011 r
b1100011011001010110100001000011 &"
b1000000010001000011100001 q
b1000000000000000111110000 :
b1000000000000000111110000 e
b1000000000000000111110000 0"
b1000000000000000111110000 5"
b100001110010011100000011 0
b100001110010011100000011 L
b100001110010011100000011 1"
b10011 ,
b10011 N
b0 !
b0 O
b0 ]
b0 '"
b0 ="
b1111 E
1D
#150
0D
