PD3/testbench.vcd
$date
	Wed Jun 10 01:41:34 2020
$end
$version
	Icarus Verilog
$end
$timescale
	1s
$end
$scope module dut $end
$var wire 32 ! wb [31:0] $end
$var wire 32 " imm [31:0] $end
$var wire 32 # i_mem_out [31:0] $end
$var wire 32 $ data_rs2 [31:0] $end
$var wire 32 % data_rs1 [31:0] $end
$var wire 5 & addr_rs2 [4:0] $end
$var wire 5 ' addr_rs1 [4:0] $end
$var wire 5 ( addr_rd [4:0] $end
$var wire 2 ) WBSel [1:0] $end
$var wire 1 * RegWE $end
$var wire 32 + PC_next [31:0] $end
$var wire 1 , PCSel $end
$var wire 32 - PC [31:0] $end
$var wire 1 . MemRW $end
$var wire 1 / BrUn $end
$var wire 1 0 BrLt $end
$var wire 1 1 BrEq $end
$var wire 1 2 BSel $end
$var wire 1 3 ASel $end
$var wire 32 4 ALU_out [31:0] $end
$var wire 32 5 ALU_in2 [31:0] $end
$var wire 32 6 ALU_in1 [31:0] $end
$var wire 4 7 ALUSel [3:0] $end
$var reg 1 8 clk $end
$var reg 32 9 instruction [31:0] $end
$scope module PCMux $end
$var wire 1 8 clk $end
$var wire 1 , PCSel $end
$var wire 32 : ALU_out [31:0] $end
$var reg 32 ; PC [31:0] $end
$var reg 32 < PC_next [31:0] $end
$upscope $end
$scope module WBMux1 $end
$var wire 1 8 clk $end
$var wire 32 = dmem [31:0] $end
$var wire 32 > pc_next [31:0] $end
$var wire 2 ? sel [1:0] $end
$var wire 32 @ alu [31:0] $end
$var reg 32 A out [31:0] $end
$upscope $end
$scope module alu1 $end
$var wire 32 B rs1 [31:0] $end
$var wire 32 C rs2 [31:0] $end
$var wire 4 D ALUsel [3:0] $end
$var reg 32 E alu_res [31:0] $end
$upscope $end
$scope module fd1 $end
$var wire 1 1 BrEq $end
$var wire 1 0 BrLt $end
$var wire 32 F PC [31:0] $end
$var wire 1 8 clk $end
$var wire 32 G instruction [31:0] $end
$var wire 7 H opcode [6:0] $end
$var wire 7 I funct7 [6:0] $end
$var wire 3 J funct3 [2:0] $end
$var wire 5 K addr_rs2 [4:0] $end
$var wire 5 L addr_rs1 [4:0] $end
$var wire 5 M addr_rd [4:0] $end
$var wire 1 / BrUn $end
$var reg 4 N ALUSel [3:0] $end
$var reg 1 3 ASel $end
$var reg 1 2 BSel $end
$var reg 1 . MemRW $end
$var reg 1 , PCSel $end
$var reg 1 * RegWE $end
$var reg 2 O WBSel [1:0] $end
$var reg 32 P imm [31:0] $end
$scope task decode_bType $end
$upscope $end
$scope task decode_iType $end
$upscope $end
$scope task decode_iTypeUnsigned $end
$upscope $end
$scope task decode_jType $end
$upscope $end
$scope task decode_rType $end
$upscope $end
$scope task decode_sType $end
$upscope $end
$scope task decode_uType $end
$upscope $end
$upscope $end
$scope module i_mem $end
$var wire 32 Q address [31:0] $end
$var wire 1 8 clk $end
$var wire 32 R data_in [31:0] $end
$var wire 1 S w_enable $end
$var reg 32 T data_out [31:0] $end
$var reg 32 U t_reg [31:0] $end
$var integer 32 V i [31:0] $end
$upscope $end
$scope module reg_file $end
$var wire 5 W addr_rd [4:0] $end
$var wire 5 X addr_rs1 [4:0] $end
$var wire 5 Y addr_rs2 [4:0] $end
$var wire 1 8 clk $end
$var wire 32 Z data_rd [31:0] $end
$var wire 32 [ data_rs1 [31:0] $end
$var wire 32 \ data_rs2 [31:0] $end
$var wire 1 * write_enable $end
$var integer 32 ] i [31:0] $end
$scope begin genblk1[0] $end
$upscope $end
$scope begin genblk1[1] $end
$upscope $end
$scope begin genblk1[2] $end
$upscope $end
$scope begin genblk1[3] $end
$upscope $end
$scope begin genblk1[4] $end
$upscope $end
$scope begin genblk1[5] $end
$upscope $end
$scope begin genblk1[6] $end
$upscope $end
$scope begin genblk1[7] $end
$upscope $end
$scope begin genblk1[8] $end
$upscope $end
$scope begin genblk1[9] $end
$upscope $end
$scope begin genblk1[10] $end
$upscope $end
$scope begin genblk1[11] $end
$upscope $end
$scope begin genblk1[12] $end
$upscope $end
$scope begin genblk1[13] $end
$upscope $end
$scope begin genblk1[14] $end
$upscope $end
$scope begin genblk1[15] $end
$upscope $end
$scope begin genblk1[16] $end
$upscope $end
$scope begin genblk1[17] $end
$upscope $end
$scope begin genblk1[18] $end
$upscope $end
$scope begin genblk1[19] $end
$upscope $end
$scope begin genblk1[20] $end
$upscope $end
$scope begin genblk1[21] $end
$upscope $end
$scope begin genblk1[22] $end
$upscope $end
$scope begin genblk1[23] $end
$upscope $end
$scope begin genblk1[24] $end
$upscope $end
$scope begin genblk1[25] $end
$upscope $end
$scope begin genblk1[26] $end
$upscope $end
$scope begin genblk1[27] $end
$upscope $end
$scope begin genblk1[28] $end
$upscope $end
$scope begin genblk1[29] $end
$upscope $end
$scope begin genblk1[30] $end
$upscope $end
$scope begin genblk1[31] $end
$upscope $end
$upscope $end
$upscope $end
$enddefinitions $end
#0
$dumpvars
b100000 ]
bx \
bx [
bx Z
bx Y
bx X
bx W
b100000000000000000001 V
bx U
b1000000000000110010011 T
0S
b0 R
b1000000000000000000000000 Q
bx P
b1 O
b0 N
bx M
bx L
bx K
bx J
bx I
bx H
bx G
b111111111111111111111100 F
bx E
b0 D
bx C
bx B
bx A
bx @
b1 ?
b1000000000000000000000000 >
b0 =
b1000000000000000000000000 <
b111111111111111111111100 ;
bx :
bx 9
08
b0 7
bx 6
bx 5
bx 4
x3
x2
x1
x0
x/
x.
b111111111111111111111100 -
1,
b1000000000000000000000000 +
x*
b1 )
bx (
bx '
bx &
bx %
bx $
b1000000000000110010011 #
bx "
bx !
$end
#5
b10 !
b10 A
b10 Z
b10010011 #
b10010011 T
b10 4
b10 :
b10 @
b10 E
b1000000000000000000000100 +
b1000000000000000000000100 <
b1000000000000000000000100 Q
b10 5
b10 C
b10 "
b10 P
1*
1.
02
13
b1000000000000000000000100 >
b1000000000000000000000000 -
b1000000000000000000000000 ;
b1000000000000000000000000 F
0/
10
b0 6
b0 B
b10011 H
b11 (
b11 M
b11 W
b0 J
01
b0 %
b0 [
b0 '
b0 L
b0 X
b10 $
b10 \
b10 &
b10 K
b10 Y
b0 I
b100000 ]
b1000000000000110010011 9
b1000000000000110010011 G
18
#10
08
#15
b0 !
b0 A
b0 Z
b100000000000100010011 #
b100000000000100010011 T
b0 4
b0 :
b0 @
b0 E
b1000000000000000000001000 +
b1000000000000000000001000 <
b1000000000000000000001000 Q
b0 5
b0 C
b0 "
b0 P
b1000000000000000000001000 >
b1000000000000000000000100 -
b1000000000000000000000100 ;
b1000000000000000000000100 F
00
b1 (
b1 M
b1 W
11
b0 $
b0 \
b0 &
b0 K
b0 Y
b10010011 9
b10010011 G
b100000 ]
18
#20
08
#25
b1 !
b1 A
b1 Z
b1000001100011001100011 #
b1000001100011001100011 T
b1 4
b1 :
b1 @
b1 E
b1000000000000000000001100 +
b1000000000000000000001100 <
b1000000000000000000001100 Q
b1 5
b1 C
b1 "
b1 P
b1000000000000000000001100 >
b1000000000000000000001000 -
b1000000000000000000001000 ;
b1000000000000000000001000 F
b10 (
b10 M
b10 W
b1 &
b1 K
b1 Y
b100000 ]
b100000000000100010011 9
b100000000000100010011 G
18
#30
08
#35
b11111110001000001100111011100011 #
b11111110001000001100111011100011 T
b1000000000000000000011000 +
b1000000000000000000011000 <
b1000000000000000000011000 Q
b0 !
b0 A
b0 Z
b1000000000000000000001100 6
b1000000000000000000001100 B
b1000000000000000000011000 4
b1000000000000000000011000 :
b1000000000000000000011000 @
b1000000000000000000011000 E
0,
b0 )
b0 ?
b0 O
0*
03
b1000000000000000000010000 >
b1000000000000000000001100 -
b1000000000000000000001100 ;
b1000000000000000000001100 F
b1100 5
b1100 C
10
b1100 "
b1100 P
b1100011 H
b1100 (
b1100 M
b1100 W
b100 J
b1 '
b1 L
b1 X
01
b1 $
b1 \
b10 &
b10 K
b10 Y
b1000001100011001100011 9
b1000001100011001100011 G
b100000 ]
18
#40
08
#45
b1100000001011001100011 #
b1100000001011001100011 T
b1000000000000000000010100 +
b1000000000000000000010100 <
b1000000000000000000010100 Q
b1000000000000000000011000 6
b1000000000000000000011000 B
b1000000000000000000010100 4
b1000000000000000000010100 :
b1000000000000000000010100 @
b1000000000000000000010100 E
b1000000000000000000011100 >
b1000000000000000000011000 -
b1000000000000000000011000 ;
b1000000000000000000011000 F
b11111111111111111111111111111100 5
b11111111111111111111111111111100 C
b11111111111111111111111111111100 "
b11111111111111111111111111111100 P
b11101 (
b11101 M
b11101 W
b1111111 I
b100000 ]
b11111110001000001100111011100011 9
b11111110001000001100111011100011 G
18
#50
08
#55
b1100000000000110010011 #
b1100000000000110010011 T
b1000000000000000000100000 +
b1000000000000000000100000 <
b1000000000000000000100000 Q
b1000000000000000000010100 6
b1000000000000000000010100 B
b1000000000000000000100000 4
b1000000000000000000100000 :
b1000000000000000000100000 @
b1000000000000000000100000 E
b1000000000000000000011000 >
b1000000000000000000010100 -
b1000000000000000000010100 ;
b1000000000000000000010100 F
b1100 5
b1100 C
b1100 "
b1100 P
b1100 (
b1100 M
b1100 W
b1 J
b0 '
b0 L
b0 X
b10 $
b10 \
b11 &
b11 K
b11 Y
b0 I
b1100000001011001100011 9
b1100000001011001100011 G
b100000 ]
18
#60
08
#65
b11111111111100000000000010010011 #
b11111111111100000000000010010011 T
b11 4
b11 :
b11 @
b11 E
b1000000000000000000100100 +
b1000000000000000000100100 <
b1000000000000000000100100 Q
b11 !
b11 A
b11 Z
b11 5
b11 C
b0 6
b0 B
b11 "
b11 P
b1 )
b1 ?
b1 O
1*
13
1,
b1000000000000000000100100 >
b1000000000000000000100000 -
b1000000000000000000100000 ;
b1000000000000000000100000 F
b10011 H
b11 (
b11 M
b11 W
b0 J
b100000 ]
b1100000000000110010011 9
b1100000000000110010011 G
18
#70
08
#75
b11111111111111111111111111111111 !
b11111111111111111111111111111111 A
b11111111111111111111111111111111 Z
b100000000000100010011 #
b100000000000100010011 T
b11111111111111111111111111111111 4
b11111111111111111111111111111111 :
b11111111111111111111111111111111 @
b11111111111111111111111111111111 E
b1000000000000000000101000 +
b1000000000000000000101000 <
b1000000000000000000101000 Q
b11111111111111111111111111111111 5
b11111111111111111111111111111111 C
b11111111111111111111111111111111 "
b11111111111111111111111111111111 P
b1000000000000000000101000 >
b1000000000000000000100100 -
b1000000000000000000100100 ;
b1000000000000000000100100 F
b1 (
b1 M
b1 W
b11111 &
b11111 K
b11111 Y
b1111111 I
b11111111111100000000000010010011 9
b11111111111100000000000010010011 G
b100000 ]
b11111 $
b11111 \
18
#80
08
#85
b1 !
b1 A
b1 Z
b1000001100011001100011 #
b1000001100011001100011 T
b1 4
b1 :
b1 @
b1 E
b1000000000000000000101100 +
b1000000000000000000101100 <
b1000000000000000000101100 Q
b1 5
b1 C
b1 "
b1 P
b1000000000000000000101100 >
b1000000000000000000101000 -
b1000000000000000000101000 ;
b1000000000000000000101000 F
00
b10 (
b10 M
b10 W
b11111111111111111111111111111111 $
b11111111111111111111111111111111 \
b1 &
b1 K
b1 Y
b0 I
b100000 ]
b100000000000100010011 9
b100000000000100010011 G
18
#90
08
#95
b11111110001000001100111011100011 #
b11111110001000001100111011100011 T
b1000000000000000000111000 +
b1000000000000000000111000 <
b1000000000000000000111000 Q
b0 !
b0 A
b0 Z
b1000000000000000000111000 4
b1000000000000000000111000 :
b1000000000000000000111000 @
b1000000000000000000111000 E
0,
b0 )
b0 ?
b0 O
0*
03
b1000000000000000000110000 >
b1000000000000000000101100 -
b1000000000000000000101100 ;
b1000000000000000000101100 F
b1100 5
b1100 C
b1000000000000000000101100 6
b1000000000000000000101100 B
10
b1100 "
b1100 P
b1100011 H
b1100 (
b1100 M
b1100 W
b100 J
b11111111111111111111111111111111 %
b11111111111111111111111111111111 [
b1 '
b1 L
b1 X
b1 $
b1 \
b10 &
b10 K
b10 Y
b1000001100011001100011 9
b1000001100011001100011 G
b100000 ]
18
#100
08
#105
b1100000001011001100011 #
b1100000001011001100011 T
b1000000000000000000110100 +
b1000000000000000000110100 <
b1000000000000000000110100 Q
b1000000000000000000111000 6
b1000000000000000000111000 B
b1000000000000000000110100 4
b1000000000000000000110100 :
b1000000000000000000110100 @
b1000000000000000000110100 E
b1000000000000000000111100 >
b1000000000000000000111000 -
b1000000000000000000111000 ;
b1000000000000000000111000 F
b11111111111111111111111111111100 5
b11111111111111111111111111111100 C
b11111111111111111111111111111100 "
b11111111111111111111111111111100 P
b11101 (
b11101 M
b11101 W
b1111111 I
b100000 ]
b11111110001000001100111011100011 9
b11111110001000001100111011100011 G
18
#110
08
#115
b10000000000000110010011 #
b10000000000000110010011 T
b1000000000000000001000000 +
b1000000000000000001000000 <
b1000000000000000001000000 Q
b1000000000000000000110100 6
b1000000000000000000110100 B
b1000000000000000001000000 4
b1000000000000000001000000 :
b1000000000000000001000000 @
b1000000000000000001000000 E
b1000000000000000000111000 >
b1000000000000000000110100 -
b1000000000000000000110100 ;
b1000000000000000000110100 F
b1100 5
b1100 C
b1100 "
b1100 P
b1100 (
b1100 M
b1100 W
b1 J
b0 %
b0 [
b0 '
b0 L
b0 X
b11 $
b11 \
b11 &
b11 K
b11 Y
b0 I
b1100000001011001100011 9
b1100000001011001100011 G
b100000 ]
18
#120
08
#125
b11111111111000000000000010010011 #
b11111111111000000000000010010011 T
b100 4
b100 :
b100 @
b100 E
b1000000000000000001000100 +
b1000000000000000001000100 <
b1000000000000000001000100 Q
b100 !
b100 A
b100 Z
b100 5
b100 C
b0 6
b0 B
b100 "
b100 P
b1 )
b1 ?
b1 O
1*
13
1,
b1000000000000000001000100 >
b1000000000000000001000000 -
b1000000000000000001000000 ;
b1000000000000000001000000 F
b10011 H
b11 (
b11 M
b11 W
b0 J
b100 $
b100 \
b100 &
b100 K
b100 Y
b100000 ]
b10000000000000110010011 9
b10000000000000110010011 G
18
#130
08
#135
b11111111111111111111111111111110 !
b11111111111111111111111111111110 A
b11111111111111111111111111111110 Z
b11111111111100000000000100010011 #
b11111111111100000000000100010011 T
b11111111111111111111111111111110 4
b11111111111111111111111111111110 :
b11111111111111111111111111111110 @
b11111111111111111111111111111110 E
b1000000000000000001001000 +
b1000000000000000001001000 <
b1000000000000000001001000 Q
b11111111111111111111111111111110 5
b11111111111111111111111111111110 C
b11111111111111111111111111111110 "
b11111111111111111111111111111110 P
b1000000000000000001001000 >
b1000000000000000001000100 -
b1000000000000000001000100 ;
b1000000000000000001000100 F
b1 (
b1 M
b1 W
b11110 $
b11110 \
b11110 &
b11110 K
b11110 Y
b1111111 I
b11111111111000000000000010010011 9
b11111111111000000000000010010011 G
b100000 ]
18
#140
08
#145
b11111111111111111111111111111111 !
b11111111111111111111111111111111 A
b11111111111111111111111111111111 Z
b1000001100011001100011 #
b1000001100011001100011 T
b11111111111111111111111111111111 4
b11111111111111111111111111111111 :
b11111111111111111111111111111111 @
b11111111111111111111111111111111 E
b1000000000000000001001100 +
b1000000000000000001001100 <
b1000000000000000001001100 Q
b11111111111111111111111111111111 5
b11111111111111111111111111111111 C
b11111111111111111111111111111111 "
b11111111111111111111111111111111 P
b1000000000000000001001100 >
b1000000000000000001001000 -
b1000000000000000001001000 ;
b1000000000000000001001000 F
b10 (
b10 M
b10 W
b11111 $
b11111 \
b11111 &
b11111 K
b11111 Y
b100000 ]
b11111111111100000000000100010011 9
b11111111111100000000000100010011 G
18
#150
08
#155
b11111110001000001100111011100011 #
b11111110001000001100111011100011 T
b1000000000000000001011000 +
b1000000000000000001011000 <
b1000000000000000001011000 Q
b0 !
b0 A
b0 Z
b1000000000000000001011000 4
b1000000000000000001011000 :
b1000000000000000001011000 @
b1000000000000000001011000 E
0,
b0 )
b0 ?
b0 O
0*
03
b1000000000000000001010000 >
b1000000000000000001001100 -
b1000000000000000001001100 ;
b1000000000000000001001100 F
b1100 5
b1100 C
b1000000000000000001001100 6
b1000000000000000001001100 B
b1100 "
b1100 P
b1100011 H
b1100 (
b1100 M
b1100 W
b100 J
b11111111111111111111111111111110 %
b11111111111111111111111111111110 [
b1 '
b1 L
b1 X
b11111111111111111111111111111111 $
b11111111111111111111111111111111 \
b10 &
b10 K
b10 Y
b0 I
b1000001100011001100011 9
b1000001100011001100011 G
b100000 ]
18
#160
08
#165
b1100000001011001100011 #
b1100000001011001100011 T
b1000000000000000001010100 +
b1000000000000000001010100 <
b1000000000000000001010100 Q
b1000000000000000001011000 6
b1000000000000000001011000 B
b1000000000000000001010100 4
b1000000000000000001010100 :
b1000000000000000001010100 @
b1000000000000000001010100 E
b1000000000000000001011100 >
b1000000000000000001011000 -
b1000000000000000001011000 ;
b1000000000000000001011000 F
b11111111111111111111111111111100 5
b11111111111111111111111111111100 C
b11111111111111111111111111111100 "
b11111111111111111111111111111100 P
b11101 (
b11101 M
b11101 W
b1111111 I
b100000 ]
b11111110001000001100111011100011 9
b11111110001000001100111011100011 G
18
#170
08
#175
b10100000000000110010011 #
b10100000000000110010011 T
b1000000000000000001100000 +
b1000000000000000001100000 <
b1000000000000000001100000 Q
b1000000000000000001010100 6
b1000000000000000001010100 B
b1000000000000000001100000 4
b1000000000000000001100000 :
b1000000000000000001100000 @
b1000000000000000001100000 E
b1000000000000000001011000 >
b1000000000000000001010100 -
b1000000000000000001010100 ;
b1000000000000000001010100 F
b1100 5
b1100 C
b1100 "
b1100 P
b1100 (
b1100 M
b1100 W
b1 J
b0 %
b0 [
b0 '
b0 L
b0 X
b100 $
b100 \
b11 &
b11 K
b11 Y
b0 I
b1100000001011001100011 9
b1100000001011001100011 G
b100000 ]
18
#180
08
#185
b100000000000010010011 #
b100000000000010010011 T
b101 4
b101 :
b101 @
b101 E
b1000000000000000001100100 +
b1000000000000000001100100 <
b1000000000000000001100100 Q
b101 !
b101 A
b101 Z
b101 5
b101 C
b0 6
b0 B
b101 "
b101 P
b1 )
b1 ?
b1 O
1*
13
1,
b1000000000000000001100100 >
b1000000000000000001100000 -
b1000000000000000001100000 ;
b1000000000000000001100000 F
b10011 H
b11 (
b11 M
b11 W
b0 J
b101 $
b101 \
b101 &
b101 K
b101 Y
b100000 ]
b10100000000000110010011 9
b10100000000000110010011 G
18
#190
08
#195
b1 !
b1 A
b1 Z
b100010011 #
b100010011 T
b1 4
b1 :
b1 @
b1 E
b1000000000000000001101000 +
b1000000000000000001101000 <
b1000000000000000001101000 Q
b1 5
b1 C
b1 "
b1 P
b1000000000000000001101000 >
b1000000000000000001100100 -
b1000000000000000001100100 ;
b1000000000000000001100100 F
00
b1 (
b1 M
b1 W
b11111111111111111111111111111110 $
b11111111111111111111111111111110 \
b1 &
b1 K
b1 Y
b100000000000010010011 9
b100000000000010010011 G
b100000 ]
18
#200
08
#205
b0 !
b0 A
b0 Z
b1000001100010001100011 #
b1000001100010001100011 T
b0 4
b0 :
b0 @
b0 E
b1000000000000000001101100 +
b1000000000000000001101100 <
b1000000000000000001101100 Q
b0 5
b0 C
b0 "
b0 P
b1000000000000000001101100 >
b1000000000000000001101000 -
b1000000000000000001101000 ;
b1000000000000000001101000 F
b10 (
b10 M
b10 W
11
b0 &
b0 K
b0 Y
b100000 ]
b0 $
b0 \
b100010011 9
b100010011 G
18
#210
08
#215
b100100001100000001011001100011 #
b100100001100000001011001100011 T
b1000000000000000001110100 +
b1000000000000000001110100 <
b1000000000000000001110100 Q
b1000000000000000001110100 4
b1000000000000000001110100 :
b1000000000000000001110100 @
b1000000000000000001110100 E
0,
b0 )
b0 ?
b0 O
0*
03
b1000000000000000001110000 >
b1000000000000000001101100 -
b1000000000000000001101100 ;
b1000000000000000001101100 F
b1000 5
b1000 C
b1000000000000000001101100 6
b1000000000000000001101100 B
b1000 "
b1000 P
b1100011 H
b1000 (
b1000 M
b1000 W
b100 J
01
b1 %
b1 [
b1 '
b1 L
b1 X
b10 &
b10 K
b10 Y
b1000001100010001100011 9
b1000001100010001100011 G
b100000 ]
18
#220
08
#225
b1111111100000000000000001111 #
b1111111100000000000000001111 T
b1000000000000001011000000 +
b1000000000000001011000000 <
b1000000000000001011000000 Q
b1000000000000000001110100 6
b1000000000000000001110100 B
b1000000000000001011000000 4
b1000000000000001011000000 :
b1000000000000001011000000 @
b1000000000000001011000000 E
0,
b1000000000000000001111000 >
b1000000000000000001110100 -
b1000000000000000001110100 ;
b1000000000000000001110100 F
b1001001100 5
b1001001100 C
10
b1001001100 "
b1001001100 P
b1100 (
b1100 M
b1100 W
b1 J
b0 %
b0 [
b0 '
b0 L
b0 X
b101 $
b101 \
b11 &
b11 K
b11 Y
b10010 I
b100000 ]
b100100001100000001011001100011 9
b100100001100000001011001100011 G
18
#230
08
#235
b11000000001100011 #
b11000000001100011 T
b11111 4
b11111 :
b11111 @
b11111 E
b1000000000000001011000100 +
b1000000000000001011000100 <
b1000000000000001011000100 Q
b11111 !
b11111 A
b11111 Z
b11111 5
b11111 C
b0 6
b0 B
b1 )
b1 ?
b1 O
12
13
1,
b1000000000000001011000100 >
b1000000000000001011000000 -
b1000000000000001011000000 ;
b1000000000000001011000000 F
b1111 H
b0 (
b0 M
b0 W
b0 J
b11111 $
b11111 \
b11111 &
b11111 K
b11111 Y
b111 I
b1111111100000000000000001111 9
b1111111100000000000000001111 G
b100000 ]
18
#240
08
#245
b100011001000110010011 #
b100011001000110010011 T
b1000000000000001011001000 +
b1000000000000001011001000 <
b1000000000000001011001000 Q
b0 !
b0 A
b0 Z
b1000000000000001011000100 4
b1000000000000001011000100 :
b1000000000000001011000100 @
b1000000000000001011000100 E
b0 )
b0 ?
b0 O
02
03
b1000000000000001011001000 >
b1000000000000001011000100 -
b1000000000000001011000100 ;
b1000000000000001011000100 F
b1000000000000001011000100 6
b1000000000000001011000100 B
00
b0 5
b0 C
b0 "
b0 P
b1100011 H
b101 %
b101 [
b11 '
b11 L
b11 X
01
b0 $
b0 \
b0 &
b0 K
b0 Y
b0 I
b100000 ]
b11000000001100011 9
b11000000001100011 G
18
#250
08
#255
b100011110000110010011 #
b100011110000110010011 T
b1010 4
b1010 :
b1010 @
b1010 E
b1000000000000001011001100 +
b1000000000000001011001100 <
b1000000000000001011001100 Q
b1010 !
b1010 A
b1010 Z
b1 5
b1 C
b101 6
b101 B
b11 7
b11 D
b11 N
b1 "
b1 P
b1 )
b1 ?
b1 O
1*
13
b1000000000000001011001100 >
b1000000000000001011001000 -
b1000000000000001011001000 ;
b1000000000000001011001000 F
b10011 H
b11 (
b11 M
b11 W
b1 J
b1 $
b1 \
b1 &
b1 K
b1 Y
b100011001000110010011 9
b100011001000110010011 G
b100000 ]
18
#260
08
#265
b1110011 #
b1110011 T
b1000000000000001011010000 +
b1000000000000001011010000 <
b1000000000000001011010000 Q
b1011 !
b1011 A
b1011 Z
b1011 4
b1011 :
b1011 @
b1011 E
b10 7
b10 D
b10 N
b1000000000000001011010000 >
b1000000000000001011001100 -
b1000000000000001011001100 ;
b1000000000000001011001100 F
b1010 6
b1010 B
b110 J
b100000 ]
b1010 %
b1010 [
b100011110000110010011 9
b100011110000110010011 G
18
#270
08
#275
b1 !
b1 A
b1 Z
b1 4
b1 :
b1 @
b1 E
b1000000000000001011010100 >
b1000000000000001011010000 -
b1000000000000001011010000 ;
b1000000000000001011010000 F
b1110011 H
b0 (
b0 M
b0 W
b0 J
11
b0 '
b0 L
b0 X
b0 $
b0 \
b0 &
b0 K
b0 Y
b0 6
b0 B
b1110011 9
b1110011 G
b100000 ]
b0 %
b0 [
18
