PD3/testbench.vcd
$date
	Wed Jun 10 20:36:35 2020
$end
$version
	Icarus Verilog
$end
$timescale
	1s
$end
$scope module dut $end
$var wire 32 ! wb [31:0] $end
$var wire 32 " imm [31:0] $end
$var wire 32 # i_mem_out [31:0] $end
$var wire 32 $ data_rs2 [31:0] $end
$var wire 32 % data_rs1 [31:0] $end
$var wire 5 & addr_rs2 [4:0] $end
$var wire 5 ' addr_rs1 [4:0] $end
$var wire 5 ( addr_rd [4:0] $end
$var wire 2 ) WBSel [1:0] $end
$var wire 1 * RegWE $end
$var wire 32 + PC_next [31:0] $end
$var wire 1 , PCSel $end
$var wire 32 - PC [31:0] $end
$var wire 1 . MemRW $end
$var wire 1 / BrUn $end
$var wire 1 0 BrLt $end
$var wire 1 1 BrEq $end
$var wire 1 2 BSel $end
$var wire 1 3 ASel $end
$var wire 32 4 ALU_out [31:0] $end
$var wire 32 5 ALU_in2 [31:0] $end
$var wire 32 6 ALU_in1 [31:0] $end
$var wire 4 7 ALUSel [3:0] $end
$var reg 1 8 clk $end
$var reg 32 9 instruction [31:0] $end
$scope module PCMux $end
$var wire 1 8 clk $end
$var wire 1 , PCSel $end
$var wire 32 : ALU_out [31:0] $end
$var reg 32 ; PC [31:0] $end
$var reg 32 < PC_next [31:0] $end
$upscope $end
$scope module WBMux1 $end
$var wire 1 8 clk $end
$var wire 32 = dmem [31:0] $end
$var wire 32 > pc_next [31:0] $end
$var wire 2 ? sel [1:0] $end
$var wire 32 @ alu [31:0] $end
$var reg 32 A out [31:0] $end
$upscope $end
$scope module alu1 $end
$var wire 32 B rs1 [31:0] $end
$var wire 32 C rs2 [31:0] $end
$var wire 4 D ALUsel [3:0] $end
$var reg 32 E alu_res [31:0] $end
$upscope $end
$scope module fd1 $end
$var wire 1 1 BrEq $end
$var wire 1 0 BrLt $end
$var wire 32 F PC [31:0] $end
$var wire 1 8 clk $end
$var wire 32 G instruction [31:0] $end
$var wire 7 H opcode [6:0] $end
$var wire 7 I funct7 [6:0] $end
$var wire 3 J funct3 [2:0] $end
$var wire 5 K addr_rs2 [4:0] $end
$var wire 5 L addr_rs1 [4:0] $end
$var wire 5 M addr_rd [4:0] $end
$var wire 1 / BrUn $end
$var reg 4 N ALUSel [3:0] $end
$var reg 1 3 ASel $end
$var reg 1 2 BSel $end
$var reg 1 . MemRW $end
$var reg 1 , PCSel $end
$var reg 1 * RegWE $end
$var reg 2 O WBSel [1:0] $end
$var reg 32 P imm [31:0] $end
$scope task decode_bType $end
$upscope $end
$scope task decode_iType $end
$upscope $end
$scope task decode_jType $end
$upscope $end
$scope task decode_rType $end
$upscope $end
$scope task decode_sType $end
$upscope $end
$scope task decode_uType $end
$upscope $end
$upscope $end
$scope module i_mem $end
$var wire 32 Q address [31:0] $end
$var wire 1 8 clk $end
$var wire 32 R data_in [31:0] $end
$var wire 1 S w_enable $end
$var wire 2 T width [1:0] $end
$var reg 32 U data_out [31:0] $end
$var reg 32 V t_reg [31:0] $end
$var integer 32 W i [31:0] $end
$upscope $end
$scope module reg_file $end
$var wire 5 X addr_rd [4:0] $end
$var wire 5 Y addr_rs1 [4:0] $end
$var wire 5 Z addr_rs2 [4:0] $end
$var wire 1 8 clk $end
$var wire 32 [ data_rd [31:0] $end
$var wire 32 \ data_rs1 [31:0] $end
$var wire 32 ] data_rs2 [31:0] $end
$var wire 1 * write_enable $end
$var integer 32 ^ i [31:0] $end
$scope begin genblk1[0] $end
$upscope $end
$scope begin genblk1[1] $end
$upscope $end
$scope begin genblk1[2] $end
$upscope $end
$scope begin genblk1[3] $end
$upscope $end
$scope begin genblk1[4] $end
$upscope $end
$scope begin genblk1[5] $end
$upscope $end
$scope begin genblk1[6] $end
$upscope $end
$scope begin genblk1[7] $end
$upscope $end
$scope begin genblk1[8] $end
$upscope $end
$scope begin genblk1[9] $end
$upscope $end
$scope begin genblk1[10] $end
$upscope $end
$scope begin genblk1[11] $end
$upscope $end
$scope begin genblk1[12] $end
$upscope $end
$scope begin genblk1[13] $end
$upscope $end
$scope begin genblk1[14] $end
$upscope $end
$scope begin genblk1[15] $end
$upscope $end
$scope begin genblk1[16] $end
$upscope $end
$scope begin genblk1[17] $end
$upscope $end
$scope begin genblk1[18] $end
$upscope $end
$scope begin genblk1[19] $end
$upscope $end
$scope begin genblk1[20] $end
$upscope $end
$scope begin genblk1[21] $end
$upscope $end
$scope begin genblk1[22] $end
$upscope $end
$scope begin genblk1[23] $end
$upscope $end
$scope begin genblk1[24] $end
$upscope $end
$scope begin genblk1[25] $end
$upscope $end
$scope begin genblk1[26] $end
$upscope $end
$scope begin genblk1[27] $end
$upscope $end
$scope begin genblk1[28] $end
$upscope $end
$scope begin genblk1[29] $end
$upscope $end
$scope begin genblk1[30] $end
$upscope $end
$scope begin genblk1[31] $end
$upscope $end
$upscope $end
$upscope $end
$enddefinitions $end
#0
$dumpvars
b100000 ^
bx ]
bx \
bx [
bx Z
bx Y
bx X
b100000000000000000001 W
bx V
b111111110001000010110111 U
bz T
0S
b0 R
b1000000000000000000000000 Q
bx P
b1 O
b0 N
bx M
bx L
bx K
bx J
bx I
bx H
bx G
b111111111111111111111100 F
bx E
b0 D
bx C
bx B
bx A
bx @
b1 ?
b1000000000000000000000000 >
b0 =
b1000000000000000000000000 <
b111111111111111111111100 ;
bx :
bx 9
08
b0 7
bx 6
bx 5
bx 4
x3
x2
x1
x0
x/
x.
b111111111111111111111100 -
1,
b1000000000000000000000000 +
x*
b1 )
bx (
bx '
bx &
bx %
bx $
b111111110001000010110111 #
bx "
bx !
$end
#5
b111111110001000000000000 !
b111111110001000000000000 A
b111111110001000000000000 [
b11110000000000001000000010010011 #
b11110000000000001000000010010011 U
0/
b111111110001000000000000 4
b111111110001000000000000 :
b111111110001000000000000 @
b111111110001000000000000 E
00
b111111110001000000000000 5
b111111110001000000000000 C
b1000000000000000000000100 +
b1000000000000000000000100 <
b1000000000000000000000100 Q
b11110 6
b11110 B
1*
1.
b1011 7
b1011 D
b1011 N
02
13
b111111110001000000000000 "
b111111110001000000000000 P
b110111 H
b1 (
b1 M
b1 X
b1 J
01
b11110 %
b11110 \
b11110 '
b11110 L
b11110 Y
b1111 $
b1111 ]
b1111 &
b1111 K
b1111 Z
b0 I
b1000000000000000000000100 >
b1000000000000000000000000 -
b1000000000000000000000000 ;
b1000000000000000000000000 F
b111111110001000010110111 9
b111111110001000010110111 G
b100000 ^
18
#10
08
#15
b111111110000111100000000 !
b111111110000111100000000 A
b111111110000111100000000 [
b11110000111100001100111100010011 #
b11110000111100001100111100010011 U
b111111110000111100000000 4
b111111110000111100000000 :
b111111110000111100000000 @
b111111110000111100000000 E
b111111110001000000000000 6
b111111110001000000000000 B
b0 7
b0 D
b0 N
b11111111111111111111111100000000 5
b11111111111111111111111100000000 C
b10011 H
b0 J
b111111110001000000000000 %
b111111110001000000000000 \
b1 '
b1 L
b1 Y
b0 $
b0 ]
b0 &
b0 K
b0 Z
b1111000 I
b1000000000000000000001000 +
b1000000000000000000001000 <
b1000000000000000000001000 Q
b11111111111111111111111100000000 "
b11111111111111111111111100000000 P
b11110000000000001000000010010011 9
b11110000000000001000000010010011 G
b1000000000000000000001000 >
b1000000000000000000000100 -
b1000000000000000000000100 ;
b1000000000000000000000100 F
b100000 ^
18
#20
08
#25
b11111111000000001111000000001111 !
b11111111000000001111000000001111 A
b11111111000000001111000000001111 [
b11111111000000001111111010110111 #
b11111111000000001111111010110111 U
b11111111000000001111000000001111 4
b11111111000000001111000000001111 :
b11111111000000001111000000001111 @
b11111111000000001111000000001111 E
b11111111111111111111111100001111 5
b11111111111111111111111100001111 C
b1000000000000000000001100 +
b1000000000000000000001100 <
b1000000000000000000001100 Q
b111111110000111100000000 6
b111111110000111100000000 B
b1000 7
b1000 D
b1000 N
b11111111111111111111111100001111 "
b11111111111111111111111100001111 P
b11110 (
b11110 M
b11110 X
b100 J
b1111 $
b1111 ]
b1111 &
b1111 K
b1111 Z
b1000000000000000000001100 >
b1000000000000000000001000 -
b1000000000000000000001000 ;
b1000000000000000000001000 F
b111111110000111100000000 %
b111111110000111100000000 \
b11110000111100001100111100010011 9
b11110000111100001100111100010011 G
b100000 ^
18
#30
08
#35
b11111111000000001111000000000000 !
b11111111000000001111000000000000 A
b11111111000000001111000000000000 [
b111111101000111010010011 #
b111111101000111010010011 U
b11111111000000001111000000000000 4
b11111111000000001111000000000000 :
b11111111000000001111000000000000 @
b11111111000000001111000000000000 E
b1011 7
b1011 D
b1011 N
b11111111000000001111000000000000 5
b11111111000000001111000000000000 C
b110111 H
b11101 (
b11101 M
b11101 X
b111 J
b10000 $
b10000 ]
b10000 &
b10000 K
b10000 Z
b1111111 I
b1000000000000000000010000 +
b1000000000000000000010000 <
b1000000000000000000010000 Q
b11111111000000001111000000000000 "
b11111111000000001111000000000000 P
b11111111000000001111111010110111 9
b11111111000000001111111010110111 G
b1000000000000000000010000 >
b1000000000000000000001100 -
b1000000000000000000001100 ;
b1000000000000000000001100 F
b100000 ^
18
#40
08
#45
b11111111000000001111000000001111 !
b11111111000000001111000000001111 A
b11111111000000001111000000001111 [
b1000000000000110010011 #
b1000000000000110010011 U
b11111111000000001111000000001111 4
b11111111000000001111000000001111 :
b11111111000000001111000000001111 @
b11111111000000001111000000001111 E
b1111 5
b1111 C
10
b11111111000000001111000000000000 6
b11111111000000001111000000000000 B
b1000000000000000000010100 +
b1000000000000000000010100 <
b1000000000000000000010100 Q
b0 7
b0 D
b0 N
b1111 "
b1111 P
b10011 H
b0 J
b11111111000000001111000000000000 %
b11111111000000001111000000000000 \
b11101 '
b11101 L
b11101 Y
b1111 $
b1111 ]
b1111 &
b1111 K
b1111 Z
b0 I
b1000000000000000000010100 >
b1000000000000000000010000 -
b1000000000000000000010000 ;
b1000000000000000000010000 F
b111111101000111010010011 9
b111111101000111010010011 G
b100000 ^
18
#50
08
#55
b10 !
b10 A
b10 [
b11101110111110001011001100011 #
b11101110111110001011001100011 U
b10 4
b10 :
b10 @
b10 E
b10 5
b10 C
b11 (
b11 M
b11 X
b0 '
b0 L
b0 Y
b10 $
b10 ]
b10 &
b10 K
b10 Z
b0 6
b0 B
b1000000000000000000011000 +
b1000000000000000000011000 <
b1000000000000000000011000 Q
b10 "
b10 P
b1000000000000110010011 9
b1000000000000110010011 G
b0 %
b0 \
b1000000000000000000011000 >
b1000000000000000000010100 -
b1000000000000000000010100 ;
b1000000000000000000010100 F
b100000 ^
18
#60
08
#65
b1111111100000001000010110111 #
b1111111100000001000010110111 U
b0 !
b0 A
b0 [
b1000000000000000111100100 4
b1000000000000000111100100 :
b1000000000000000111100100 @
b1000000000000000111100100 E
b111001100 5
b111001100 C
b1000000000000000000011000 6
b1000000000000000000011000 B
00
b1000000000000000000011100 +
b1000000000000000000011100 <
b1000000000000000000011100 Q
b0 )
b0 ?
b0 O
0*
03
b111001100 "
b111001100 P
b1100011 H
b1100 (
b1100 M
b1100 X
b1 J
11
b11111111000000001111000000001111 %
b11111111000000001111000000001111 \
b11110 '
b11110 L
b11110 Y
b11111111000000001111000000001111 $
b11111111000000001111000000001111 ]
b11101 &
b11101 K
b11101 Z
b1110 I
b1000000000000000000011100 >
b1000000000000000000011000 -
b1000000000000000000011000 ;
b1000000000000000000011000 F
b11101110111110001011001100011 9
b11101110111110001011001100011 G
b100000 ^
18
#70
08
#75
b1111111100000001000000000000 !
b1111111100000001000000000000 A
b1111111100000001000000000000 [
b11111111000000001000000010010011 #
b11111111000000001000000010010011 U
10
b1 )
b1 ?
b1 O
1*
b1011 7
b1011 D
b1011 N
13
b1111111100000001000000000000 5
b1111111100000001000000000000 C
b1111111100000001000000000000 4
b1111111100000001000000000000 :
b1111111100000001000000000000 @
b1111111100000001000000000000 E
b110111 H
b1 (
b1 M
b1 X
b0 %
b0 \
b0 '
b0 L
b0 Y
01
b11111 $
b11111 ]
b11111 &
b11111 K
b11111 Z
b111 I
b1000000000000000000100000 +
b1000000000000000000100000 <
b1000000000000000000100000 Q
b1111111100000001000000000000 "
b1111111100000001000000000000 P
b0 6
b0 B
b1111111100000001000010110111 9
b1111111100000001000010110111 G
b1000000000000000000100000 >
b1000000000000000000011100 -
b1000000000000000000011100 ;
b1000000000000000000011100 F
b100000 ^
18
#80
08
#85
b1111111100000000111111110000 !
b1111111100000000111111110000 A
b1111111100000000111111110000 [
b1111000000001100111100010011 #
b1111000000001100111100010011 U
b1111111100000000111111110000 4
b1111111100000000111111110000 :
b1111111100000000111111110000 @
b1111111100000000111111110000 E
b11111111111111111111111111110000 5
b11111111111111111111111111110000 C
00
b1111111100000001000000000000 6
b1111111100000001000000000000 B
b1000000000000000000100100 +
b1000000000000000000100100 <
b1000000000000000000100100 Q
b0 7
b0 D
b0 N
b11111111111111111111111111110000 "
b11111111111111111111111111110000 P
b10011 H
b0 J
b1111111100000001000000000000 %
b1111111100000001000000000000 \
b1 '
b1 L
b1 Y
b10000 $
b10000 ]
b10000 &
b10000 K
b10000 Z
b1111111 I
b1000000000000000000100100 >
b1000000000000000000100000 -
b1000000000000000000100000 ;
b1000000000000000000100000 F
b11111111000000001000000010010011 9
b11111111000000001000000010010011 G
b100000 ^
18
#90
08
#95
b1111111100000000111100000000 !
b1111111100000000111100000000 A
b1111111100000000111100000000 [
b1111111100000001111010110111 #
b1111111100000001111010110111 U
b1000 7
b1000 D
b1000 N
b1111111100000000111100000000 4
b1111111100000000111100000000 :
b1111111100000000111100000000 @
b1111111100000000111100000000 E
b11110000 5
b11110000 C
b11110 (
b11110 M
b11110 X
b100 J
b111 I
b1111111100000000111111110000 6
b1111111100000000111111110000 B
b1000000000000000000101000 +
b1000000000000000000101000 <
b1000000000000000000101000 Q
b11110000 "
b11110000 P
b1111000000001100111100010011 9
b1111000000001100111100010011 G
b1111111100000000111111110000 %
b1111111100000000111111110000 \
b1000000000000000000101000 >
b1000000000000000000100100 -
b1000000000000000000100100 ;
b1000000000000000000100100 F
b100000 ^
18
#100
08
#105
b1111111100000001000000000000 !
b1111111100000001000000000000 A
b1111111100000001000000000000 [
b11110000000011101000111010010011 #
b11110000000011101000111010010011 U
b1111111100000001000000000000 4
b1111111100000001000000000000 :
b1111111100000001000000000000 @
b1111111100000001000000000000 E
b1111111100000001000000000000 5
b1111111100000001000000000000 C
10
b0 6
b0 B
b1000000000000000000101100 +
b1000000000000000000101100 <
b1000000000000000000101100 Q
b1011 7
b1011 D
b1011 N
b1111111100000001000000000000 "
b1111111100000001000000000000 P
b110111 H
b11101 (
b11101 M
b11101 X
b1 J
b0 %
b0 \
b0 '
b0 L
b0 Y
b11111 $
b11111 ]
b11111 &
b11111 K
b11111 Z
b1000000000000000000101100 >
b1000000000000000000101000 -
b1000000000000000000101000 ;
b1000000000000000000101000 F
b1111111100000001111010110111 9
b1111111100000001111010110111 G
b100000 ^
18
#110
08
#115
b1111111100000000111100000000 !
b1111111100000000111100000000 A
b1111111100000000111100000000 [
b1100000000000110010011 #
b1100000000000110010011 U
b1111111100000000111100000000 4
b1111111100000000111100000000 :
b1111111100000000111100000000 @
b1111111100000000111100000000 E
b1111111100000001000000000000 6
b1111111100000001000000000000 B
00
b0 7
b0 D
b0 N
b11111111111111111111111100000000 5
b11111111111111111111111100000000 C
b10011 H
b0 J
b1111111100000001000000000000 %
b1111111100000001000000000000 \
b11101 '
b11101 L
b11101 Y
01
b0 $
b0 ]
b0 &
b0 K
b0 Z
b1111000 I
b1000000000000000000110000 +
b1000000000000000000110000 <
b1000000000000000000110000 Q
b11111111111111111111111100000000 "
b11111111111111111111111100000000 P
b11110000000011101000111010010011 9
b11110000000011101000111010010011 G
b1000000000000000000110000 >
b1000000000000000000101100 -
b1000000000000000000101100 ;
b1000000000000000000101100 F
b100000 ^
18
#120
08
#125
b11 !
b11 A
b11 [
b11011110111110001100001100011 #
b11011110111110001100001100011 U
b11 4
b11 :
b11 @
b11 E
b11 5
b11 C
10
b1000000000000000000110100 +
b1000000000000000000110100 <
b1000000000000000000110100 Q
b0 6
b0 B
b11 "
b11 P
b11 (
b11 M
b11 X
b0 '
b0 L
b0 Y
b10 $
b10 ]
b11 &
b11 K
b11 Z
b0 I
b1000000000000000000110100 >
b1000000000000000000110000 -
b1000000000000000000110000 ;
b1000000000000000000110000 F
b0 %
b0 \
b1100000000000110010011 9
b1100000000000110010011 G
b100000 ^
18
#130
08
#135
b0 !
b0 A
b0 [
b111111110001000010110111 #
b111111110001000010110111 U
b1000000000000000111100100 4
b1000000000000000111100100 :
b1000000000000000111100100 @
b1000000000000000111100100 E
00
b1000000000000000000110100 6
b1000000000000000000110100 B
b0 )
b0 ?
b0 O
0*
03
b110110000 5
b110110000 C
b1100011 H
b10000 (
b10000 M
b10000 X
b1 J
11
b1111111100000000111100000000 %
b1111111100000000111100000000 \
b11110 '
b11110 L
b11110 Y
b11101 &
b11101 K
b11101 Z
b1101 I
b1000000000000000000111000 +
b1000000000000000000111000 <
b1000000000000000000111000 Q
b110110000 "
b110110000 P
b11011110111110001100001100011 9
b11011110111110001100001100011 G
b1111111100000000111100000000 $
b1111111100000000111100000000 ]
b1000000000000000000111000 >
b1000000000000000000110100 -
b1000000000000000000110100 ;
b1000000000000000000110100 F
b100000 ^
18
#140
08
#145
b10001111111100001000000010010011 #
b10001111111100001000000010010011 U
b111111110001000000000000 !
b111111110001000000000000 A
b111111110001000000000000 [
b111111110001000000000000 4
b111111110001000000000000 :
b111111110001000000000000 @
b111111110001000000000000 E
b111111110001000000000000 5
b111111110001000000000000 C
b1000000000000000000111100 +
b1000000000000000000111100 <
b1000000000000000000111100 Q
b1111111100000000111100000000 6
b1111111100000000111100000000 B
b1 )
b1 ?
b1 O
1*
b1011 7
b1011 D
b1011 N
13
b111111110001000000000000 "
b111111110001000000000000 P
b110111 H
b1 (
b1 M
b1 X
01
b1111 $
b1111 ]
b1111 &
b1111 K
b1111 Z
b0 I
b1000000000000000000111100 >
b1000000000000000000111000 -
b1000000000000000000111000 ;
b1000000000000000000111000 F
b111111110001000010110111 9
b111111110001000010110111 G
b100000 ^
18
#150
08
#155
b111111110000100011111111 !
b111111110000100011111111 A
b111111110000100011111111 [
b1110000111100001100111100010011 #
b1110000111100001100111100010011 U
b111111110000100011111111 4
b111111110000100011111111 :
b111111110000100011111111 @
b111111110000100011111111 E
b111111110001000000000000 6
b111111110001000000000000 B
b0 7
b0 D
b0 N
b11111111111111111111100011111111 5
b11111111111111111111100011111111 C
b10011 H
b0 J
b111111110001000000000000 %
b111111110001000000000000 \
b1 '
b1 L
b1 Y
b11111 $
b11111 ]
b11111 &
b11111 K
b11111 Z
b1000111 I
b1000000000000000001000000 +
b1000000000000000001000000 <
b1000000000000000001000000 Q
b11111111111111111111100011111111 "
b11111111111111111111100011111111 P
b10001111111100001000000010010011 9
b10001111111100001000000010010011 G
b1000000000000000001000000 >
b1000000000000000000111100 -
b1000000000000000000111100 ;
b1000000000000000000111100 F
b100000 ^
18
#160
08
#165
b111111110000111111110000 !
b111111110000111111110000 A
b111111110000111111110000 [
b111111110001111010110111 #
b111111110001111010110111 U
b111111110000111111110000 4
b111111110000111111110000 :
b111111110000111111110000 @
b111111110000111111110000 E
b11100001111 5
b11100001111 C
b1000000000000000001000100 +
b1000000000000000001000100 <
b1000000000000000001000100 Q
b111111110000100011111111 6
b111111110000100011111111 B
b1000 7
b1000 D
b1000 N
b11100001111 "
b11100001111 P
b11110 (
b11110 M
b11110 X
b100 J
b1111 $
b1111 ]
b1111 &
b1111 K
b1111 Z
b111000 I
b1000000000000000001000100 >
b1000000000000000001000000 -
b1000000000000000001000000 ;
b1000000000000000001000000 F
b111111110000100011111111 %
b111111110000100011111111 \
b1110000111100001100111100010011 9
b1110000111100001100111100010011 G
b100000 ^
18
#170
08
#175
b111111110001000000000000 !
b111111110001000000000000 A
b111111110001000000000000 [
b11111111000011101000111010010011 #
b11111111000011101000111010010011 U
b111111110001000000000000 4
b111111110001000000000000 :
b111111110001000000000000 @
b111111110001000000000000 E
b111111110000111111110000 6
b111111110000111111110000 B
b1011 7
b1011 D
b1011 N
b111111110001000000000000 5
b111111110001000000000000 C
b110111 H
b11101 (
b11101 M
b11101 X
b1 J
b111111110000111111110000 %
b111111110000111111110000 \
b11110 '
b11110 L
b11110 Y
b0 I
b1000000000000000001001000 +
b1000000000000000001001000 <
b1000000000000000001001000 Q
b111111110001000000000000 "
b111111110001000000000000 P
b111111110001111010110111 9
b111111110001111010110111 G
b1000000000000000001001000 >
b1000000000000000001000100 -
b1000000000000000001000100 ;
b1000000000000000001000100 F
b100000 ^
18
#180
08
#185
b111111110000111111110000 !
b111111110000111111110000 A
b111111110000111111110000 [
b10000000000000110010011 #
b10000000000000110010011 U
b111111110000111111110000 4
b111111110000111111110000 :
b111111110000111111110000 @
b111111110000111111110000 E
b11111111111111111111111111110000 5
b11111111111111111111111111110000 C
b111111110001000000000000 6
b111111110001000000000000 B
b1000000000000000001001100 +
b1000000000000000001001100 <
b1000000000000000001001100 Q
b0 7
b0 D
b0 N
b11111111111111111111111111110000 "
b11111111111111111111111111110000 P
b10011 H
b0 J
b111111110001000000000000 %
b111111110001000000000000 \
b11101 '
b11101 L
b11101 Y
b10000 $
b10000 ]
b10000 &
b10000 K
b10000 Z
b1111111 I
b1000000000000000001001100 >
b1000000000000000001001000 -
b1000000000000000001001000 ;
b1000000000000000001001000 F
b11111111000011101000111010010011 9
b11111111000011101000111010010011 G
b100000 ^
18
#190
08
#195
b100 !
b100 A
b100 [
b11001110111110001101001100011 #
b11001110111110001101001100011 U
10
b100 4
b100 :
b100 @
b100 E
b100 5
b100 C
b11 (
b11 M
b11 X
b0 '
b0 L
b0 Y
b100 $
b100 ]
b100 &
b100 K
b100 Z
b0 I
b0 6
b0 B
b1000000000000000001010000 +
b1000000000000000001010000 <
b1000000000000000001010000 Q
b100 "
b100 P
b10000000000000110010011 9
b10000000000000110010011 G
b0 %
b0 \
b1000000000000000001010000 >
b1000000000000000001001100 -
b1000000000000000001001100 ;
b1000000000000000001001100 F
b100000 ^
18
#200
08
#205
b11110000000011111111000010110111 #
b11110000000011111111000010110111 U
b0 !
b0 A
b0 [
b1000000000000000111100100 4
b1000000000000000111100100 :
b1000000000000000111100100 @
b1000000000000000111100100 E
b110010100 5
b110010100 C
00
b1000000000000000001010000 6
b1000000000000000001010000 B
b1000000000000000001010100 +
b1000000000000000001010100 <
b1000000000000000001010100 Q
b0 )
b0 ?
b0 O
0*
03
b110010100 "
b110010100 P
b1100011 H
b10100 (
b10100 M
b10100 X
b1 J
11
b111111110000111111110000 %
b111111110000111111110000 \
b11110 '
b11110 L
b11110 Y
b111111110000111111110000 $
b111111110000111111110000 ]
b11101 &
b11101 K
b11101 Z
b1100 I
b1000000000000000001010100 >
b1000000000000000001010000 -
b1000000000000000001010000 ;
b1000000000000000001010000 F
b11001110111110001101001100011 9
b11001110111110001101001100011 G
b100000 ^
18
#210
08
#215
b11110000000011111111000000000000 !
b11110000000011111111000000000000 A
b11110000000011111111000000000000 [
b111100001000000010010011 #
b111100001000000010010011 U
b1 )
b1 ?
b1 O
1*
b1011 7
b1011 D
b1011 N
13
b11110000000011111111000000000000 5
b11110000000011111111000000000000 C
b11110000000011111111000000000000 4
b11110000000011111111000000000000 :
b11110000000011111111000000000000 @
b11110000000011111111000000000000 E
b110111 H
b1 (
b1 M
b1 X
b111 J
b11111 %
b11111 \
b11111 '
b11111 L
b11111 Y
01
b0 $
b0 ]
b0 &
b0 K
b0 Z
b1111000 I
b1000000000000000001011000 +
b1000000000000000001011000 <
b1000000000000000001011000 Q
b11110000000011111111000000000000 "
b11110000000011111111000000000000 P
b11111 6
b11111 B
b11110000000011111111000010110111 9
b11110000000011111111000010110111 G
b1000000000000000001011000 >
b1000000000000000001010100 -
b1000000000000000001010100 ;
b1000000000000000001010100 F
b100000 ^
18
#220
08
#225
b11110000000011111111000000001111 !
b11110000000011111111000000001111 A
b11110000000011111111000000001111 [
b1111000000001100111100010011 #
b1111000000001100111100010011 U
b11110000000011111111000000001111 4
b11110000000011111111000000001111 :
b11110000000011111111000000001111 @
b11110000000011111111000000001111 E
b1111 5
b1111 C
10
b11110000000011111111000000000000 6
b11110000000011111111000000000000 B
b1000000000000000001011100 +
b1000000000000000001011100 <
b1000000000000000001011100 Q
b0 7
b0 D
b0 N
b1111 "
b1111 P
b10011 H
b0 J
b11110000000011111111000000000000 %
b11110000000011111111000000000000 \
b1 '
b1 L
b1 Y
b1111 $
b1111 ]
b1111 &
b1111 K
b1111 Z
b0 I
b1000000000000000001011100 >
b1000000000000000001011000 -
b1000000000000000001011000 ;
b1000000000000000001011000 F
b111100001000000010010011 9
b111100001000000010010011 G
b100000 ^
18
#230
08
#235
b11110000000011111111000011111111 !
b11110000000011111111000011111111 A
b11110000000011111111000011111111 [
b11110000000011111111111010110111 #
b11110000000011111111111010110111 U
b1000 7
b1000 D
b1000 N
b11110000000011111111000011111111 4
b11110000000011111111000011111111 :
b11110000000011111111000011111111 @
b11110000000011111111000011111111 E
b11110000 5
b11110000 C
b11110 (
b11110 M
b11110 X
b100 J
b10000 $
b10000 ]
b10000 &
b10000 K
b10000 Z
b111 I
b11110000000011111111000000001111 6
b11110000000011111111000000001111 B
b1000000000000000001100000 +
b1000000000000000001100000 <
b1000000000000000001100000 Q
b11110000 "
b11110000 P
b1111000000001100111100010011 9
b1111000000001100111100010011 G
b11110000000011111111000000001111 %
b11110000000011111111000000001111 \
b1000000000000000001100000 >
b1000000000000000001011100 -
b1000000000000000001011100 ;
b1000000000000000001011100 F
b100000 ^
18
#240
08
#245
b11110000000011111111000000000000 !
b11110000000011111111000000000000 A
b11110000000011111111000000000000 [
b1111111111101000111010010011 #
b1111111111101000111010010011 U
b11110000000011111111000000000000 4
b11110000000011111111000000000000 :
b11110000000011111111000000000000 @
b11110000000011111111000000000000 E
b11110000000011111111000000000000 5
b11110000000011111111000000000000 C
00
b11111 6
b11111 B
b1000000000000000001100100 +
b1000000000000000001100100 <
b1000000000000000001100100 Q
b1011 7
b1011 D
b1011 N
b11110000000011111111000000000000 "
b11110000000011111111000000000000 P
b110111 H
b11101 (
b11101 M
b11101 X
b111 J
b11111 %
b11111 \
b11111 '
b11111 L
b11111 Y
b0 $
b0 ]
b0 &
b0 K
b0 Z
b1111000 I
b1000000000000000001100100 >
b1000000000000000001100000 -
b1000000000000000001100000 ;
b1000000000000000001100000 F
b11110000000011111111111010110111 9
b11110000000011111111111010110111 G
b100000 ^
18
#250
08
#255
b11110000000011111111000011111111 !
b11110000000011111111000011111111 A
b11110000000011111111000011111111 [
b10100000000000110010011 #
b10100000000000110010011 U
b11110000000011111111000011111111 4
b11110000000011111111000011111111 :
b11110000000011111111000011111111 @
b11110000000011111111000011111111 E
10
b11110000000011111111000000000000 6
b11110000000011111111000000000000 B
b0 7
b0 D
b0 N
b11111111 5
b11111111 C
b10011 H
b0 J
b11110000000011111111000000000000 %
b11110000000011111111000000000000 \
b11101 '
b11101 L
b11101 Y
01
b11111 $
b11111 ]
b11111 &
b11111 K
b11111 Z
b111 I
b1000000000000000001101000 +
b1000000000000000001101000 <
b1000000000000000001101000 Q
b11111111 "
b11111111 P
b1111111111101000111010010011 9
b1111111111101000111010010011 G
b1000000000000000001101000 >
b1000000000000000001100100 -
b1000000000000000001100100 ;
b1000000000000000001100100 F
b100000 ^
18
#260
08
#265
b101 !
b101 A
b101 [
b10111110111110001110001100011 #
b10111110111110001110001100011 U
b101 4
b101 :
b101 @
b101 E
b101 5
b101 C
b1000000000000000001101100 +
b1000000000000000001101100 <
b1000000000000000001101100 Q
b0 6
b0 B
b101 "
b101 P
b11 (
b11 M
b11 X
b0 '
b0 L
b0 Y
b101 $
b101 ]
b101 &
b101 K
b101 Z
b0 I
b1000000000000000001101100 >
b1000000000000000001101000 -
b1000000000000000001101000 ;
b1000000000000000001101000 F
b0 %
b0 \
b10100000000000110010011 9
b10100000000000110010011 G
b100000 ^
18
#270
08
#275
b0 !
b0 A
b0 [
b11111111000000001111000010110111 #
b11111111000000001111000010110111 U
b1000000000000000111100100 4
b1000000000000000111100100 :
b1000000000000000111100100 @
b1000000000000000111100100 E
b1000000000000000001101100 6
b1000000000000000001101100 B
00
b0 )
b0 ?
b0 O
0*
03
b101111000 5
b101111000 C
b1100011 H
b11000 (
b11000 M
b11000 X
b1 J
11
b11110000000011111111000011111111 %
b11110000000011111111000011111111 \
b11110 '
b11110 L
b11110 Y
b11110000000011111111000011111111 $
b11110000000011111111000011111111 ]
b11101 &
b11101 K
b11101 Z
b1011 I
b1000000000000000001110000 +
b1000000000000000001110000 <
b1000000000000000001110000 Q
b101111000 "
b101111000 P
b10111110111110001110001100011 9
b10111110111110001110001100011 G
b1000000000000000001110000 >
b1000000000000000001101100 -
b1000000000000000001101100 ;
b1000000000000000001101100 F
b100000 ^
18
#280
08
