PD2/output.txt
BubbleSort.x
WARNING: ./memory.v:29: $readmemh(simple_programs/SumArray.x): Not enough words in the file for the requested range [0:262143].
VCD info: dumpfile TB_fetch_decode.vcd opened for output.

TB: current instruction components: opcode=xxxxxxx, func3=xxx, func7=xxxxxxx, rd=xx, rs1=xx, rs2=xx, imm=x
xxxxxxxx:  	xxxxxxxx    	 error

TB: current instruction components: opcode=0010011, func3=000, func7=1111110, rd=x2, rs1=x2, rs2=x0, imm=-64
1000000:  	fc010113    	ADDI   x2, x2, -64

TB: current instruction components: opcode=0100011, func3=010, func7=0000001, rd=x28, rs1=x2, rs2=x1, imm=60
1000004:  	02112e23    	SW     x1, 60(x2)

TB: current instruction components: opcode=0100011, func3=010, func7=0000001, rd=x12, rs1=x2, rs2=x0, imm=44
1000008:  	02012623    	SW     x0, 44(x2)

TB: current instruction components: opcode=0100011, func3=010, func7=0000001, rd=x8, rs1=x2, rs2=x0, imm=40
100000c:  	02012423    	SW     x0, 40(x2)

TB: current instruction components: opcode=0100011, func3=010, func7=0000001, rd=x12, rs1=x2, rs2=x0, imm=44
1000010:  	02012623    	SW     x0, 44(x2)

TB: current instruction components: opcode=1101111, func3=000, func7=0000001, rd=x0, rs1=x0, rs2=x8, imm=40
1000014:  	0280006f    	JAL    x0, 100003c

TB: current instruction components: opcode=0000011, func3=010, func7=0000001, rd=x15, rs1=x2, rs2=x12, imm=44
1000018:  	02c12783    	LW     x15, 44(x2)

TB: current instruction components: opcode=0010011, func3=001, func7=0000000, rd=x15, rs1=x15, rs2=x2, imm=44
100001c:  	00279793    	SLLI   x15, x15, 0xzz

TB: current instruction components: opcode=0010011, func3=000, func7=0000001, rd=x14, rs1=x2, rs2=x16, imm=48
1000020:  	03010713    	ADDI   x14, x2, 48

TB: current instruction components: opcode=0110011, func3=000, func7=0000000, rd=x15, rs1=x14, rs2=x15, imm=48
1000024:  	00f707b3    	ADD    x15, x14, x15

TB: current instruction components: opcode=0000011, func3=010, func7=0000001, rd=x14, rs1=x2, rs2=x12, imm=44
1000028:  	02c12703    	LW     x14, 44(x2)

TB: current instruction components: opcode=0100011, func3=010, func7=1111110, rd=x16, rs1=x15, rs2=x14, imm=-48
100002c:  	fce7a823    	SW     x14, -48(x15)

TB: current instruction components: opcode=0000011, func3=010, func7=0000001, rd=x15, rs1=x2, rs2=x12, imm=44
1000030:  	02c12783    	LW     x15, 44(x2)

TB: current instruction components: opcode=0010011, func3=000, func7=0000000, rd=x15, rs1=x15, rs2=x1, imm=1
1000034:  	00178793    	ADDI   x15, x15, 1

TB: current instruction components: opcode=0100011, func3=010, func7=0000001, rd=x12, rs1=x2, rs2=x15, imm=44
1000038:  	02f12623    	SW     x15, 44(x2)

TB: current instruction components: opcode=0000011, func3=010, func7=0000001, rd=x14, rs1=x2, rs2=x12, imm=44
100003c:  	02c12703    	LW     x14, 44(x2)

TB: current instruction components: opcode=0010011, func3=000, func7=0000000, rd=x15, rs1=x0, rs2=x9, imm=9
1000040:  	00900793    	ADDI   x15, x0, 9

TB: current instruction components: opcode=1100011, func3=101, func7=1111110, rd=x21, rs1=x15, rs2=x14, imm=-44
1000044:  	fce7dae3    	BGE    x15, x14, 1000018

TB: current instruction components: opcode=0100011, func3=010, func7=0000001, rd=x12, rs1=x2, rs2=x0, imm=44
1000048:  	02012623    	SW     x0, 44(x2)

TB: current instruction components: opcode=1101111, func3=000, func7=0000001, rd=x0, rs1=x0, rs2=x16, imm=48
100004c:  	0300006f    	JAL    x0, 100007c

TB: current instruction components: opcode=0000011, func3=010, func7=0000001, rd=x15, rs1=x2, rs2=x12, imm=44
1000050:  	02c12783    	LW     x15, 44(x2)

TB: current instruction components: opcode=0010011, func3=001, func7=0000000, rd=x15, rs1=x15, rs2=x2, imm=44
1000054:  	00279793    	SLLI   x15, x15, 0xzz

TB: current instruction components: opcode=0010011, func3=000, func7=0000001, rd=x14, rs1=x2, rs2=x16, imm=48
1000058:  	03010713    	ADDI   x14, x2, 48

TB: current instruction components: opcode=0110011, func3=000, func7=0000000, rd=x15, rs1=x14, rs2=x15, imm=48
100005c:  	00f707b3    	ADD    x15, x14, x15

TB: current instruction components: opcode=0000011, func3=010, func7=1111110, rd=x15, rs1=x15, rs2=x16, imm=-48
1000060:  	fd07a783    	LW     x15, -48(x15)

TB: current instruction components: opcode=0000011, func3=010, func7=0000001, rd=x14, rs1=x2, rs2=x8, imm=40
1000064:  	02812703    	LW     x14, 40(x2)

TB: current instruction components: opcode=0110011, func3=000, func7=0000000, rd=x15, rs1=x14, rs2=x15, imm=40
1000068:  	00f707b3    	ADD    x15, x14, x15

TB: current instruction components: opcode=0100011, func3=010, func7=0000001, rd=x8, rs1=x2, rs2=x15, imm=40
100006c:  	02f12423    	SW     x15, 40(x2)

TB: current instruction components: opcode=0000011, func3=010, func7=0000001, rd=x15, rs1=x2, rs2=x12, imm=44
1000070:  	02c12783    	LW     x15, 44(x2)

TB: current instruction components: opcode=0010011, func3=000, func7=0000000, rd=x15, rs1=x15, rs2=x1, imm=1
1000074:  	00178793    	ADDI   x15, x15, 1

TB: current instruction components: opcode=0100011, func3=010, func7=0000001, rd=x12, rs1=x2, rs2=x15, imm=44
1000078:  	02f12623    	SW     x15, 44(x2)

TB: current instruction components: opcode=0000011, func3=010, func7=0000001, rd=x14, rs1=x2, rs2=x12, imm=44
100007c:  	02c12703    	LW     x14, 44(x2)

TB: current instruction components: opcode=0010011, func3=000, func7=0000000, rd=x15, rs1=x0, rs2=x9, imm=9
1000080:  	00900793    	ADDI   x15, x0, 9

TB: current instruction components: opcode=1100011, func3=101, func7=1111110, rd=x13, rs1=x15, rs2=x14, imm=-52
1000084:  	fce7d6e3    	BGE    x15, x14, 1000050

TB: current instruction components: opcode=0000011, func3=010, func7=0000001, rd=x10, rs1=x2, rs2=x8, imm=40
1000088:  	02812503    	LW     x10, 40(x2)

TB: current instruction components: opcode=1101111, func3=000, func7=0000000, rd=x1, rs1=x0, rs2=x24, imm=24
100008c:  	018000ef    	JAL    x1, 10000a4

TB: current instruction components: opcode=0010011, func3=000, func7=0000000, rd=x15, rs1=x10, rs2=x0, imm=0
1000090:  	00050793    	ADDI   x15, x10, 0

TB: current instruction components: opcode=0010011, func3=000, func7=0000000, rd=x10, rs1=x15, rs2=x0, imm=0
1000094:  	00078513    	ADDI   x10, x15, 0

TB: current instruction components: opcode=0000011, func3=010, func7=0000001, rd=x1, rs1=x2, rs2=x28, imm=60
1000098:  	03c12083    	LW     x1, 60(x2)

TB: current instruction components: opcode=0010011, func3=000, func7=0000010, rd=x2, rs1=x2, rs2=x0, imm=64
100009c:  	04010113    	ADDI   x2, x2, 64

TB: current instruction components: opcode=1100111, func3=000, func7=0000000, rd=x0, rs1=x1, rs2=x0, imm=0
10000a0:  	00008067    	JALR   x0, 0(x1)

TB: current instruction components: opcode=0010011, func3=000, func7=1111111, rd=x2, rs1=x2, rs2=x0, imm=-32
10000a4:  	fe010113    	ADDI   x2, x2, -32

TB: current instruction components: opcode=0100011, func3=010, func7=0000000, rd=x28, rs1=x2, rs2=x1, imm=28
10000a8:  	00112e23    	SW     x1, 28(x2)

TB: current instruction components: opcode=0100011, func3=010, func7=0000000, rd=x12, rs1=x2, rs2=x10, imm=12
10000ac:  	00a12623    	SW     x10, 12(x2)

TB: current instruction components: opcode=0000011, func3=010, func7=0000000, rd=x14, rs1=x2, rs2=x12, imm=12
10000b0:  	00c12703    	LW     x14, 12(x2)

TB: current instruction components: opcode=0010011, func3=000, func7=0000001, rd=x15, rs1=x0, rs2=x13, imm=45
10000b4:  	02d00793    	ADDI   x15, x0, 45

TB: current instruction components: opcode=1100011, func3=001, func7=0000000, rd=x16, rs1=x14, rs2=x15, imm=16
10000b8:  	00f71863    	BNE    x14, x15, 10000c8

TB: current instruction components: opcode=1101111, func3=000, func7=0000001, rd=x1, rs1=x0, rs2=x4, imm=36
10000bc:  	024000ef    	JAL    x1, 10000e0

TB: current instruction components: opcode=0010011, func3=000, func7=0000000, rd=x15, rs1=x10, rs2=x0, imm=0
10000c0:  	00050793    	ADDI   x15, x10, 0

TB: current instruction components: opcode=1101111, func3=000, func7=0000000, rd=x0, rs1=x0, rs2=x12, imm=12
10000c4:  	00c0006f    	JAL    x0, 10000d0

TB: current instruction components: opcode=1101111, func3=000, func7=0000001, rd=x1, rs1=x0, rs2=x4, imm=36
10000c8:  	024000ef    	JAL    x1, 10000ec

TB: current instruction components: opcode=0010011, func3=000, func7=0000000, rd=x15, rs1=x10, rs2=x0, imm=0
10000cc:  	00050793    	ADDI   x15, x10, 0

TB: current instruction components: opcode=0010011, func3=000, func7=0000000, rd=x10, rs1=x15, rs2=x0, imm=0
10000d0:  	00078513    	ADDI   x10, x15, 0

TB: current instruction components: opcode=0000011, func3=010, func7=0000000, rd=x1, rs1=x2, rs2=x28, imm=28
10000d4:  	01c12083    	LW     x1, 28(x2)

TB: current instruction components: opcode=0010011, func3=000, func7=0000001, rd=x2, rs1=x2, rs2=x0, imm=32
10000d8:  	02010113    	ADDI   x2, x2, 32

TB: current instruction components: opcode=1100111, func3=000, func7=0000000, rd=x0, rs1=x1, rs2=x0, imm=0
10000dc:  	00008067    	JALR   x0, 0(x1)

TB: current instruction components: opcode=0010011, func3=000, func7=0000000, rd=x15, rs1=x0, rs2=x1, imm=1
10000e0:  	00100793    	ADDI   x15, x0, 1

TB: current instruction components: opcode=0010011, func3=000, func7=0000000, rd=x10, rs1=x15, rs2=x0, imm=0
10000e4:  	00078513    	ADDI   x10, x15, 0

TB: current instruction components: opcode=1100111, func3=000, func7=0000000, rd=x0, rs1=x1, rs2=x0, imm=0
10000e8:  	00008067    	JALR   x0, 0(x1)

TB: current instruction components: opcode=0010011, func3=000, func7=0000000, rd=x15, rs1=x0, rs2=x0, imm=0
10000ec:  	00000793    	ADDI   x15, x0, 0

TB: current instruction components: opcode=0010011, func3=000, func7=0000000, rd=x10, rs1=x15, rs2=x0, imm=0
10000f0:  	00078513    	ADDI   x10, x15, 0

TB: current instruction components: opcode=1100111, func3=000, func7=0000000, rd=x0, rs1=x1, rs2=x0, imm=0
10000f4:  	00008067    	JALR   x0, 0(x1)
malformed/unimplemented opcode (0) encountered at 010000f8 

CheckVowel.x
WARNING: ./memory.v:29: $readmemh(simple_programs/SumArray.x): Not enough words in the file for the requested range [0:262143].
VCD info: dumpfile TB_fetch_decode.vcd opened for output.

TB: current instruction components: opcode=xxxxxxx, func3=xxx, func7=xxxxxxx, rd=xx, rs1=xx, rs2=xx, imm=x
xxxxxxxx:  	xxxxxxxx    	 error

TB: current instruction components: opcode=0010011, func3=000, func7=1111110, rd=x2, rs1=x2, rs2=x0, imm=-64
1000000:  	fc010113    	ADDI   x2, x2, -64

TB: current instruction components: opcode=0100011, func3=010, func7=0000001, rd=x28, rs1=x2, rs2=x1, imm=60
1000004:  	02112e23    	SW     x1, 60(x2)

TB: current instruction components: opcode=0100011, func3=010, func7=0000001, rd=x12, rs1=x2, rs2=x0, imm=44
1000008:  	02012623    	SW     x0, 44(x2)

TB: current instruction components: opcode=0100011, func3=010, func7=0000001, rd=x8, rs1=x2, rs2=x0, imm=40
100000c:  	02012423    	SW     x0, 40(x2)

TB: current instruction components: opcode=0100011, func3=010, func7=0000001, rd=x12, rs1=x2, rs2=x0, imm=44
1000010:  	02012623    	SW     x0, 44(x2)

TB: current instruction components: opcode=1101111, func3=000, func7=0000001, rd=x0, rs1=x0, rs2=x8, imm=40
1000014:  	0280006f    	JAL    x0, 100003c

TB: current instruction components: opcode=0000011, func3=010, func7=0000001, rd=x15, rs1=x2, rs2=x12, imm=44
1000018:  	02c12783    	LW     x15, 44(x2)

TB: current instruction components: opcode=0010011, func3=001, func7=0000000, rd=x15, rs1=x15, rs2=x2, imm=44
100001c:  	00279793    	SLLI   x15, x15, 0xzz

TB: current instruction components: opcode=0010011, func3=000, func7=0000001, rd=x14, rs1=x2, rs2=x16, imm=48
1000020:  	03010713    	ADDI   x14, x2, 48

TB: current instruction components: opcode=0110011, func3=000, func7=0000000, rd=x15, rs1=x14, rs2=x15, imm=48
1000024:  	00f707b3    	ADD    x15, x14, x15

TB: current instruction components: opcode=0000011, func3=010, func7=0000001, rd=x14, rs1=x2, rs2=x12, imm=44
1000028:  	02c12703    	LW     x14, 44(x2)

TB: current instruction components: opcode=0100011, func3=010, func7=1111110, rd=x16, rs1=x15, rs2=x14, imm=-48
100002c:  	fce7a823    	SW     x14, -48(x15)

TB: current instruction components: opcode=0000011, func3=010, func7=0000001, rd=x15, rs1=x2, rs2=x12, imm=44
1000030:  	02c12783    	LW     x15, 44(x2)

TB: current instruction components: opcode=0010011, func3=000, func7=0000000, rd=x15, rs1=x15, rs2=x1, imm=1
1000034:  	00178793    	ADDI   x15, x15, 1

TB: current instruction components: opcode=0100011, func3=010, func7=0000001, rd=x12, rs1=x2, rs2=x15, imm=44
1000038:  	02f12623    	SW     x15, 44(x2)

TB: current instruction components: opcode=0000011, func3=010, func7=0000001, rd=x14, rs1=x2, rs2=x12, imm=44
100003c:  	02c12703    	LW     x14, 44(x2)

TB: current instruction components: opcode=0010011, func3=000, func7=0000000, rd=x15, rs1=x0, rs2=x9, imm=9
1000040:  	00900793    	ADDI   x15, x0, 9

TB: current instruction components: opcode=1100011, func3=101, func7=1111110, rd=x21, rs1=x15, rs2=x14, imm=-44
1000044:  	fce7dae3    	BGE    x15, x14, 1000018

TB: current instruction components: opcode=0100011, func3=010, func7=0000001, rd=x12, rs1=x2, rs2=x0, imm=44
1000048:  	02012623    	SW     x0, 44(x2)

TB: current instruction components: opcode=1101111, func3=000, func7=0000001, rd=x0, rs1=x0, rs2=x16, imm=48
100004c:  	0300006f    	JAL    x0, 100007c

TB: current instruction components: opcode=0000011, func3=010, func7=0000001, rd=x15, rs1=x2, rs2=x12, imm=44
1000050:  	02c12783    	LW     x15, 44(x2)

TB: current instruction components: opcode=0010011, func3=001, func7=0000000, rd=x15, rs1=x15, rs2=x2, imm=44
1000054:  	00279793    	SLLI   x15, x15, 0xzz

TB: current instruction components: opcode=0010011, func3=000, func7=0000001, rd=x14, rs1=x2, rs2=x16, imm=48
1000058:  	03010713    	ADDI   x14, x2, 48

TB: current instruction components: opcode=0110011, func3=000, func7=0000000, rd=x15, rs1=x14, rs2=x15, imm=48
100005c:  	00f707b3    	ADD    x15, x14, x15

TB: current instruction components: opcode=0000011, func3=010, func7=1111110, rd=x15, rs1=x15, rs2=x16, imm=-48
1000060:  	fd07a783    	LW     x15, -48(x15)

TB: current instruction components: opcode=0000011, func3=010, func7=0000001, rd=x14, rs1=x2, rs2=x8, imm=40
1000064:  	02812703    	LW     x14, 40(x2)

TB: current instruction components: opcode=0110011, func3=000, func7=0000000, rd=x15, rs1=x14, rs2=x15, imm=40
1000068:  	00f707b3    	ADD    x15, x14, x15

TB: current instruction components: opcode=0100011, func3=010, func7=0000001, rd=x8, rs1=x2, rs2=x15, imm=40
100006c:  	02f12423    	SW     x15, 40(x2)

TB: current instruction components: opcode=0000011, func3=010, func7=0000001, rd=x15, rs1=x2, rs2=x12, imm=44
1000070:  	02c12783    	LW     x15, 44(x2)

TB: current instruction components: opcode=0010011, func3=000, func7=0000000, rd=x15, rs1=x15, rs2=x1, imm=1
1000074:  	00178793    	ADDI   x15, x15, 1

TB: current instruction components: opcode=0100011, func3=010, func7=0000001, rd=x12, rs1=x2, rs2=x15, imm=44
1000078:  	02f12623    	SW     x15, 44(x2)

TB: current instruction components: opcode=0000011, func3=010, func7=0000001, rd=x14, rs1=x2, rs2=x12, imm=44
100007c:  	02c12703    	LW     x14, 44(x2)

TB: current instruction components: opcode=0010011, func3=000, func7=0000000, rd=x15, rs1=x0, rs2=x9, imm=9
1000080:  	00900793    	ADDI   x15, x0, 9

TB: current instruction components: opcode=1100011, func3=101, func7=1111110, rd=x13, rs1=x15, rs2=x14, imm=-52
1000084:  	fce7d6e3    	BGE    x15, x14, 1000050

TB: current instruction components: opcode=0000011, func3=010, func7=0000001, rd=x10, rs1=x2, rs2=x8, imm=40
1000088:  	02812503    	LW     x10, 40(x2)

TB: current instruction components: opcode=1101111, func3=000, func7=0000000, rd=x1, rs1=x0, rs2=x24, imm=24
100008c:  	018000ef    	JAL    x1, 10000a4

TB: current instruction components: opcode=0010011, func3=000, func7=0000000, rd=x15, rs1=x10, rs2=x0, imm=0
1000090:  	00050793    	ADDI   x15, x10, 0

TB: current instruction components: opcode=0010011, func3=000, func7=0000000, rd=x10, rs1=x15, rs2=x0, imm=0
1000094:  	00078513    	ADDI   x10, x15, 0

TB: current instruction components: opcode=0000011, func3=010, func7=0000001, rd=x1, rs1=x2, rs2=x28, imm=60
1000098:  	03c12083    	LW     x1, 60(x2)

TB: current instruction components: opcode=0010011, func3=000, func7=0000010, rd=x2, rs1=x2, rs2=x0, imm=64
100009c:  	04010113    	ADDI   x2, x2, 64

TB: current instruction components: opcode=1100111, func3=000, func7=0000000, rd=x0, rs1=x1, rs2=x0, imm=0
10000a0:  	00008067    	JALR   x0, 0(x1)

TB: current instruction components: opcode=0010011, func3=000, func7=1111111, rd=x2, rs1=x2, rs2=x0, imm=-32
10000a4:  	fe010113    	ADDI   x2, x2, -32

TB: current instruction components: opcode=0100011, func3=010, func7=0000000, rd=x28, rs1=x2, rs2=x1, imm=28
10000a8:  	00112e23    	SW     x1, 28(x2)

TB: current instruction components: opcode=0100011, func3=010, func7=0000000, rd=x12, rs1=x2, rs2=x10, imm=12
10000ac:  	00a12623    	SW     x10, 12(x2)

TB: current instruction components: opcode=0000011, func3=010, func7=0000000, rd=x14, rs1=x2, rs2=x12, imm=12
10000b0:  	00c12703    	LW     x14, 12(x2)

TB: current instruction components: opcode=0010011, func3=000, func7=0000001, rd=x15, rs1=x0, rs2=x13, imm=45
10000b4:  	02d00793    	ADDI   x15, x0, 45

TB: current instruction components: opcode=1100011, func3=001, func7=0000000, rd=x16, rs1=x14, rs2=x15, imm=16
10000b8:  	00f71863    	BNE    x14, x15, 10000c8

TB: current instruction components: opcode=1101111, func3=000, func7=0000001, rd=x1, rs1=x0, rs2=x4, imm=36
10000bc:  	024000ef    	JAL    x1, 10000e0

TB: current instruction components: opcode=0010011, func3=000, func7=0000000, rd=x15, rs1=x10, rs2=x0, imm=0
10000c0:  	00050793    	ADDI   x15, x10, 0

TB: current instruction components: opcode=1101111, func3=000, func7=0000000, rd=x0, rs1=x0, rs2=x12, imm=12
10000c4:  	00c0006f    	JAL    x0, 10000d0

TB: current instruction components: opcode=1101111, func3=000, func7=0000001, rd=x1, rs1=x0, rs2=x4, imm=36
10000c8:  	024000ef    	JAL    x1, 10000ec

TB: current instruction components: opcode=0010011, func3=000, func7=0000000, rd=x15, rs1=x10, rs2=x0, imm=0
10000cc:  	00050793    	ADDI   x15, x10, 0

TB: current instruction components: opcode=0010011, func3=000, func7=0000000, rd=x10, rs1=x15, rs2=x0, imm=0
10000d0:  	00078513    	ADDI   x10, x15, 0

TB: current instruction components: opcode=0000011, func3=010, func7=0000000, rd=x1, rs1=x2, rs2=x28, imm=28
10000d4:  	01c12083    	LW     x1, 28(x2)

TB: current instruction components: opcode=0010011, func3=000, func7=0000001, rd=x2, rs1=x2, rs2=x0, imm=32
10000d8:  	02010113    	ADDI   x2, x2, 32

TB: current instruction components: opcode=1100111, func3=000, func7=0000000, rd=x0, rs1=x1, rs2=x0, imm=0
10000dc:  	00008067    	JALR   x0, 0(x1)

TB: current instruction components: opcode=0010011, func3=000, func7=0000000, rd=x15, rs1=x0, rs2=x1, imm=1
10000e0:  	00100793    	ADDI   x15, x0, 1

TB: current instruction components: opcode=0010011, func3=000, func7=0000000, rd=x10, rs1=x15, rs2=x0, imm=0
10000e4:  	00078513    	ADDI   x10, x15, 0

TB: current instruction components: opcode=1100111, func3=000, func7=0000000, rd=x0, rs1=x1, rs2=x0, imm=0
10000e8:  	00008067    	JALR   x0, 0(x1)

TB: current instruction components: opcode=0010011, func3=000, func7=0000000, rd=x15, rs1=x0, rs2=x0, imm=0
10000ec:  	00000793    	ADDI   x15, x0, 0

TB: current instruction components: opcode=0010011, func3=000, func7=0000000, rd=x10, rs1=x15, rs2=x0, imm=0
10000f0:  	00078513    	ADDI   x10, x15, 0

TB: current instruction components: opcode=1100111, func3=000, func7=0000000, rd=x0, rs1=x1, rs2=x0, imm=0
10000f4:  	00008067    	JALR   x0, 0(x1)
malformed/unimplemented opcode (0) encountered at 010000f8 

Fibonacci.x
WARNING: ./memory.v:29: $readmemh(simple_programs/SumArray.x): Not enough words in the file for the requested range [0:262143].
VCD info: dumpfile TB_fetch_decode.vcd opened for output.

TB: current instruction components: opcode=xxxxxxx, func3=xxx, func7=xxxxxxx, rd=xx, rs1=xx, rs2=xx, imm=x
xxxxxxxx:  	xxxxxxxx    	 error

TB: current instruction components: opcode=0010011, func3=000, func7=1111110, rd=x2, rs1=x2, rs2=x0, imm=-64
1000000:  	fc010113    	ADDI   x2, x2, -64

TB: current instruction components: opcode=0100011, func3=010, func7=0000001, rd=x28, rs1=x2, rs2=x1, imm=60
1000004:  	02112e23    	SW     x1, 60(x2)

TB: current instruction components: opcode=0100011, func3=010, func7=0000001, rd=x12, rs1=x2, rs2=x0, imm=44
1000008:  	02012623    	SW     x0, 44(x2)

TB: current instruction components: opcode=0100011, func3=010, func7=0000001, rd=x8, rs1=x2, rs2=x0, imm=40
100000c:  	02012423    	SW     x0, 40(x2)

TB: current instruction components: opcode=0100011, func3=010, func7=0000001, rd=x12, rs1=x2, rs2=x0, imm=44
1000010:  	02012623    	SW     x0, 44(x2)

TB: current instruction components: opcode=1101111, func3=000, func7=0000001, rd=x0, rs1=x0, rs2=x8, imm=40
1000014:  	0280006f    	JAL    x0, 100003c

TB: current instruction components: opcode=0000011, func3=010, func7=0000001, rd=x15, rs1=x2, rs2=x12, imm=44
1000018:  	02c12783    	LW     x15, 44(x2)

TB: current instruction components: opcode=0010011, func3=001, func7=0000000, rd=x15, rs1=x15, rs2=x2, imm=44
100001c:  	00279793    	SLLI   x15, x15, 0xzz

TB: current instruction components: opcode=0010011, func3=000, func7=0000001, rd=x14, rs1=x2, rs2=x16, imm=48
1000020:  	03010713    	ADDI   x14, x2, 48

TB: current instruction components: opcode=0110011, func3=000, func7=0000000, rd=x15, rs1=x14, rs2=x15, imm=48
1000024:  	00f707b3    	ADD    x15, x14, x15

TB: current instruction components: opcode=0000011, func3=010, func7=0000001, rd=x14, rs1=x2, rs2=x12, imm=44
1000028:  	02c12703    	LW     x14, 44(x2)

TB: current instruction components: opcode=0100011, func3=010, func7=1111110, rd=x16, rs1=x15, rs2=x14, imm=-48
100002c:  	fce7a823    	SW     x14, -48(x15)

TB: current instruction components: opcode=0000011, func3=010, func7=0000001, rd=x15, rs1=x2, rs2=x12, imm=44
1000030:  	02c12783    	LW     x15, 44(x2)

TB: current instruction components: opcode=0010011, func3=000, func7=0000000, rd=x15, rs1=x15, rs2=x1, imm=1
1000034:  	00178793    	ADDI   x15, x15, 1

TB: current instruction components: opcode=0100011, func3=010, func7=0000001, rd=x12, rs1=x2, rs2=x15, imm=44
1000038:  	02f12623    	SW     x15, 44(x2)

TB: current instruction components: opcode=0000011, func3=010, func7=0000001, rd=x14, rs1=x2, rs2=x12, imm=44
100003c:  	02c12703    	LW     x14, 44(x2)

TB: current instruction components: opcode=0010011, func3=000, func7=0000000, rd=x15, rs1=x0, rs2=x9, imm=9
1000040:  	00900793    	ADDI   x15, x0, 9

TB: current instruction components: opcode=1100011, func3=101, func7=1111110, rd=x21, rs1=x15, rs2=x14, imm=-44
1000044:  	fce7dae3    	BGE    x15, x14, 1000018

TB: current instruction components: opcode=0100011, func3=010, func7=0000001, rd=x12, rs1=x2, rs2=x0, imm=44
1000048:  	02012623    	SW     x0, 44(x2)

TB: current instruction components: opcode=1101111, func3=000, func7=0000001, rd=x0, rs1=x0, rs2=x16, imm=48
100004c:  	0300006f    	JAL    x0, 100007c

TB: current instruction components: opcode=0000011, func3=010, func7=0000001, rd=x15, rs1=x2, rs2=x12, imm=44
1000050:  	02c12783    	LW     x15, 44(x2)

TB: current instruction components: opcode=0010011, func3=001, func7=0000000, rd=x15, rs1=x15, rs2=x2, imm=44
1000054:  	00279793    	SLLI   x15, x15, 0xzz

TB: current instruction components: opcode=0010011, func3=000, func7=0000001, rd=x14, rs1=x2, rs2=x16, imm=48
1000058:  	03010713    	ADDI   x14, x2, 48

TB: current instruction components: opcode=0110011, func3=000, func7=0000000, rd=x15, rs1=x14, rs2=x15, imm=48
100005c:  	00f707b3    	ADD    x15, x14, x15

TB: current instruction components: opcode=0000011, func3=010, func7=1111110, rd=x15, rs1=x15, rs2=x16, imm=-48
1000060:  	fd07a783    	LW     x15, -48(x15)

TB: current instruction components: opcode=0000011, func3=010, func7=0000001, rd=x14, rs1=x2, rs2=x8, imm=40
1000064:  	02812703    	LW     x14, 40(x2)

TB: current instruction components: opcode=0110011, func3=000, func7=0000000, rd=x15, rs1=x14, rs2=x15, imm=40
1000068:  	00f707b3    	ADD    x15, x14, x15

TB: current instruction components: opcode=0100011, func3=010, func7=0000001, rd=x8, rs1=x2, rs2=x15, imm=40
100006c:  	02f12423    	SW     x15, 40(x2)

TB: current instruction components: opcode=0000011, func3=010, func7=0000001, rd=x15, rs1=x2, rs2=x12, imm=44
1000070:  	02c12783    	LW     x15, 44(x2)

TB: current instruction components: opcode=0010011, func3=000, func7=0000000, rd=x15, rs1=x15, rs2=x1, imm=1
1000074:  	00178793    	ADDI   x15, x15, 1

TB: current instruction components: opcode=0100011, func3=010, func7=0000001, rd=x12, rs1=x2, rs2=x15, imm=44
1000078:  	02f12623    	SW     x15, 44(x2)

TB: current instruction components: opcode=0000011, func3=010, func7=0000001, rd=x14, rs1=x2, rs2=x12, imm=44
100007c:  	02c12703    	LW     x14, 44(x2)

TB: current instruction components: opcode=0010011, func3=000, func7=0000000, rd=x15, rs1=x0, rs2=x9, imm=9
1000080:  	00900793    	ADDI   x15, x0, 9

TB: current instruction components: opcode=1100011, func3=101, func7=1111110, rd=x13, rs1=x15, rs2=x14, imm=-52
1000084:  	fce7d6e3    	BGE    x15, x14, 1000050

TB: current instruction components: opcode=0000011, func3=010, func7=0000001, rd=x10, rs1=x2, rs2=x8, imm=40
1000088:  	02812503    	LW     x10, 40(x2)

TB: current instruction components: opcode=1101111, func3=000, func7=0000000, rd=x1, rs1=x0, rs2=x24, imm=24
100008c:  	018000ef    	JAL    x1, 10000a4

TB: current instruction components: opcode=0010011, func3=000, func7=0000000, rd=x15, rs1=x10, rs2=x0, imm=0
1000090:  	00050793    	ADDI   x15, x10, 0

TB: current instruction components: opcode=0010011, func3=000, func7=0000000, rd=x10, rs1=x15, rs2=x0, imm=0
1000094:  	00078513    	ADDI   x10, x15, 0

TB: current instruction components: opcode=0000011, func3=010, func7=0000001, rd=x1, rs1=x2, rs2=x28, imm=60
1000098:  	03c12083    	LW     x1, 60(x2)

TB: current instruction components: opcode=0010011, func3=000, func7=0000010, rd=x2, rs1=x2, rs2=x0, imm=64
100009c:  	04010113    	ADDI   x2, x2, 64

TB: current instruction components: opcode=1100111, func3=000, func7=0000000, rd=x0, rs1=x1, rs2=x0, imm=0
10000a0:  	00008067    	JALR   x0, 0(x1)

TB: current instruction components: opcode=0010011, func3=000, func7=1111111, rd=x2, rs1=x2, rs2=x0, imm=-32
10000a4:  	fe010113    	ADDI   x2, x2, -32

TB: current instruction components: opcode=0100011, func3=010, func7=0000000, rd=x28, rs1=x2, rs2=x1, imm=28
10000a8:  	00112e23    	SW     x1, 28(x2)

TB: current instruction components: opcode=0100011, func3=010, func7=0000000, rd=x12, rs1=x2, rs2=x10, imm=12
10000ac:  	00a12623    	SW     x10, 12(x2)

TB: current instruction components: opcode=0000011, func3=010, func7=0000000, rd=x14, rs1=x2, rs2=x12, imm=12
10000b0:  	00c12703    	LW     x14, 12(x2)

TB: current instruction components: opcode=0010011, func3=000, func7=0000001, rd=x15, rs1=x0, rs2=x13, imm=45
10000b4:  	02d00793    	ADDI   x15, x0, 45

TB: current instruction components: opcode=1100011, func3=001, func7=0000000, rd=x16, rs1=x14, rs2=x15, imm=16
10000b8:  	00f71863    	BNE    x14, x15, 10000c8

TB: current instruction components: opcode=1101111, func3=000, func7=0000001, rd=x1, rs1=x0, rs2=x4, imm=36
10000bc:  	024000ef    	JAL    x1, 10000e0

TB: current instruction components: opcode=0010011, func3=000, func7=0000000, rd=x15, rs1=x10, rs2=x0, imm=0
10000c0:  	00050793    	ADDI   x15, x10, 0

TB: current instruction components: opcode=1101111, func3=000, func7=0000000, rd=x0, rs1=x0, rs2=x12, imm=12
10000c4:  	00c0006f    	JAL    x0, 10000d0

TB: current instruction components: opcode=1101111, func3=000, func7=0000001, rd=x1, rs1=x0, rs2=x4, imm=36
10000c8:  	024000ef    	JAL    x1, 10000ec

TB: current instruction components: opcode=0010011, func3=000, func7=0000000, rd=x15, rs1=x10, rs2=x0, imm=0
10000cc:  	00050793    	ADDI   x15, x10, 0

TB: current instruction components: opcode=0010011, func3=000, func7=0000000, rd=x10, rs1=x15, rs2=x0, imm=0
10000d0:  	00078513    	ADDI   x10, x15, 0

TB: current instruction components: opcode=0000011, func3=010, func7=0000000, rd=x1, rs1=x2, rs2=x28, imm=28
10000d4:  	01c12083    	LW     x1, 28(x2)

TB: current instruction components: opcode=0010011, func3=000, func7=0000001, rd=x2, rs1=x2, rs2=x0, imm=32
10000d8:  	02010113    	ADDI   x2, x2, 32

TB: current instruction components: opcode=1100111, func3=000, func7=0000000, rd=x0, rs1=x1, rs2=x0, imm=0
10000dc:  	00008067    	JALR   x0, 0(x1)

