PD5/testbench.vcd
$date
	Tue Jul 14 23:56:50 2020
$end
$version
	Icarus Verilog
$end
$timescale
	1s
$end
$scope module dut $end
$var wire 32 ! wb_w [31:0] $end
$var wire 32 " wb_m [31:0] $end
$var wire 32 # rs2_x [31:0] $end
$var wire 32 $ inst_x [31:0] $end
$var wire 32 % inst_w [31:0] $end
$var wire 32 & inst_m [31:0] $end
$var wire 32 ' inst_f [31:0] $end
$var wire 32 ( inst_d [31:0] $end
$var wire 32 ) data_rs2 [31:0] $end
$var wire 32 * data_rs1 [31:0] $end
$var wire 32 + alu_x [31:0] $end
$var wire 5 , addr_rs2 [4:0] $end
$var wire 5 - addr_rs1 [4:0] $end
$var wire 5 . addr_rd [4:0] $end
$var wire 1 / RegWE $end
$var wire 32 0 PC_x [31:0] $end
$var wire 32 1 PC_f [31:0] $end
$var wire 32 2 PC_d [31:0] $end
$var wire 1 3 PCSel $end
$var reg 1 4 clk $end
$scope module PCMux $end
$var wire 1 4 clk $end
$var wire 32 5 alu_x [31:0] $end
$var wire 1 3 PCSel $end
$var reg 32 6 PC_f [31:0] $end
$upscope $end
$scope module WB $end
$var wire 1 4 clk $end
$var wire 32 7 wb_m [31:0] $end
$var wire 7 8 opcode [6:0] $end
$var wire 32 9 inst_m [31:0] $end
$var wire 5 : addr_rd [4:0] $end
$var wire 1 / RegWE $end
$var reg 32 ; inst_w [31:0] $end
$var reg 32 < wb_w [31:0] $end
$upscope $end
$scope module execute $end
$var wire 32 = PC_x [31:0] $end
$var wire 1 4 clk $end
$var wire 32 > inst_x [31:0] $end
$var wire 32 ? rs1 [31:0] $end
$var wire 32 @ rs2 [31:0] $end
$var wire 32 A rs2_x [31:0] $end
$var wire 1 B write_data $end
$var wire 32 C rs2_d [31:0] $end
$var wire 32 D rs1_d [31:0] $end
$var wire 7 E opcode [6:0] $end
$var wire 32 F inst_d [31:0] $end
$var wire 7 G funct7 [6:0] $end
$var wire 3 H funct3 [2:0] $end
$var wire 32 I alu_x [31:0] $end
$var wire 32 J PC_d [31:0] $end
$var wire 1 K BrUn $end
$var wire 1 L BrLt $end
$var wire 1 M BrEq $end
$var wire 1 N BSel $end
$var wire 1 O ASel $end
$var wire 32 P ALU_in2 [31:0] $end
$var wire 32 Q ALU_in1 [31:0] $end
$var reg 4 R ALUSel [3:0] $end
$var reg 1 3 PCSel $end
$var reg 32 S imm [31:0] $end
$scope module alu1 $end
$var wire 4 T ALUsel [3:0] $end
$var wire 32 U rs1 [31:0] $end
$var wire 32 V rs2 [31:0] $end
$var reg 32 W alu_res [31:0] $end
$upscope $end
$scope task decode_bType $end
$upscope $end
$scope task decode_iType $end
$upscope $end
$scope task decode_jType $end
$upscope $end
$scope task decode_rType $end
$upscope $end
$scope task decode_sType $end
$upscope $end
$scope task decode_uType $end
$upscope $end
$upscope $end
$scope module fd1 $end
$var wire 32 X PC_f [31:0] $end
$var wire 1 4 clk $end
$var wire 32 Y inst_f [31:0] $end
$var wire 5 Z addr_rs2 [4:0] $end
$var wire 5 [ addr_rs1 [4:0] $end
$var reg 32 \ PC_d [31:0] $end
$var reg 32 ] inst_d [31:0] $end
$upscope $end
$scope module i_mem $end
$var wire 1 ^ RdUn $end
$var wire 2 _ access_size [1:0] $end
$var wire 32 ` address [31:0] $end
$var wire 1 4 clk $end
$var wire 32 a data_in [31:0] $end
$var wire 1 b w_enable $end
$var reg 32 c data_out [31:0] $end
$var reg 32 d relevant_addr [31:0] $end
$var reg 32 e t_reg [31:0] $end
$var integer 32 f i [31:0] $end
$upscope $end
$scope module mem_stage $end
$var wire 32 g PC_x [31:0] $end
$var wire 32 h alu_x [31:0] $end
$var wire 1 4 clk $end
$var wire 32 i inst_x [31:0] $end
$var wire 32 j rs2_x [31:0] $end
$var wire 7 k opcode [6:0] $end
$var wire 1 l funct7 $end
$var wire 3 m funct3 [2:0] $end
$var wire 32 n d_mem_out [31:0] $end
$var wire 1 o WEn $end
$var wire 1 p RdUn $end
$var reg 32 q PC_m [31:0] $end
$var reg 2 r access_size [1:0] $end
$var reg 32 s alu_m [31:0] $end
$var reg 32 t inst_m [31:0] $end
$var reg 32 u rs2_m [31:0] $end
$var reg 32 v wb_m [31:0] $end
$scope module d_mem $end
$var wire 1 p RdUn $end
$var wire 2 w access_size [1:0] $end
$var wire 32 x address [31:0] $end
$var wire 1 4 clk $end
$var wire 32 y data_in [31:0] $end
$var wire 1 o w_enable $end
$var reg 32 z data_out [31:0] $end
$var reg 32 { relevant_addr [31:0] $end
$var reg 32 | t_reg [31:0] $end
$var integer 32 } i [31:0] $end
$upscope $end
$upscope $end
$scope module reg_file $end
$var wire 5 ~ addr_rd [4:0] $end
$var wire 5 !" addr_rs1 [4:0] $end
$var wire 5 "" addr_rs2 [4:0] $end
$var wire 1 4 clk $end
$var wire 32 #" data_rd [31:0] $end
$var wire 32 $" data_rs1 [31:0] $end
$var wire 32 %" data_rs2 [31:0] $end
$var wire 1 / write_enable $end
$var reg 32 &" reg2 [31:0] $end
$var integer 32 '" i [31:0] $end
$upscope $end
$upscope $end
$enddefinitions $end
#0
$dumpvars
b100000 '"
b1000000010001000100010001 &"
b0 %"
b0 $"
b0 #"
b0 ""
b0 !"
b1 ~
b100000000000000000001 }
bx |
b1000000000000000001000100 {
b10111010110110111010110111111111 z
b0 y
b0 x
b0 w
b0 v
b0 u
b10010011 t
b0 s
b0 r
b1000000000000000000000000 q
0p
0o
b10111010110110111010110111111111 n
b0 m
0l
b10011 k
b0 j
b10010011 i
b0 h
b1000000000000000000000000 g
b100000000000000000001 f
bx e
b1000000000000000001000100 d
b10010011 c
0b
b0 a
b1000000000000000000000000 `
b10 _
0^
b10010011 ]
b1000000000000000000000000 \
b0 [
b0 Z
b10010011 Y
b1000000000000000000000000 X
b0 W
b0 V
b0 U
b0 T
b0 S
b0 R
b0 Q
b0 P
1O
0N
1M
0L
0K
b1000000000000000000000000 J
b0 I
b0 H
b0 G
b10010011 F
b10011 E
b0 D
b0 C
0B
b0 A
b0 @
b0 ?
b10010011 >
b1000000000000000000000000 =
b0 <
b10010011 ;
b1 :
b10010011 9
b10011 8
b0 7
b1000000000000000000000000 6
b0 5
04
03
b1000000000000000000000000 2
b1000000000000000000000000 1
b1000000000000000000000000 0
1/
b1 .
b0 -
b0 ,
b0 +
b0 *
b0 )
b10010011 (
b10010011 '
b10010011 &
b10010011 %
b10010011 $
b0 #
b0 "
b0 !
$end
#5
b10 .
b10 :
b10 ~
b100010011 %
b100010011 ;
b100010011 &
b100010011 9
b100010011 t
b1000000000000000000000100 q
b100010011 $
b100010011 >
b100010011 i
b100010011 (
b100010011 F
b100010011 ]
b1000000000000000000000100 0
b1000000000000000000000100 =
b1000000000000000000000100 g
b1000000000000000000000100 2
b1000000000000000000000100 J
b1000000000000000000000100 \
b100010011 '
b100010011 Y
b100010011 c
b1000000000000000000000100 1
b1000000000000000000000100 6
b1000000000000000000000100 X
b1000000000000000000000100 `
14
#10
04
#15
b11110 .
b11110 :
b11110 ~
b110011 8
b1000001000111100110011 %
b1000001000111100110011 ;
b110011 k
b10 S
b1000001000111100110011 &
b1000001000111100110011 9
b1000001000111100110011 t
1N
b1 -
b1 [
b1 !"
b10 ,
b10 Z
b10 ""
b110011 E
b1000000000000000000001000 q
b1000001000111100110011 $
b1000001000111100110011 >
b1000001000111100110011 i
b1000001000111100110011 (
b1000001000111100110011 F
b1000001000111100110011 ]
b0 &"
b1000000000000000000001000 0
b1000000000000000000001000 =
b1000000000000000000001000 g
b1000000000000000000001000 2
b1000000000000000000001000 J
b1000000000000000000001000 \
b1000001000111100110011 '
b1000001000111100110011 Y
b1000001000111100110011 c
b1000000000000000000001000 1
b1000000000000000000001000 6
b1000000000000000000001000 X
b1000000000000000000001000 `
14
#20
04
#25
b11101 .
b11101 :
b11101 ~
b10011 8
b111010010011 %
b111010010011 ;
b10011 k
b111010010011 &
b111010010011 9
b111010010011 t
0N
b0 -
b0 [
b0 !"
b0 ,
b0 Z
b0 ""
b0 S
b10011 E
b1000000000000000000001100 q
b111010010011 $
b111010010011 >
b111010010011 i
b111010010011 (
b111010010011 F
b111010010011 ]
b1000000000000000000001100 0
b1000000000000000000001100 =
b1000000000000000000001100 g
b1000000000000000000001100 2
b1000000000000000000001100 J
b1000000000000000000001100 \
b111010010011 '
b111010010011 Y
b111010010011 c
b1000000000000000000001100 1
b1000000000000000000001100 6
b1000000000000000000001100 X
b1000000000000000000001100 `
14
#30
04
#35
b10 !
b10 <
b10 #"
b11 .
b11 :
b11 ~
b10 "
b10 7
b10 v
b1000000000000110010011 %
b1000000000000110010011 ;
b10 s
b10 x
b1000000000000110010011 &
b1000000000000110010011 9
b1000000000000110010011 t
b10 +
b10 5
b10 I
b10 W
b10 h
b10 P
b10 V
b10 ,
b10 Z
b10 ""
b10 S
b1000000000000000000010000 q
b1000000000000110010011 $
b1000000000000110010011 >
b1000000000000110010011 i
b1000000000000110010011 (
b1000000000000110010011 F
b1000000000000110010011 ]
b1000000000000000000010000 0
b1000000000000000000010000 =
b1000000000000000000010000 g
b1000000000000000000010000 2
b1000000000000000000010000 J
b1000000000000000000010000 \
b1000000000000110010011 '
b1000000000000110010011 Y
b1000000000000110010011 c
b1000000000000000000010000 1
b1000000000000000000010000 6
b1000000000000000000010000 X
b1000000000000000000010000 `
14
#40
04
#45
b1000000000000010011100000 !
b1000000000000010011100000 <
b1000000000000010011100000 #"
0/
b1100 .
b1100 :
b1100 ~
b1100011 8
b1 r
b1 w
b1111 n
b1111 z
b1000000000000010011100000 "
b1000000000000010011100000 7
b1000000000000010011100000 v
b1001101110111110001011001100011 %
b1001101110111110001011001100011 ;
b10011001100 P
b10011001100 V
b1100011 k
b1 m
b1000000000000010011100000 s
b1000000000000010011100000 x
b10011001100 S
b1001101110111110001011001100011 &
b1001101110111110001011001100011 9
b1001101110111110001011001100011 t
b1000000000000010011100000 +
b1000000000000010011100000 5
b1000000000000010011100000 I
b1000000000000010011100000 W
b1000000000000010011100000 h
b1000000000000000000010100 Q
b1000000000000000000010100 U
0O
b11110 -
b11110 [
b11110 !"
b11101 ,
b11101 Z
b11101 ""
b1100011 E
b1 H
b100110 G
b1000000000000000000010100 q
b1001101110111110001011001100011 $
b1001101110111110001011001100011 >
b1001101110111110001011001100011 i
b1001101110111110001011001100011 (
b1001101110111110001011001100011 F
b1001101110111110001011001100011 ]
b1000000000000000000010100 0
b1000000000000000000010100 =
b1000000000000000000010100 g
b1000000000000000000010100 2
b1000000000000000000010100 J
b1000000000000000000010100 \
b1001101110111110001011001100011 '
b1001101110111110001011001100011 Y
b1001101110111110001011001100011 c
b1000000000000000000010100 1
b1000000000000000000010100 6
b1000000000000000000010100 X
b1000000000000000000010100 `
14
#50
04
#55
1/
b1 .
b1 :
b1 ~
b10011 8
b0 r
b0 w
b100000000000010010011 %
b100000000000010010011 ;
b1 !
b1 <
b1 #"
b10011 k
b0 m
b10111010110110111010110111111111 n
b10111010110110111010110111111111 z
b1 "
b1 7
b1 v
b100000000000010010011 &
b100000000000010010011 9
b100000000000010010011 t
1O
b1 P
b1 V
b0 -
b0 [
b0 !"
b1 ,
b1 Z
b1 ""
b1 S
b10011 E
b0 H
b0 G
b1 s
b1 x
b1000000000000000000011000 q
b100000000000010010011 $
b100000000000010010011 >
b100000000000010010011 i
b100000000000010010011 (
b100000000000010010011 F
b100000000000010010011 ]
b1 +
b1 5
b1 I
b1 W
b1 h
b0 Q
b0 U
b1000000000000000000011000 0
b1000000000000000000011000 =
b1000000000000000000011000 g
b1000000000000000000011000 2
b1000000000000000000011000 J
b1000000000000000000011000 \
b100000000000010010011 '
b100000000000010010011 Y
b100000000000010010011 c
b1000000000000000000011000 1
b1000000000000000000011000 6
b1000000000000000000011000 X
b1000000000000000000011000 `
14
#60
04
#65
b10 .
b10 :
b10 ~
b100000000000100010011 %
b100000000000100010011 ;
b100000000000100010011 &
b100000000000100010011 9
b100000000000100010011 t
b1000000000000000000011100 q
b100000000000100010011 $
b100000000000100010011 >
b100000000000100010011 i
b100000000000100010011 (
b100000000000100010011 F
b100000000000100010011 ]
b1000000000000000000011100 0
b1000000000000000000011100 =
b1000000000000000000011100 g
b1000000000000000000011100 2
b1000000000000000000011100 J
b1000000000000000000011100 \
b100000000000100010011 '
b100000000000100010011 Y
b100000000000100010011 c
b1 u
b1 y
1B
1L
b1000000000000000000011100 1
b1000000000000000000011100 6
b1000000000000000000011100 X
b1000000000000000000011100 `
b1 #
b1 A
b1 j
0M
b1 @
b1 )
b1 C
b1 %"
14
#70
04
#75
b10 !
b10 <
b10 #"
b11110 .
b11110 :
b11110 ~
b110011 8
b10 "
b10 7
b10 v
b1000001000111100110011 %
b1000001000111100110011 ;
b110011 k
b10 s
b10 x
b10 S
b1000001000111100110011 &
b1000001000111100110011 9
b1000001000111100110011 t
b10 +
b10 5
b10 I
b10 W
b10 h
1N
b1 Q
b1 U
0L
1M
b1 ?
b1 *
b1 D
b1 $"
b1 -
b1 [
b1 !"
b10 ,
b10 Z
b10 ""
b110011 E
b1000000000000000000100000 q
b1000001000111100110011 $
b1000001000111100110011 >
b1000001000111100110011 i
b1000001000111100110011 (
b1000001000111100110011 F
b1000001000111100110011 ]
b1 &"
b1000000000000000000100000 0
b1000000000000000000100000 =
b1000000000000000000100000 g
b1000000000000000000100000 2
b1000000000000000000100000 J
b1000000000000000000100000 \
b1000001000111100110011 '
b1000001000111100110011 Y
b1000001000111100110011 c
b1000000000000000000100000 1
b1000000000000000000100000 6
b1000000000000000000100000 X
b1000000000000000000100000 `
14
#80
04
#85
b11101 .
b11101 :
b11101 ~
b10011 8
b1000000000111010010011 %
b1000000000111010010011 ;
b10011 k
b10 s
b10 x
b1000000000111010010011 &
b1000000000111010010011 9
b1000000000111010010011 t
b10 P
b10 V
b10 +
b10 5
b10 I
b10 W
b10 h
0N
b0 Q
b0 U
1L
0M
b0 ?
b0 *
b0 D
b0 $"
b0 -
b0 [
b0 !"
b10011 E
b1000000000000000000100100 q
b1000000000111010010011 $
b1000000000111010010011 >
b1000000000111010010011 i
b1000000000111010010011 (
b1000000000111010010011 F
b1000000000111010010011 ]
b1000000000000000000100100 0
b1000000000000000000100100 =
b1000000000000000000100100 g
b1000000000000000000100100 2
b1000000000000000000100100 J
b1000000000000000000100100 \
b1000000000111010010011 '
b1000000000111010010011 Y
b1000000000111010010011 c
b1000000000000000000100100 1
b1000000000000000000100100 6
b1000000000000000000100100 X
b1000000000000000000100100 `
14
#90
04
#95
b11 !
b11 <
b11 #"
b11 .
b11 :
b11 ~
b11 "
b11 7
b11 v
b1100000000000110010011 %
b1100000000000110010011 ;
b11 s
b11 x
b10 u
b10 y
b1100000000000110010011 &
b1100000000000110010011 9
b1100000000000110010011 t
b11 +
b11 5
b11 I
b11 W
b11 h
0B
b11 P
b11 V
b10 #
b10 A
b10 j
b10 @
b10 )
b10 C
b10 %"
b11 ,
b11 Z
b11 ""
b11 S
b1000000000000000000101000 q
b1100000000000110010011 $
b1100000000000110010011 >
b1100000000000110010011 i
b1100000000000110010011 (
b1100000000000110010011 F
b1100000000000110010011 ]
b1000000000000000000101000 0
b1000000000000000000101000 =
b1000000000000000000101000 g
b1000000000000000000101000 2
b1000000000000000000101000 J
b1000000000000000000101000 \
b1100000000000110010011 '
b1100000000000110010011 Y
b1100000000000110010011 c
b1000000000000000000101000 1
b1000000000000000000101000 6
b1000000000000000000101000 X
b1000000000000000000101000 `
14
#100
04
#105
b1000000000000010011100000 !
b1000000000000010011100000 <
b1000000000000010011100000 #"
0/
b10100 .
b10100 :
b10100 ~
b1100011 8
b1 r
b1 w
b1111 n
b1111 z
b1000000000000010011100000 "
b1000000000000010011100000 7
b1000000000000010011100000 v
b1001011110111110001101001100011 %
b1001011110111110001101001100011 ;
1l
b10010110100 P
b10010110100 V
b1100011 k
b1 m
b1000000000000010011100000 s
b1000000000000010011100000 x
b10010110100 S
b1001011110111110001101001100011 &
b1001011110111110001101001100011 9
b1001011110111110001101001100011 t
0O
b1000000000000010011100000 +
b1000000000000010011100000 5
b1000000000000010011100000 I
b1000000000000010011100000 W
b1000000000000010011100000 h
b1000000000000000000101100 Q
b1000000000000000000101100 U
0L
1M
b10 ?
b10 *
b10 D
b10 $"
b11110 -
b11110 [
b11110 !"
b11101 ,
b11101 Z
b11101 ""
b1100011 E
b1 H
b100101 G
b1000000000000000000101100 q
b1001011110111110001101001100011 $
b1001011110111110001101001100011 >
b1001011110111110001101001100011 i
b1001011110111110001101001100011 (
b1001011110111110001101001100011 F
b1001011110111110001101001100011 ]
b1000000000000000000101100 0
b1000000000000000000101100 =
b1000000000000000000101100 g
b1000000000000000000101100 2
b1000000000000000000101100 J
b1000000000000000000101100 \
b1001011110111110001101001100011 '
b1001011110111110001101001100011 Y
b1001011110111110001101001100011 c
b10 u
b10 y
0B
b1000000000000000000101100 1
b1000000000000000000101100 6
b1000000000000000000101100 X
b1000000000000000000101100 `
b10 #
b10 A
b10 j
b10 @
b10 )
b10 C
b10 %"
14
#110
04
#115
1/
b1 .
b1 :
b1 ~
b10011 8
b0 r
b0 w
b1100000000000010010011 %
b1100000000000010010011 ;
b11 !
b11 <
b11 #"
0l
b10011 k
b0 m
b11 u
b11 y
b10111010110110111010110111111111 n
b10111010110110111010110111111111 z
b11 "
b11 7
b11 v
b1100000000000010010011 &
b1100000000000010010011 9
b1100000000000010010011 t
1O
1B
1L
b11 P
b11 V
b0 ?
b0 *
b0 D
b0 $"
b0 -
b0 [
b0 !"
b11 #
b11 A
b11 j
0M
b11 @
b11 )
b11 C
b11 %"
b11 ,
b11 Z
b11 ""
b11 S
b10011 E
b0 H
b0 G
b11 s
b11 x
b1000000000000000000110000 q
b1100000000000010010011 $
b1100000000000010010011 >
b1100000000000010010011 i
b1100000000000010010011 (
b1100000000000010010011 F
b1100000000000010010011 ]
b11 +
b11 5
b11 I
b11 W
b11 h
b0 Q
b0 U
b1000000000000000000110000 0
b1000000000000000000110000 =
b1000000000000000000110000 g
b1000000000000000000110000 2
b1000000000000000000110000 J
b1000000000000000000110000 \
b1100000000000010010011 '
b1100000000000010010011 Y
b1100000000000010010011 c
b1000000000000000000110000 1
b1000000000000000000110000 6
b1000000000000000000110000 X
b1000000000000000000110000 `
14
#120
04
#125
b111 !
b111 <
b111 #"
b10 .
b10 :
b10 ~
b111 "
b111 7
b111 v
b11100000000000100010011 %
b11100000000000100010011 ;
b111 s
b111 x
b0 u
b0 y
b11100000000000100010011 &
b11100000000000100010011 9
b11100000000000100010011 t
b111 +
b111 5
b111 I
b111 W
b111 h
0B
0L
b111 P
b111 V
b0 #
b0 A
b0 j
1M
b0 @
b0 )
b0 C
b0 %"
b111 ,
b111 Z
b111 ""
b111 S
b1000000000000000000110100 q
b11100000000000100010011 $
b11100000000000100010011 >
b11100000000000100010011 i
b11100000000000100010011 (
b11100000000000100010011 F
b11100000000000100010011 ]
b1000000000000000000110100 0
b1000000000000000000110100 =
b1000000000000000000110100 g
b1000000000000000000110100 2
b1000000000000000000110100 J
b1000000000000000000110100 \
b11100000000000100010011 '
b11100000000000100010011 Y
b11100000000000100010011 c
b1000000000000000000110100 1
b1000000000000000000110100 6
b1000000000000000000110100 X
b1000000000000000000110100 `
14
#130
04
#135
b1010 !
b1010 <
b1010 #"
b11110 .
b11110 :
b11110 ~
b110011 8
b1010 "
b1010 7
b1010 v
b1000001000111100110011 %
b1000001000111100110011 ;
b110011 k
b1010 s
b1010 x
b111 u
b111 y
b10 S
b1000001000111100110011 &
b1000001000111100110011 9
b1000001000111100110011 t
b1010 +
b1010 5
b1010 I
b1010 W
b1010 h
1N
b11 Q
b11 U
1B
1L
b11 ?
b11 *
b11 D
b11 $"
b1 -
b1 [
b1 !"
b111 #
b111 A
b111 j
0M
b111 @
b111 )
b111 C
b111 %"
b10 ,
b10 Z
b10 ""
b110011 E
b1000000000000000000111000 q
b1000001000111100110011 $
b1000001000111100110011 >
b1000001000111100110011 i
b1000001000111100110011 (
b1000001000111100110011 F
b1000001000111100110011 ]
b111 &"
b1000000000000000000111000 0
b1000000000000000000111000 =
b1000000000000000000111000 g
b1000000000000000000111000 2
b1000000000000000000111000 J
b1000000000000000000111000 \
b1000001000111100110011 '
b1000001000111100110011 Y
b1000001000111100110011 c
b1000000000000000000111000 1
b1000000000000000000111000 6
b1000000000000000000111000 X
b1000000000000000000111000 `
14
#140
04
#145
b11101 .
b11101 :
b11101 ~
b10011 8
b101000000000111010010011 %
b101000000000111010010011 ;
b10011 k
b1010 s
b1010 x
b0 u
b0 y
b101000000000111010010011 &
b101000000000111010010011 9
b101000000000111010010011 t
b1010 +
b1010 5
b1010 I
b1010 W
b1010 h
0N
b0 Q
b0 U
0B
b1010 P
b1010 V
0L
1M
b0 ?
b0 *
b0 D
b0 $"
b0 -
b0 [
b0 !"
b0 #
b0 A
b0 j
b0 @
b0 )
b0 C
b0 %"
b1010 ,
b1010 Z
b1010 ""
b1010 S
b10011 E
b1000000000000000000111100 q
b101000000000111010010011 $
b101000000000111010010011 >
b101000000000111010010011 i
b101000000000111010010011 (
b101000000000111010010011 F
b101000000000111010010011 ]
b1000000000000000000111100 0
b1000000000000000000111100 =
b1000000000000000000111100 g
b1000000000000000000111100 2
b1000000000000000000111100 J
b1000000000000000000111100 \
b101000000000111010010011 '
b101000000000111010010011 Y
b101000000000111010010011 c
b1000000000000000000111100 1
b1000000000000000000111100 6
b1000000000000000000111100 X
b1000000000000000000111100 `
14
#150
04
#155
b100 !
b100 <
b100 #"
b11 .
b11 :
b11 ~
b100 "
b100 7
b100 v
b10000000000000110010011 %
b10000000000000110010011 ;
b100 s
b100 x
b10000000000000110010011 &
b10000000000000110010011 9
b10000000000000110010011 t
b100 +
b100 5
b100 I
b100 W
b100 h
b100 P
b100 V
b100 ,
b100 Z
b100 ""
b100 S
b1000000000000000001000000 q
b10000000000000110010011 $
b10000000000000110010011 >
b10000000000000110010011 i
b10000000000000110010011 (
b10000000000000110010011 F
b10000000000000110010011 ]
b1000000000000000001000000 0
b1000000000000000001000000 =
b1000000000000000001000000 g
b1000000000000000001000000 2
b1000000000000000001000000 J
b1000000000000000001000000 \
b10000000000000110010011 '
b10000000000000110010011 Y
b10000000000000110010011 c
b1000000000000000001000000 1
b1000000000000000001000000 6
b1000000000000000001000000 X
b1000000000000000001000000 `
14
#160
04
#165
b1000000000000010011100000 !
b1000000000000010011100000 <
b1000000000000010011100000 #"
0/
b11100 .
b11100 :
b11100 ~
b1100011 8
b1 r
b1 w
b1111 n
b1111 z
b1000000000000010011100000 "
b1000000000000010011100000 7
b1000000000000010011100000 v
b1001001110111110001111001100011 %
b1001001110111110001111001100011 ;
b10010011100 P
b10010011100 V
b1100011 k
b1 m
b1000000000000010011100000 s
b1000000000000010011100000 x
b1010 u
b1010 y
b10010011100 S
b1001001110111110001111001100011 &
b1001001110111110001111001100011 9
b1001001110111110001111001100011 t
0O
b1000000000000010011100000 +
b1000000000000010011100000 5
b1000000000000010011100000 I
b1000000000000010011100000 W
b1000000000000010011100000 h
b1000000000000000001000100 Q
b1000000000000000001000100 U
b1010 ?
b1010 *
b1010 D
b1010 $"
b11110 -
b11110 [
b11110 !"
b1010 #
b1010 A
b1010 j
1M
b1010 @
b1010 )
b1010 C
b1010 %"
b11101 ,
b11101 Z
b11101 ""
b1100011 E
b1 H
b100100 G
b1000000000000000001000100 q
b1001001110111110001111001100011 $
b1001001110111110001111001100011 >
b1001001110111110001111001100011 i
b1001001110111110001111001100011 (
b1001001110111110001111001100011 F
b1001001110111110001111001100011 ]
b1000000000000000001000100 0
b1000000000000000001000100 =
b1000000000000000001000100 g
b1000000000000000001000100 2
b1000000000000000001000100 J
b1000000000000000001000100 \
b1001001110111110001111001100011 '
b1001001110111110001111001100011 Y
b1001001110111110001111001100011 c
b1000000000000000001000100 1
b1000000000000000001000100 6
b1000000000000000001000100 X
b1000000000000000001000100 `
14
#170
04
#175
1/
b1 .
b1 :
b1 ~
b10011 8
b0 r
b0 w
b10010011 %
b10010011 ;
b0 !
b0 <
b0 #"
b10011 k
b0 m
b0 u
b0 y
b10111010110110111010110111111111 n
b10111010110110111010110111111111 z
b0 "
b0 7
b0 v
b10010011 &
b10010011 9
b10010011 t
1O
b0 P
b0 V
b0 ?
b0 *
b0 D
b0 $"
b0 -
b0 [
b0 !"
b0 #
b0 A
b0 j
1M
b0 @
b0 )
b0 C
b0 %"
b0 ,
b0 Z
b0 ""
b0 S
b10011 E
b0 H
b0 G
b0 s
b0 x
b1000000000000000001001000 q
b10010011 $
b10010011 >
b10010011 i
b10010011 (
b10010011 F
b10010011 ]
b0 +
b0 5
b0 I
b0 W
b0 h
b0 Q
b0 U
b1000000000000000001001000 0
b1000000000000000001001000 =
b1000000000000000001001000 g
b1000000000000000001001000 2
b1000000000000000001001000 J
b1000000000000000001001000 \
b10010011 '
b10010011 Y
b10010011 c
b1000000000000000001001000 1
b1000000000000000001001000 6
b1000000000000000001001000 X
b1000000000000000001001000 `
14
#180
04
#185
b11111111111111111000000000000000 !
b11111111111111111000000000000000 <
b11111111111111111000000000000000 #"
b11111111111111111000000000000000 "
b11111111111111111000000000000000 7
b11111111111111111000000000000000 v
b10 .
b10 :
b10 ~
b110111 8
b11111111111111111000000000000000 s
b11111111111111111000000000000000 x
b11111111111111111000000100110111 %
b11111111111111111000000100110111 ;
1l
b11111111111111111000000000000000 +
b11111111111111111000000000000000 5
b11111111111111111000000000000000 I
b11111111111111111000000000000000 W
b11111111111111111000000000000000 h
b11111111111111111000000000000000 P
b11111111111111111000000000000000 V
b110111 k
b1011 R
b1011 T
b11111111111111111000000000000000 S
b11111111111111111000000100110111 &
b11111111111111111000000100110111 9
b11111111111111111000000100110111 t
b11111 -
b11111 [
b11111 !"
b11111 ,
b11111 Z
b11111 ""
b110111 E
b1111111 G
b1000000000000000001001100 q
b11111111111111111000000100110111 $
b11111111111111111000000100110111 >
b11111111111111111000000100110111 i
b11111111111111111000000100110111 (
b11111111111111111000000100110111 F
b11111111111111111000000100110111 ]
b1000000000000000001001100 0
b1000000000000000001001100 =
b1000000000000000001001100 g
b1000000000000000001001100 2
b1000000000000000001001100 J
b1000000000000000001001100 \
b11111111111111111000000100110111 '
b11111111111111111000000100110111 Y
b11111111111111111000000100110111 c
b1000000000000000001001100 1
b1000000000000000001001100 6
b1000000000000000001001100 X
b1000000000000000001001100 `
14
#190
04
#195
b11110 .
b11110 :
b11110 ~
b110011 8
b1000001000111100110011 %
b1000001000111100110011 ;
0l
b110011 k
b11111111111111111000000000000000 u
b11111111111111111000000000000000 y
b0 R
b0 T
b10 S
b1000001000111100110011 &
b1000001000111100110011 9
b1000001000111100110011 t
1N
b1 -
b1 [
b1 !"
b11111111111111111000000000000000 #
b11111111111111111000000000000000 A
b11111111111111111000000000000000 j
0M
b11111111111111111000000000000000 @
b11111111111111111000000000000000 )
b11111111111111111000000000000000 C
b11111111111111111000000000000000 %"
b10 ,
b10 Z
b10 ""
b110011 E
b0 G
b1000000000000000001010000 q
b1000001000111100110011 $
b1000001000111100110011 >
b1000001000111100110011 i
b1000001000111100110011 (
b1000001000111100110011 F
b1000001000111100110011 ]
b11111111111111111000000000000000 &"
b1000000000000000001010000 0
b1000000000000000001010000 =
b1000000000000000001010000 g
b1000000000000000001010000 2
b1000000000000000001010000 J
b1000000000000000001010000 \
b1000001000111100110011 '
b1000001000111100110011 Y
b1000001000111100110011 c
b1000000000000000001010000 1
b1000000000000000001010000 6
b1000000000000000001010000 X
b1000000000000000001010000 `
14
#200
04
#205
b11111111111111111000000000000000 !
b11111111111111111000000000000000 <
b11111111111111111000000000000000 #"
b11101 .
b11101 :
b11101 ~
b110111 8
b11111111111111111000000000000000 "
b11111111111111111000000000000000 7
b11111111111111111000000000000000 v
b11111111111111111000111010110111 %
b11111111111111111000111010110111 ;
1l
b110111 k
b11111111111111111000000000000000 s
b11111111111111111000000000000000 x
b0 u
b0 y
b1011 R
b1011 T
b11111111111111111000000000000000 S
b11111111111111111000111010110111 &
b11111111111111111000111010110111 9
b11111111111111111000111010110111 t
b11111111111111111000000000000000 +
b11111111111111111000000000000000 5
b11111111111111111000000000000000 I
b11111111111111111000000000000000 W
b11111111111111111000000000000000 h
0N
b11111111111111111000000000000000 P
b11111111111111111000000000000000 V
b11111 -
b11111 [
b11111 !"
b0 #
b0 A
b0 j
1M
b0 @
b0 )
b0 C
b0 %"
b11111 ,
b11111 Z
b11111 ""
b110111 E
b1111111 G
b1000000000000000001010100 q
b11111111111111111000111010110111 $
b11111111111111111000111010110111 >
b11111111111111111000111010110111 i
b11111111111111111000111010110111 (
b11111111111111111000111010110111 F
b11111111111111111000111010110111 ]
b1000000000000000001010100 0
b1000000000000000001010100 =
b1000000000000000001010100 g
b1000000000000000001010100 2
b1000000000000000001010100 J
b1000000000000000001010100 \
b11111111111111111000111010110111 '
b11111111111111111000111010110111 Y
b11111111111111111000111010110111 c
b1000000000000000001010100 1
b1000000000000000001010100 6
b1000000000000000001010100 X
b1000000000000000001010100 `
14
#210
04
