PD5/testbench.vcd
$date
	Sat Jul 11 23:34:09 2020
$end
$version
	Icarus Verilog
$end
$timescale
	1s
$end
$scope module dut $end
$var wire 32 ! write_data [31:0] $end
$var wire 32 " wb [31:0] $end
$var wire 32 # imm [31:0] $end
$var wire 32 $ i_mem_out [31:0] $end
$var wire 32 % data_rs2 [31:0] $end
$var wire 32 & data_rs1 [31:0] $end
$var wire 32 ' d_mem_out [31:0] $end
$var wire 5 ( addr_rs2 [4:0] $end
$var wire 5 ) addr_rs1 [4:0] $end
$var wire 5 * addr_rd [4:0] $end
$var wire 2 + access_size [1:0] $end
$var wire 2 , WBSel [1:0] $end
$var wire 1 - RegWE $end
$var wire 1 . RdUn $end
$var wire 32 / PC_next [31:0] $end
$var wire 1 0 PCSel $end
$var wire 32 1 PC [31:0] $end
$var wire 1 2 MemRW $end
$var wire 1 3 BrUn $end
$var wire 1 4 BrLt $end
$var wire 1 5 BrEq $end
$var wire 1 6 BSel $end
$var wire 1 7 ASel $end
$var wire 32 8 ALU_out [31:0] $end
$var wire 4 9 ALUSel [3:0] $end
$var reg 1 : clk $end
$var reg 32 ; instruction [31:0] $end
$var reg 1 < state $end
$var integer 32 = i [31:0] $end
$scope module PCMux $end
$var wire 1 : clk $end
$var wire 1 0 PCSel $end
$var wire 32 > ALU_out [31:0] $end
$var reg 32 ? PC [31:0] $end
$var reg 32 @ PC_next [31:0] $end
$upscope $end
$scope module WBMux1 $end
$var wire 1 : clk $end
$var wire 32 A pc_next [31:0] $end
$var wire 2 B sel [1:0] $end
$var wire 32 C dmem [31:0] $end
$var wire 32 D alu [31:0] $end
$var reg 32 E out [31:0] $end
$upscope $end
$scope module d_mem $end
$var wire 1 : clk $end
$var wire 1 2 w_enable $end
$var wire 32 F data_in [31:0] $end
$var wire 32 G address [31:0] $end
$var wire 2 H access_size [1:0] $end
$var wire 1 . RdUn $end
$var reg 32 I data_out [31:0] $end
$var reg 32 J relevant_addr [31:0] $end
$var reg 32 K t_reg [31:0] $end
$var integer 32 L i [31:0] $end
$upscope $end
$scope module execute $end
$var wire 32 M PC_x [31:0] $end
$var wire 1 : clk $end
$var wire 32 N write_data [31:0] $end
$var wire 32 O rs2 [31:0] $end
$var wire 32 P rs1 [31:0] $end
$var wire 32 Q imm [31:0] $end
$var wire 1 3 BrUn $end
$var wire 1 4 BrLt $end
$var wire 1 5 BrEq $end
$var wire 1 6 BSel $end
$var wire 1 7 ASel $end
$var wire 32 R ALU_out [31:0] $end
$var wire 32 S ALU_in2 [31:0] $end
$var wire 32 T ALU_in1 [31:0] $end
$var wire 4 U ALUSel [3:0] $end
$scope module alu1 $end
$var wire 32 V rs1 [31:0] $end
$var wire 32 W rs2 [31:0] $end
$var wire 4 X ALUsel [3:0] $end
$var reg 32 Y alu_res [31:0] $end
$upscope $end
$upscope $end
$scope module fd1 $end
$var wire 1 5 BrEq $end
$var wire 1 4 BrLt $end
$var wire 32 Z PC [31:0] $end
$var wire 1 : clk $end
$var wire 32 [ instruction [31:0] $end
$var wire 7 \ opcode [6:0] $end
$var wire 7 ] funct7 [6:0] $end
$var wire 3 ^ funct3 [2:0] $end
$var wire 5 _ addr_rs2 [4:0] $end
$var wire 5 ` addr_rs1 [4:0] $end
$var wire 5 a addr_rd [4:0] $end
$var wire 1 3 BrUn $end
$var reg 4 b ALUSel [3:0] $end
$var reg 1 7 ASel $end
$var reg 1 6 BSel $end
$var reg 1 2 MemRW $end
$var reg 1 0 PCSel $end
$var reg 1 . RdUn $end
$var reg 1 - RegWE $end
$var reg 2 c WBSel [1:0] $end
$var reg 2 d access_size [1:0] $end
$var reg 32 e imm [31:0] $end
$scope task decode_bType $end
$upscope $end
$scope task decode_iType $end
$upscope $end
$scope task decode_jType $end
$upscope $end
$scope task decode_rType $end
$upscope $end
$scope task decode_sType $end
$upscope $end
$scope task decode_uType $end
$upscope $end
$upscope $end
$scope module i_mem $end
$var wire 1 f RdUn $end
$var wire 2 g access_size [1:0] $end
$var wire 32 h address [31:0] $end
$var wire 1 : clk $end
$var wire 32 i data_in [31:0] $end
$var wire 1 j w_enable $end
$var reg 32 k data_out [31:0] $end
$var reg 32 l relevant_addr [31:0] $end
$var reg 32 m t_reg [31:0] $end
$var integer 32 n i [31:0] $end
$upscope $end
$scope module reg_file $end
$var wire 5 o addr_rd [4:0] $end
$var wire 5 p addr_rs1 [4:0] $end
$var wire 5 q addr_rs2 [4:0] $end
$var wire 1 : clk $end
$var wire 32 r data_rd [31:0] $end
$var wire 32 s data_rs1 [31:0] $end
$var wire 32 t data_rs2 [31:0] $end
$var wire 1 - write_enable $end
$var integer 32 u i [31:0] $end
$upscope $end
$upscope $end
$enddefinitions $end
#0
$dumpvars
b100000 u
bx t
bx s
bx r
bx q
bx p
bx o
b100000000000000000001 n
bx m
b1000000000000000001000100 l
b10010011 k
0j
b0 i
b1000000000000000000000000 h
b10 g
0f
bx e
b0 d
b1 c
b0 b
bx a
bx `
bx _
bx ^
bx ]
bx \
bx [
b111111111111111111111100 Z
bx Y
b0 X
bx W
bx V
b0 U
bx T
bx S
bx R
bx Q
bx P
bx O
bx N
b111111111111111111111100 M
b100000000000000000001 L
bx K
b1000000000000000001000100 J
bx I
b0 H
bx G
bx F
bx E
bx D
bx C
b1 B
b1000000000000000000000000 A
b1000000000000000000000000 @
b111111111111111111111100 ?
bx >
b0 =
0<
bx ;
0:
b0 9
bx 8
x7
x6
x5
x4
x3
x2
b111111111111111111111100 1
10
b1000000000000000000000000 /
0.
x-
b1 ,
b0 +
bx *
bx )
bx (
bx '
bx &
bx %
b10010011 $
bx #
bx "
bx !
$end
#5
b0 "
b0 E
b0 r
b100010011 $
b100010011 k
b10111010110110111010110111111111 '
b10111010110110111010110111111111 C
b10111010110110111010110111111111 I
b0 8
b0 >
b0 D
b0 G
b0 R
b0 Y
b0 S
b0 W
b1000000000000000000000100 /
b1000000000000000000000100 @
b1000000000000000000000100 h
1-
02
06
17
b0 #
b0 Q
b0 e
03
04
b0 T
b0 V
b10011 \
b1 *
b1 a
b1 o
b0 ^
15
b0 &
b0 P
b0 s
b0 )
b0 `
b0 p
b0 !
b0 F
b0 N
b0 %
b0 O
b0 t
b0 (
b0 _
b0 q
b0 ]
b1000000000000000000000100 A
b1000000000000000000000000 1
b1000000000000000000000000 ?
b1000000000000000000000000 M
b1000000000000000000000000 Z
b10010011 ;
b10010011 [
1:
#10
0:
#15
b1000001000111100110011 $
b1000001000111100110011 k
b1000000000000000000001000 /
b1000000000000000000001000 @
b1000000000000000000001000 h
b10 *
b10 a
b10 o
b100010011 ;
b100010011 [
b1000000000000000000001000 A
b1000000000000000000000100 1
b1000000000000000000000100 ?
b1000000000000000000000100 M
b1000000000000000000000100 Z
1:
#20
0:
#25
b111010010011 $
b111010010011 k
b1000000000000000000001100 /
b1000000000000000000001100 @
b1000000000000000000001100 h
16
b110011 \
b11110 *
b11110 a
b11110 o
b1 )
b1 `
b1 p
b10 (
b10 _
b10 q
b1000000000000000000001100 A
b1000000000000000000001000 1
b1000000000000000000001000 ?
b1000000000000000000001000 M
b1000000000000000000001000 Z
b1000001000111100110011 ;
b1000001000111100110011 [
1:
#30
0:
#35
b1000000000000110010011 $
b1000000000000110010011 k
06
b1000000000000000000010000 /
b1000000000000000000010000 @
b1000000000000000000010000 h
b10011 \
b11101 *
b11101 a
b11101 o
b0 )
b0 `
b0 p
b0 (
b0 _
b0 q
b111010010011 ;
b111010010011 [
b1000000000000000000010000 A
b1000000000000000000001100 1
b1000000000000000000001100 ?
b1000000000000000000001100 M
b1000000000000000000001100 Z
1:
#40
0:
#45
b10 "
b10 E
b10 r
b1001101110111110001011001100011 $
b1001101110111110001011001100011 k
b10 8
b10 >
b10 D
b10 G
b10 R
b10 Y
b10 S
b10 W
b1000000000000000000010100 /
b1000000000000000000010100 @
b1000000000000000000010100 h
b10 #
b10 Q
b10 e
b11 *
b11 a
b11 o
b10 (
b10 _
b10 q
b1000000000000000000010100 A
b1000000000000000000010000 1
b1000000000000000000010000 ?
b1000000000000000000010000 M
b1000000000000000000010000 Z
b1000000000000110010011 ;
b1000000000000110010011 [
1:
#50
0:
#55
b1111 '
b1111 C
b1111 I
b1111 "
b1111 E
b1111 r
b100000000000010010011 $
b100000000000010010011 k
b1000000000000010011100000 8
b1000000000000010011100000 >
b1000000000000010011100000 D
b1000000000000010011100000 G
b1000000000000010011100000 R
b1000000000000010011100000 Y
b1000000000000000000010100 T
b1000000000000000000010100 V
b10011001100 S
b10011001100 W
b0 ,
b0 B
b0 c
0-
07
b1000000000000000000011000 /
b1000000000000000000011000 @
b1000000000000000000011000 h
b10011001100 #
b10011001100 Q
b10011001100 e
b1100011 \
b1100 *
b1100 a
b1100 o
b1 ^
b11110 )
b11110 `
b11110 p
b11101 (
b11101 _
b11101 q
b100110 ]
b1001101110111110001011001100011 ;
b1001101110111110001011001100011 [
b1000000000000000000011000 A
b1000000000000000000010100 1
b1000000000000000000010100 ?
b1000000000000000000010100 M
b1000000000000000000010100 Z
1:
#60
0:
#65
b100000000000100010011 $
b100000000000100010011 k
b1 "
b1 E
b1 r
b1 S
b1 W
b10111010110110111010110111111111 '
b10111010110110111010110111111111 C
b10111010110110111010110111111111 I
b1000000000000000000011100 /
b1000000000000000000011100 @
b1000000000000000000011100 h
b1 ,
b1 B
b1 c
1-
17
b1 #
b1 Q
b1 e
b1 8
b1 >
b1 D
b1 G
b1 R
b1 Y
b0 T
b0 V
b10011 \
b1 *
b1 a
b1 o
b0 ^
b0 )
b0 `
b0 p
b1 (
b1 _
b1 q
b0 ]
b1000000000000000000011100 A
b1000000000000000000011000 1
b1000000000000000000011000 ?
b1000000000000000000011000 M
b1000000000000000000011000 Z
b100000000000010010011 ;
b100000000000010010011 [
1:
#70
0:
#75
b1000001000111100110011 $
b1000001000111100110011 k
b1000000000000000000100000 /
b1000000000000000000100000 @
b1000000000000000000100000 h
b10 *
b10 a
b10 o
14
b100000000000100010011 ;
b100000000000100010011 [
05
b1 !
b1 F
b1 N
b1 %
b1 O
b1 t
b1000000000000000000100000 A
b1000000000000000000011100 1
b1000000000000000000011100 ?
b1000000000000000000011100 M
b1000000000000000000011100 Z
1:
#80
0:
#85
b1000000000111010010011 $
b1000000000111010010011 k
b10 "
b10 E
b10 r
b1000000000000000000100100 /
b1000000000000000000100100 @
b1000000000000000000100100 h
16
b10 8
b10 >
b10 D
b10 G
b10 R
b10 Y
b1 T
b1 V
04
b110011 \
b11110 *
b11110 a
b11110 o
15
b1 &
b1 P
b1 s
b1 )
b1 `
b1 p
b10 (
b10 _
b10 q
b1000000000000000000100100 A
b1000000000000000000100000 1
b1000000000000000000100000 ?
b1000000000000000000100000 M
b1000000000000000000100000 Z
b1000001000111100110011 ;
b1000001000111100110011 [
1:
#90
0:
#95
b1100000000000110010011 $
b1100000000000110010011 k
b10 S
b10 W
b10 "
b10 E
b10 r
06
b10 #
b10 Q
b10 e
b1000000000000000000101000 /
b1000000000000000000101000 @
b1000000000000000000101000 h
b10 8
b10 >
b10 D
b10 G
b10 R
b10 Y
b0 T
b0 V
14
b10011 \
b11101 *
b11101 a
b11101 o
05
b0 &
b0 P
b0 s
b0 )
b0 `
b0 p
b1000000000111010010011 ;
b1000000000111010010011 [
b1000000000000000000101000 A
b1000000000000000000100100 1
b1000000000000000000100100 ?
b1000000000000000000100100 M
b1000000000000000000100100 Z
1:
#100
0:
#105
b11 "
b11 E
b11 r
b1001011110111110001101001100011 $
b1001011110111110001101001100011 k
b11 8
b11 >
b11 D
b11 G
b11 R
b11 Y
b11 S
b11 W
b1000000000000000000101100 /
b1000000000000000000101100 @
b1000000000000000000101100 h
b11 #
b11 Q
b11 e
b11 *
b11 a
b11 o
b10 !
b10 F
b10 N
b10 %
b10 O
b10 t
b11 (
b11 _
b11 q
b1000000000000000000101100 A
b1000000000000000000101000 1
b1000000000000000000101000 ?
b1000000000000000000101000 M
b1000000000000000000101000 Z
b1100000000000110010011 ;
b1100000000000110010011 [
1:
#110
0:
#115
b1111 '
b1111 C
b1111 I
b1100000000000010010011 $
b1100000000000010010011 k
b10010110100 S
b10010110100 W
b1111 "
b1111 E
b1111 r
b0 ,
b0 B
b0 c
0-
07
b1000000000000000000110000 /
b1000000000000000000110000 @
b1000000000000000000110000 h
b10010110100 #
b10010110100 Q
b10010110100 e
b1000000000000010011100000 8
b1000000000000010011100000 >
b1000000000000010011100000 D
b1000000000000010011100000 G
b1000000000000010011100000 R
b1000000000000010011100000 Y
b1000000000000000000101100 T
b1000000000000000000101100 V
04
b1100011 \
b10100 *
b10100 a
b10100 o
b1 ^
15
b10 &
b10 P
b10 s
b11110 )
b11110 `
b11110 p
b11101 (
b11101 _
b11101 q
b100101 ]
b1001011110111110001101001100011 ;
b1001011110111110001101001100011 [
b10 !
b10 F
b10 N
b10 %
b10 O
b10 t
b1000000000000000000110000 A
b1000000000000000000101100 1
b1000000000000000000101100 ?
b1000000000000000000101100 M
b1000000000000000000101100 Z
1:
#120
0:
#125
b11100000000000100010011 $
b11100000000000100010011 k
b11 "
b11 E
b11 r
b11 S
b11 W
b10111010110110111010110111111111 '
b10111010110110111010110111111111 C
b10111010110110111010110111111111 I
b1000000000000000000110100 /
b1000000000000000000110100 @
b1000000000000000000110100 h
b1 ,
b1 B
b1 c
1-
17
b11 #
b11 Q
b11 e
b11 8
b11 >
b11 D
b11 G
b11 R
b11 Y
14
b0 T
b0 V
b10011 \
b1 *
b1 a
b1 o
b0 ^
b0 &
b0 P
b0 s
b0 )
b0 `
b0 p
05
b11 !
b11 F
b11 N
b11 %
b11 O
b11 t
b11 (
b11 _
b11 q
b0 ]
b1000000000000000000110100 A
b1000000000000000000110000 1
b1000000000000000000110000 ?
b1000000000000000000110000 M
b1000000000000000000110000 Z
b1100000000000010010011 ;
b1100000000000010010011 [
1:
#130
0:
#135
b111 "
b111 E
b111 r
b1000001000111100110011 $
b1000001000111100110011 k
b111 8
b111 >
b111 D
b111 G
b111 R
b111 Y
b111 S
b111 W
b1000000000000000000111000 /
b1000000000000000000111000 @
b1000000000000000000111000 h
b111 #
b111 Q
b111 e
04
b10 *
b10 a
b10 o
15
b0 !
b0 F
b0 N
b0 %
b0 O
b0 t
b111 (
b111 _
b111 q
b11100000000000100010011 ;
b11100000000000100010011 [
b1000000000000000000111000 A
b1000000000000000000110100 1
b1000000000000000000110100 ?
b1000000000000000000110100 M
b1000000000000000000110100 Z
1:
#140
0:
#145
b101000000000111010010011 $
b101000000000111010010011 k
b1010 "
b1010 E
b1010 r
b1000000000000000000111100 /
b1000000000000000000111100 @
b1000000000000000000111100 h
16
b1010 8
b1010 >
b1010 D
b1010 G
b1010 R
b1010 Y
b11 T
b11 V
14
b110011 \
b11110 *
b11110 a
b11110 o
b11 &
b11 P
b11 s
b1 )
b1 `
b1 p
05
b111 !
b111 F
b111 N
b111 %
b111 O
b111 t
b10 (
b10 _
b10 q
b1000000000000000000111100 A
b1000000000000000000111000 1
b1000000000000000000111000 ?
b1000000000000000000111000 M
b1000000000000000000111000 Z
b1000001000111100110011 ;
b1000001000111100110011 [
1:
#150
0:
#155
b10000000000000110010011 $
b10000000000000110010011 k
b1010 "
b1010 E
b1010 r
06
b1010 #
b1010 Q
b1010 e
b1000000000000000001000000 /
b1000000000000000001000000 @
b1000000000000000001000000 h
b1010 8
b1010 >
b1010 D
b1010 G
b1010 R
b1010 Y
b0 T
b0 V
b1010 S
b1010 W
04
b10011 \
b11101 *
b11101 a
b11101 o
15
b0 &
b0 P
b0 s
b0 )
b0 `
b0 p
b0 !
b0 F
b0 N
b0 %
b0 O
b0 t
b1010 (
b1010 _
b1010 q
b101000000000111010010011 ;
b101000000000111010010011 [
b1000000000000000001000000 A
b1000000000000000000111100 1
b1000000000000000000111100 ?
b1000000000000000000111100 M
b1000000000000000000111100 Z
1:
#160
0:
#165
b100 "
b100 E
b100 r
b1001001110111110001111001100011 $
b1001001110111110001111001100011 k
b100 8
b100 >
b100 D
b100 G
b100 R
b100 Y
b100 S
b100 W
b1000000000000000001000100 /
b1000000000000000001000100 @
b1000000000000000001000100 h
b100 #
b100 Q
b100 e
b11 *
b11 a
b11 o
b100 (
b100 _
b100 q
b1000000000000000001000100 A
b1000000000000000001000000 1
b1000000000000000001000000 ?
b1000000000000000001000000 M
b1000000000000000001000000 Z
b10000000000000110010011 ;
b10000000000000110010011 [
1:
#170
0:
#175
b1111 '
b1111 C
b1111 I
b10010011 $
b10010011 k
b10010011100 S
b10010011100 W
b1111 "
b1111 E
b1111 r
b0 ,
b0 B
b0 c
0-
07
b1000000000000000001001000 /
b1000000000000000001001000 @
b1000000000000000001001000 h
b10010011100 #
b10010011100 Q
b10010011100 e
b1000000000000010011100000 8
b1000000000000010011100000 >
b1000000000000010011100000 D
b1000000000000010011100000 G
b1000000000000010011100000 R
b1000000000000010011100000 Y
b1000000000000000001000100 T
b1000000000000000001000100 V
b1100011 \
b11100 *
b11100 a
b11100 o
b1 ^
b1010 &
b1010 P
b1010 s
b11110 )
b11110 `
b11110 p
15
b1010 !
b1010 F
b1010 N
b1010 %
b1010 O
b1010 t
b11101 (
b11101 _
b11101 q
b100100 ]
b1001001110111110001111001100011 ;
b1001001110111110001111001100011 [
b1000000000000000001001000 A
b1000000000000000001000100 1
b1000000000000000001000100 ?
b1000000000000000001000100 M
b1000000000000000001000100 Z
1:
#180
0:
#185
b11111111111111111000000100110111 $
b11111111111111111000000100110111 k
b0 "
b0 E
b0 r
b0 S
b0 W
b10111010110110111010110111111111 '
b10111010110110111010110111111111 C
b10111010110110111010110111111111 I
b1000000000000000001001100 /
b1000000000000000001001100 @
b1000000000000000001001100 h
b1 ,
b1 B
b1 c
1-
17
b0 #
b0 Q
b0 e
b0 8
b0 >
b0 D
b0 G
b0 R
b0 Y
b0 T
b0 V
b10011 \
b1 *
b1 a
b1 o
b0 ^
b0 &
b0 P
b0 s
b0 )
b0 `
b0 p
15
b0 !
b0 F
b0 N
b0 %
b0 O
b0 t
b0 (
b0 _
b0 q
b0 ]
b1000000000000000001001100 A
b1000000000000000001001000 1
b1000000000000000001001000 ?
b1000000000000000001001000 M
b1000000000000000001001000 Z
b10010011 ;
b10010011 [
1:
#190
0:
#195
b11111111111111111000000000000000 "
b11111111111111111000000000000000 E
b11111111111111111000000000000000 r
b1000001000111100110011 $
b1000001000111100110011 k
b11111111111111111000000000000000 8
b11111111111111111000000000000000 >
b11111111111111111000000000000000 D
b11111111111111111000000000000000 G
b11111111111111111000000000000000 R
b11111111111111111000000000000000 Y
b11111111111111111000000000000000 S
b11111111111111111000000000000000 W
b1011 9
b1011 U
b1011 X
b1011 b
b1000000000000000001010000 /
b1000000000000000001010000 @
b1000000000000000001010000 h
b11111111111111111000000000000000 #
b11111111111111111000000000000000 Q
b11111111111111111000000000000000 e
b110111 \
b10 *
b10 a
b10 o
b11111 )
b11111 `
b11111 p
b11111 (
b11111 _
b11111 q
b1111111 ]
b11111111111111111000000100110111 ;
b11111111111111111000000100110111 [
b1000000000000000001010000 A
b1000000000000000001001100 1
b1000000000000000001001100 ?
b1000000000000000001001100 M
b1000000000000000001001100 Z
1:
#200
0:
#205
b11111111111111111000111010110111 $
b11111111111111111000111010110111 k
b1000000000000000001010100 /
b1000000000000000001010100 @
b1000000000000000001010100 h
b0 9
b0 U
b0 X
b0 b
16
b110011 \
b11110 *
b11110 a
b11110 o
b1 )
b1 `
b1 p
05
b11111111111111111000000000000000 !
b11111111111111111000000000000000 F
b11111111111111111000000000000000 N
b11111111111111111000000000000000 %
b11111111111111111000000000000000 O
b11111111111111111000000000000000 t
b10 (
b10 _
b10 q
b0 ]
b1000000000000000001010100 A
b1000000000000000001010000 1
b1000000000000000001010000 ?
b1000000000000000001010000 M
b1000000000000000001010000 Z
b1000001000111100110011 ;
b1000001000111100110011 [
1:
#210
0:
#215
b10100000000000110010011 $
b10100000000000110010011 k
b11111111111111111000000000000000 "
b11111111111111111000000000000000 E
b11111111111111111000000000000000 r
b1011 9
b1011 U
b1011 X
b1011 b
06
b1000000000000000001011000 /
b1000000000000000001011000 @
b1000000000000000001011000 h
b11111111111111111000000000000000 8
b11111111111111111000000000000000 >
b11111111111111111000000000000000 D
b11111111111111111000000000000000 G
b11111111111111111000000000000000 R
b11111111111111111000000000000000 Y
b11111111111111111000000000000000 S
b11111111111111111000000000000000 W
b110111 \
b11101 *
b11101 a
b11101 o
b11111 )
b11111 `
b11111 p
15
b0 !
b0 F
b0 N
b0 %
b0 O
b0 t
b11111 (
b11111 _
b11111 q
b1111111 ]
b11111111111111111000111010110111 ;
b11111111111111111000111010110111 [
b1000000000000000001011000 A
b1000000000000000001010100 1
b1000000000000000001010100 ?
b1000000000000000001010100 M
b1000000000000000001010100 Z
1:
#220
0:
#225
b101 "
b101 E
b101 r
b1001001110111110001001001100011 $
b1001001110111110001001001100011 k
b101 8
b101 >
b101 D
b101 G
b101 R
b101 Y
b101 S
b101 W
b1000000000000000001011100 /
b1000000000000000001011100 @
b1000000000000000001011100 h
b0 9
b0 U
b0 X
b0 b
b101 #
b101 Q
b101 e
b10011 \
b11 *
b11 a
b11 o
b0 )
b0 `
b0 p
b101 (
b101 _
b101 q
b0 ]
b1000000000000000001011100 A
b1000000000000000001011000 1
b1000000000000000001011000 ?
b1000000000000000001011000 M
b1000000000000000001011000 Z
b10100000000000110010011 ;
b10100000000000110010011 [
1:
#230
0:
#235
b1111 '
b1111 C
b1111 I
b10000000000000000000000010110111 $
b10000000000000000000000010110111 k
b10010000100 S
b10010000100 W
b1111 "
b1111 E
b1111 r
b0 ,
b0 B
b0 c
0-
07
b1000000000000000001100000 /
b1000000000000000001100000 @
b1000000000000000001100000 h
b10010000100 #
b10010000100 Q
b10010000100 e
b1000000000000010011100000 8
b1000000000000010011100000 >
b1000000000000010011100000 D
b1000000000000010011100000 G
b1000000000000010011100000 R
b1000000000000010011100000 Y
b1000000000000000001011100 T
b1000000000000000001011100 V
b1100011 \
b100 *
b100 a
b100 o
b1 ^
b11111111111111111000000000000000 &
b11111111111111111000000000000000 P
b11111111111111111000000000000000 s
b11110 )
b11110 `
b11110 p
15
b11111111111111111000000000000000 !
b11111111111111111000000000000000 F
b11111111111111111000000000000000 N
b11111111111111111000000000000000 %
b11111111111111111000000000000000 O
b11111111111111111000000000000000 t
b11101 (
b11101 _
b11101 q
b100100 ]
b1001001110111110001001001100011 ;
b1001001110111110001001001100011 [
b1000000000000000001100000 A
b1000000000000000001011100 1
b1000000000000000001011100 ?
b1000000000000000001011100 M
b1000000000000000001011100 Z
1:
#240
0:
#245
b100010011 $
b100010011 k
b10000000000000000000000000000000 "
b10000000000000000000000000000000 E
b10000000000000000000000000000000 r
b10000000000000000000000000000000 S
b10000000000000000000000000000000 W
b10111010110110111010110111111111 '
b10111010110110111010110111111111 C
b10111010110110111010110111111111 I
b1000000000000000001100100 /
b1000000000000000001100100 @
b1000000000000000001100100 h
b1 ,
b1 B
b1 c
1-
b1011 9
b1011 U
b1011 X
b1011 b
17
b10000000000000000000000000000000 #
b10000000000000000000000000000000 Q
b10000000000000000000000000000000 e
b10000000000000000000000000000000 8
b10000000000000000000000000000000 >
b10000000000000000000000000000000 D
b10000000000000000000000000000000 G
b10000000000000000000000000000000 R
b10000000000000000000000000000000 Y
b0 T
b0 V
b110111 \
b1 *
b1 a
b1 o
b0 ^
b0 &
b0 P
b0 s
b0 )
b0 `
b0 p
15
b0 !
b0 F
b0 N
b0 %
b0 O
b0 t
b0 (
b0 _
b0 q
b1000000 ]
b1000000000000000001100100 A
b1000000000000000001100000 1
b1000000000000000001100000 ?
b1000000000000000001100000 M
b1000000000000000001100000 Z
b10000000000000000000000010110111 ;
b10000000000000000000000010110111 [
1:
#250
0:
#255
b0 "
b0 E
b0 r
b1000001000111100110011 $
b1000001000111100110011 k
b0 8
b0 >
b0 D
b0 G
b0 R
b0 Y
b0 S
b0 W
b0 9
b0 U
b0 X
b0 b
b1000000000000000001101000 /
b1000000000000000001101000 @
b1000000000000000001101000 h
b0 #
b0 Q
b0 e
b10011 \
b10 *
b10 a
b10 o
b0 ]
b100010011 ;
b100010011 [
b1000000000000000001101000 A
b1000000000000000001100100 1
b1000000000000000001100100 ?
b1000000000000000001100100 M
b1000000000000000001100100 Z
1:
#260
0:
#265
b10000000000000000000111010110111 $
b10000000000000000000111010110111 k
b10000000000000000000000000000000 "
b10000000000000000000000000000000 E
b10000000000000000000000000000000 r
b1000000000000000001101100 /
b1000000000000000001101100 @
b1000000000000000001101100 h
16
b10000000000000000000000000000000 8
b10000000000000000000000000000000 >
b10000000000000000000000000000000 D
b10000000000000000000000000000000 G
b10000000000000000000000000000000 R
b10000000000000000000000000000000 Y
b10000000000000000000000000000000 T
b10000000000000000000000000000000 V
14
b110011 \
b11110 *
b11110 a
b11110 o
05
b10000000000000000000000000000000 &
b10000000000000000000000000000000 P
b10000000000000000000000000000000 s
b1 )
b1 `
b1 p
b10 (
b10 _
b10 q
b1000000000000000001101100 A
b1000000000000000001101000 1
b1000000000000000001101000 ?
b1000000000000000001101000 M
b1000000000000000001101000 Z
b1000001000111100110011 ;
b1000001000111100110011 [
1:
#270
0:
#275
b11000000000000110010011 $
b11000000000000110010011 k
b10000000000000000000000000000000 S
b10000000000000000000000000000000 W
b10000000000000000000000000000000 "
b10000000000000000000000000000000 E
b10000000000000000000000000000000 r
b1011 9
b1011 U
b1011 X
b1011 b
06
b10000000000000000000000000000000 #
b10000000000000000000000000000000 Q
b10000000000000000000000000000000 e
b1000000000000000001110000 /
b1000000000000000001110000 @
b1000000000000000001110000 h
b10000000000000000000000000000000 8
b10000000000000000000000000000000 >
b10000000000000000000000000000000 D
b10000000000000000000000000000000 G
b10000000000000000000000000000000 R
b10000000000000000000000000000000 Y
b0 T
b0 V
04
b110111 \
b11101 *
b11101 a
b11101 o
15
b0 &
b0 P
b0 s
b0 )
b0 `
b0 p
b0 (
b0 _
b0 q
b1000000 ]
b10000000000000000000111010110111 ;
b10000000000000000000111010110111 [
b1000000000000000001110000 A
b1000000000000000001101100 1
b1000000000000000001101100 ?
b1000000000000000001101100 M
b1000000000000000001101100 Z
1:
#280
0:
#285
b110 "
b110 E
b110 r
b1000111110111110001011001100011 $
b1000111110111110001011001100011 k
b110 8
b110 >
b110 D
b110 G
b110 R
b110 Y
b110 S
b110 W
b1000000000000000001110100 /
b1000000000000000001110100 @
b1000000000000000001110100 h
b0 9
b0 U
b0 X
b0 b
b110 #
b110 Q
b110 e
b10011 \
b11 *
b11 a
b11 o
b110 (
b110 _
b110 q
b0 ]
b1000000000000000001110100 A
b1000000000000000001110000 1
b1000000000000000001110000 ?
b1000000000000000001110000 M
b1000000000000000001110000 Z
b11000000000000110010011 ;
b11000000000000110010011 [
1:
#290
0:
#295
b1111 '
b1111 C
b1111 I
b10000000000000000000000010110111 $
b10000000000000000000000010110111 k
b10001101100 S
b10001101100 W
b1111 "
b1111 E
b1111 r
b0 ,
b0 B
b0 c
0-
07
b1000000000000000001111000 /
b1000000000000000001111000 @
b1000000000000000001111000 h
b10001101100 #
b10001101100 Q
b10001101100 e
b1000000000000010011100000 8
b1000000000000010011100000 >
b1000000000000010011100000 D
b1000000000000010011100000 G
b1000000000000010011100000 R
b1000000000000010011100000 Y
b1000000000000000001110100 T
b1000000000000000001110100 V
b1100011 \
b1100 *
b1100 a
b1100 o
b1 ^
b10000000000000000000000000000000 &
b10000000000000000000000000000000 P
b10000000000000000000000000000000 s
b11110 )
b11110 `
b11110 p
15
b10000000000000000000000000000000 !
b10000000000000000000000000000000 F
b10000000000000000000000000000000 N
b10000000000000000000000000000000 %
b10000000000000000000000000000000 O
b10000000000000000000000000000000 t
b11101 (
b11101 _
b11101 q
b100011 ]
b1000111110111110001011001100011 ;
b1000111110111110001011001100011 [
b1000000000000000001111000 A
b1000000000000000001110100 1
b1000000000000000001110100 ?
b1000000000000000001110100 M
b1000000000000000001110100 Z
1:
#300
0:
#305
b11111111111111111000000100110111 $
b11111111111111111000000100110111 k
b10000000000000000000000000000000 "
b10000000000000000000000000000000 E
b10000000000000000000000000000000 r
b10000000000000000000000000000000 S
b10000000000000000000000000000000 W
b10111010110110111010110111111111 '
b10111010110110111010110111111111 C
b10111010110110111010110111111111 I
b1000000000000000001111100 /
b1000000000000000001111100 @
b1000000000000000001111100 h
b1 ,
b1 B
b1 c
1-
b1011 9
b1011 U
b1011 X
b1011 b
17
b10000000000000000000000000000000 #
b10000000000000000000000000000000 Q
b10000000000000000000000000000000 e
b10000000000000000000000000000000 8
b10000000000000000000000000000000 >
b10000000000000000000000000000000 D
b10000000000000000000000000000000 G
b10000000000000000000000000000000 R
b10000000000000000000000000000000 Y
b0 T
b0 V
b110111 \
b1 *
b1 a
b1 o
b0 ^
b0 &
b0 P
b0 s
b0 )
b0 `
b0 p
15
b0 !
b0 F
b0 N
b0 %
b0 O
b0 t
b0 (
b0 _
b0 q
b1000000 ]
b1000000000000000001111100 A
b1000000000000000001111000 1
b1000000000000000001111000 ?
b1000000000000000001111000 M
b1000000000000000001111000 Z
b10000000000000000000000010110111 ;
b10000000000000000000000010110111 [
1:
#310
0:
