PD5/testbench.vcd
$date
	Sat Jul 18 15:51:40 2020
$end
$version
	Icarus Verilog
$end
$timescale
	1s
$end
$scope module dut $end
$var wire 32 ! wb_w [31:0] $end
$var wire 32 " wb_m [31:0] $end
$var wire 5 # w_rd1 [4:0] $end
$var wire 32 $ rs2_x [31:0] $end
$var wire 5 % m_rd [4:0] $end
$var wire 1 & kill_dx $end
$var wire 32 ' inst_x [31:0] $end
$var wire 32 ( inst_w [31:0] $end
$var wire 32 ) inst_m [31:0] $end
$var wire 32 * inst_f [31:0] $end
$var wire 7 + inst_d_opcode [6:0] $end
$var wire 32 , inst_d [31:0] $end
$var wire 32 - hazard_mux_out [31:0] $end
$var wire 32 . data_rs2 [31:0] $end
$var wire 32 / data_rs1 [31:0] $end
$var wire 5 0 d_rs2 [4:0] $end
$var wire 5 1 d_rs1 [4:0] $end
$var wire 32 2 alu_x [31:0] $end
$var wire 32 3 alu_m_bypass [31:0] $end
$var wire 5 4 addr_rs2 [4:0] $end
$var wire 5 5 addr_rs1 [4:0] $end
$var wire 5 6 addr_rd [4:0] $end
$var wire 1 7 WM_bypass $end
$var wire 1 8 RegWE $end
$var wire 32 9 PC_x [31:0] $end
$var wire 32 : PC_f [31:0] $end
$var wire 32 ; PC_d [31:0] $end
$var wire 1 < PCSel $end
$var reg 1 = clk $end
$var reg 33 > counter [32:0] $end
$var reg 2 ? rs1_bypass [1:0] $end
$var reg 2 @ rs2_bypass [1:0] $end
$var reg 1 A stall $end
$scope module PCMux $end
$var wire 1 = clk $end
$var wire 1 A stall $end
$var wire 32 B alu_x [31:0] $end
$var wire 1 < PCSel $end
$var reg 32 C PC_f [31:0] $end
$upscope $end
$scope module WB $end
$var wire 1 = clk $end
$var wire 32 D wb_m [31:0] $end
$var wire 7 E opcode [6:0] $end
$var wire 32 F inst_m [31:0] $end
$var wire 5 G addr_rd [4:0] $end
$var wire 1 8 RegWE $end
$var reg 32 H inst_w [31:0] $end
$var reg 32 I wb_w [31:0] $end
$upscope $end
$scope module execute $end
$var wire 1 = clk $end
$var wire 32 J inst_d [31:0] $end
$var wire 2 K rs1_bypass [1:0] $end
$var wire 2 L rs2_bypass [1:0] $end
$var wire 32 M wb_w_bypass [31:0] $end
$var wire 1 N write_data $end
$var wire 32 O rs2_d [31:0] $end
$var wire 32 P rs1_d [31:0] $end
$var wire 7 Q opcode [6:0] $end
$var wire 7 R funct7 [6:0] $end
$var wire 3 S funct3 [2:0] $end
$var wire 32 T alu_x [31:0] $end
$var wire 32 U alu_m_bypass [31:0] $end
$var wire 32 V PC_d [31:0] $end
$var wire 1 W BrUn $end
$var wire 1 X BrLt $end
$var wire 1 Y BrEq $end
$var wire 1 Z BSel $end
$var wire 1 [ ASel $end
$var reg 4 \ ALUSel [3:0] $end
$var reg 32 ] ALU_in1 [31:0] $end
$var reg 32 ^ ALU_in2 [31:0] $end
$var reg 1 < PCSel $end
$var reg 32 _ PC_x [31:0] $end
$var reg 1 ` WXBP $end
$var reg 1 a fault $end
$var reg 32 b imm [31:0] $end
$var reg 32 c inst_x [31:0] $end
$var reg 1 & kill_dx $end
$var reg 32 d rs1 [31:0] $end
$var reg 32 e rs2 [31:0] $end
$scope module alu1 $end
$var wire 4 f ALUsel [3:0] $end
$var wire 32 g rs1 [31:0] $end
$var wire 32 h rs2 [31:0] $end
$var reg 32 i alu_res [31:0] $end
$upscope $end
$scope task decode_bType $end
$upscope $end
$scope task decode_iType $end
$upscope $end
$scope task decode_jType $end
$upscope $end
$scope task decode_rType $end
$upscope $end
$scope task decode_sType $end
$upscope $end
$scope task decode_uType $end
$upscope $end
$upscope $end
$scope module fd1 $end
$var wire 32 j PC_f [31:0] $end
$var wire 1 = clk $end
$var wire 1 & kill_dx $end
$var wire 1 A stall $end
$var wire 1 k opcode $end
$var wire 1 l kill_d $end
$var wire 32 m inst_f [31:0] $end
$var wire 32 n inst_d_out [31:0] $end
$var wire 5 o addr_rs2 [4:0] $end
$var wire 5 p addr_rs1 [4:0] $end
$var reg 32 q PC_d [31:0] $end
$var reg 32 r inst_d [31:0] $end
$upscope $end
$scope module i_mem $end
$var wire 1 s RdUn $end
$var wire 2 t access_size [1:0] $end
$var wire 32 u address [31:0] $end
$var wire 1 = clk $end
$var wire 32 v data_in [31:0] $end
$var wire 1 w w_enable $end
$var reg 32 x data_out [31:0] $end
$var reg 32 y relevant_addr [31:0] $end
$var reg 32 z t_reg [31:0] $end
$var integer 32 { i [31:0] $end
$upscope $end
$scope module mem_stage $end
$var wire 32 | PC_x [31:0] $end
$var wire 1 7 WM_bypass $end
$var wire 32 } alu_x [31:0] $end
$var wire 1 = clk $end
$var wire 32 ~ inst_x [31:0] $end
$var wire 32 !" rs2_x [31:0] $end
$var wire 32 "" wb_w_bypass [31:0] $end
$var wire 7 #" opcode [6:0] $end
$var wire 1 $" funct7 $end
$var wire 3 %" funct3 [2:0] $end
$var wire 32 &" d_mem_out [31:0] $end
$var wire 1 '" WEn $end
$var wire 1 (" RdUn $end
$var wire 32 )" DataW [31:0] $end
$var reg 32 *" PC_m [31:0] $end
$var reg 2 +" access_size [1:0] $end
$var reg 32 ," alu_m [31:0] $end
$var reg 32 -" inst_m [31:0] $end
$var reg 32 ." rs2_m [31:0] $end
$var reg 32 /" wb_m [31:0] $end
$scope module d_mem $end
$var wire 1 (" RdUn $end
$var wire 2 0" access_size [1:0] $end
$var wire 32 1" address [31:0] $end
$var wire 1 = clk $end
$var wire 32 2" data_in [31:0] $end
$var wire 1 '" w_enable $end
$var reg 32 3" data_out [31:0] $end
$var reg 32 4" relevant_addr [31:0] $end
$var reg 32 5" t_reg [31:0] $end
$var integer 32 6" i [31:0] $end
$upscope $end
$upscope $end
$scope module reg_file $end
$var wire 5 7" addr_rd [4:0] $end
$var wire 5 8" addr_rs1 [4:0] $end
$var wire 5 9" addr_rs2 [4:0] $end
$var wire 1 = clk $end
$var wire 32 :" data_rd [31:0] $end
$var wire 32 ;" data_rs1 [31:0] $end
$var wire 32 <" data_rs2 [31:0] $end
$var wire 32 =" reg1 [31:0] $end
$var wire 32 >" reg10 [31:0] $end
$var wire 32 ?" reg29 [31:0] $end
$var wire 32 @" reg30 [31:0] $end
$var wire 32 A" reg4 [31:0] $end
$var wire 1 8 write_enable $end
$var integer 32 B" i [31:0] $end
$upscope $end
$upscope $end
$enddefinitions $end
#0
$dumpvars
b100000 B"
b0 A"
b0 @"
b0 ?"
b0 >"
b0 ="
bx <"
bx ;"
bx :"
bx 9"
bx 8"
bx 7"
b100000000000000000001 6"
bx 5"
b1000000000000000001000100 4"
b10111010110110111010110111111111 3"
bx 2"
bx 1"
bx 0"
bx /"
bx ."
bx -"
bx ,"
bx +"
bx *"
bx )"
x("
x'"
b10111010110110111010110111111111 &"
bx %"
x$"
bx #"
bx ""
bx !"
bx ~
bx }
bx |
b100000000000000000001 {
bx z
b1000000000000000001000100 y
b10111010110110111010110111111111 x
0w
b0 v
b111111111111111111111100 u
b10 t
0s
bx r
bx q
bx p
bx o
bx n
b10111010110110111010110111111111 m
0l
xk
b111111111111111111111100 j
bx i
bx h
bx g
bx f
bx e
bx d
bx c
bx b
0a
0`
bx _
bx ^
bx ]
bx \
x[
xZ
xY
xX
xW
bx V
bx U
bx T
bx S
bx R
bx Q
bx P
bx O
xN
bx M
bx L
bx K
bx J
bx I
bx H
bx G
bx F
bx E
bx D
b111111111111111111111100 C
bx B
0A
bx @
bx ?
b0 >
0=
x<
bx ;
b111111111111111111111100 :
bx 9
x8
x7
bx 6
bx 5
bx 4
bx 3
bx 2
bx 1
bx 0
bx /
bx .
bx -
bx ,
bx +
b10111010110110111010110111111111 *
bx )
bx (
bx '
x&
bx %
bx $
bx #
bx "
bx !
$end
#5
b10010011 *
b10010011 m
b10010011 x
0N
0k
b0 /
b0 P
b0 ;"
b10111 5
b10111 p
b10111 8"
b0 .
b0 O
b0 <"
b1101 4
b1101 o
b1101 9"
b10111010110110111010110111111111 n
b10111010110110111010110111111111 -
b10111010110110111010110111111111 J
b1111111 +
b1101 0
b10111 1
b1000000000000000000000000 :
b1000000000000000000000000 C
b1000000000000000000000000 j
b1000000000000000000000000 u
b10111010110110111010110111111111 ,
b10111010110110111010110111111111 r
b111111111111111111111100 ;
b111111111111111111111100 V
b111111111111111111111100 q
b1 >
1=
#10
0=
#15
b11111111111111111111101110101101 2
b11111111111111111111101110101101 B
b11111111111111111111101110101101 T
b11111111111111111111101110101101 i
b11111111111111111111101110101101 }
b11111111111111111111101110101101 ^
b11111111111111111111101110101101 h
b0 \
b0 f
b11111111111111111111101110101101 b
b10 @
b10 L
b10 ?
b10 K
0&
0<
b100010011 *
b100010011 m
b100010011 x
1[
0W
0Z
b1111111 Q
b10 S
b1011101 R
0X
b0 ]
b0 g
b0 5
b0 p
b0 8"
b0 4
b0 o
b0 9"
b10010011 n
b10010011 -
b10010011 J
b10011 +
b0 0
b0 1
b10 >
b10111010110110111010110111111111 '
b10111010110110111010110111111111 c
b10111010110110111010110111111111 ~
b111111111111111111111100 9
b111111111111111111111100 _
b111111111111111111111100 |
1Y
b0 $
b0 e
b0 !"
b0 d
b10010011 ,
b10010011 r
b1000000000000000000000000 ;
b1000000000000000000000000 V
b1000000000000000000000000 q
b1000000000000000000000100 :
b1000000000000000000000100 C
b1000000000000000000000100 j
b1000000000000000000000100 u
1=
#20
0=
#25
b1000001000111100110011 *
b1000001000111100110011 m
b1000001000111100110011 x
0("
b0 2
b0 B
b0 T
b0 i
b0 }
0'"
b0 ^
b0 h
b10 +"
b10 0"
1$"
b100010011 n
b100010011 -
b100010011 J
b0 b
b10011 Q
b0 S
b0 R
b1111111 #"
b10 %"
b11011 %
b11111111111111111111101110101101 "
b11111111111111111111101110101101 D
b11111111111111111111101110101101 /"
b1000000000000000000001000 :
b1000000000000000000001000 C
b1000000000000000000001000 j
b1000000000000000000001000 u
b100010011 ,
b100010011 r
b1000000000000000000000100 ;
b1000000000000000000000100 V
b1000000000000000000000100 q
b10010011 '
b10010011 c
b10010011 ~
b1000000000000000000000000 9
b1000000000000000000000000 _
b1000000000000000000000000 |
b111111111111111111111100 *"
b11111111111111111111101110101101 3
b11111111111111111111101110101101 U
b11111111111111111111101110101101 ,"
b11111111111111111111101110101101 1"
b0 ."
b10111010110110111010110111111111 )
b10111010110110111010110111111111 F
b10111010110110111010110111111111 -"
b11 >
1=
#30
0=
#35
b111010010011 *
b111010010011 m
b111010010011 x
18
07
b0 +"
b0 0"
0$"
1N
b11011 6
b11011 G
b11011 7"
b1111111 E
b11011 #
b0 )"
b0 2"
b10011 #"
b0 %"
b1 %
b0 "
b0 D
b0 /"
b1 5
b1 p
b1 8"
b1000000010001000100010001 .
b1000000010001000100010001 O
b1000000010001000100010001 <"
b10 4
b10 o
b10 9"
b1000001000111100110011 n
b1000001000111100110011 -
b1000001000111100110011 J
b110011 +
b10 0
b1 1
b100 >
b10111010110110111010110111111111 (
b10111010110110111010110111111111 H
b11111111111111111111101110101101 !
b11111111111111111111101110101101 I
b11111111111111111111101110101101 M
b11111111111111111111101110101101 ""
b11111111111111111111101110101101 :"
b1000000000000000000000000 *"
b0 3
b0 U
b0 ,"
b0 1"
b10010011 )
b10010011 F
b10010011 -"
b100010011 '
b100010011 c
b100010011 ~
b1000000000000000000000100 9
b1000000000000000000000100 _
b1000000000000000000000100 |
b1000001000111100110011 ,
b1000001000111100110011 r
b1000000000000000000001000 ;
b1000000000000000000001000 V
b1000000000000000000001000 q
b1000000000000000000001100 :
b1000000000000000000001100 C
b1000000000000000000001100 j
b1000000000000000000001100 u
1=
#40
0=
#45
b1000000000000110010011 *
b1000000000000110010011 m
b1000000000000110010011 x
b10 b
b0 @
b0 L
b1 ?
b1 K
b0 2
b0 B
b0 T
b0 i
b0 }
b0 ^
b0 h
1Z
0N
b0 5
b0 p
b0 8"
b0 .
b0 O
b0 <"
b0 4
b0 o
b0 9"
b111010010011 n
b111010010011 -
b111010010011 J
b10011 +
b0 0
b0 1
b110011 Q
1X
b10 %
b1 6
b1 G
b1 7"
b10011 E
b1 #
b1000000000000000000010000 :
b1000000000000000000010000 C
b1000000000000000000010000 j
b1000000000000000000010000 u
b111010010011 ,
b111010010011 r
b1000000000000000000001100 ;
b1000000000000000000001100 V
b1000000000000000000001100 q
b1000001000111100110011 '
b1000001000111100110011 c
b1000001000111100110011 ~
b1000000000000000000001000 9
b1000000000000000000001000 _
b1000000000000000000001000 |
0Y
b1000000010001000100010001 $
b1000000010001000100010001 e
b1000000010001000100010001 !"
b1000000000000000000000100 *"
b100010011 )
b100010011 F
b100010011 -"
b10010011 (
b10010011 H
b0 !
b0 I
b0 M
b0 ""
b0 :"
b101 >
1=
#50
0=
#55
b10 @
b10 L
b10 ?
b10 K
b1001101110111110001011001100011 *
b1001101110111110001011001100011 m
b1001101110111110001011001100011 x
17
0Z
1N
b10 6
b10 G
b10 7"
b10 #
b0 )"
b0 2"
b110011 #"
b11110 %
b0 b
b10011 Q
0X
b1000000010001000100010001 .
b1000000010001000100010001 O
b1000000010001000100010001 <"
b10 4
b10 o
b10 9"
b10011 n
b10011 -
b10011 J
b10 0
1A
b110 >
b100010011 (
b100010011 H
b1000000000000000000001000 *"
b1000000010001000100010001 ."
b1000001000111100110011 )
b1000001000111100110011 F
b1000001000111100110011 -"
b111010010011 '
b111010010011 c
b111010010011 ~
b1000000000000000000001100 9
b1000000000000000000001100 _
b1000000000000000000001100 |
1Y
b0 $
b0 e
b0 !"
b1000000000000110010011 ,
b1000000000000110010011 r
b1000000000000000000010000 ;
b1000000000000000000010000 V
b1000000000000000000010000 q
b1000000000000000000010100 :
b1000000000000000000010100 C
b1000000000000000000010100 j
b1000000000000000000010100 u
1=
#60
0=
#65
07
b1000000000000110010011 -
b1000000000000110010011 J
b1000000000000110010011 n
0N
1X
b10011 #"
b11101 %
b11110 6
b11110 G
b11110 7"
b110011 E
b11110 #
0A
b0 .
b0 O
b0 <"
b10011 '
b10011 c
b10011 ~
b1000000000000000000010000 9
b1000000000000000000010000 _
b1000000000000000000010000 |
0Y
b1000000010001000100010001 $
b1000000010001000100010001 e
b1000000010001000100010001 !"
b1000000000000000000001100 *"
b0 ."
b111010010011 )
b111010010011 F
b111010010011 -"
b1000001000111100110011 (
b1000001000111100110011 H
b111 >
1=
#70
0=
#75
b100000000000010010011 *
b100000000000010010011 m
b100000000000010010011 x
b10 2
b10 B
b10 T
b10 i
b10 }
b10 ^
b10 h
b11101 6
b11101 G
b11101 7"
b10011 E
b11101 #
b1000000010001000100010001 )"
b1000000010001000100010001 2"
b0 %
b10 b
0X
b11110 5
b11110 p
b11110 8"
b11101 4
b11101 o
b11101 9"
b10011 n
b10011 -
b10011 J
b1100011 +
b11101 0
b11110 1
1A
b1000 >
b111010010011 (
b111010010011 H
b1000000000000000000010000 *"
b1000000010001000100010001 ."
b10011 )
b10011 F
b10011 -"
b1000000000000110010011 '
b1000000000000110010011 c
b1000000000000110010011 ~
1Y
b0 $
b0 e
b0 !"
b1001101110111110001011001100011 ,
b1001101110111110001011001100011 r
b1000000000000000000010100 ;
b1000000000000000000010100 V
b1000000000000000000010100 q
b1000000000000000000011000 :
b1000000000000000000011000 C
b1000000000000000000011000 j
b1000000000000000000011000 u
1=
#80
0=
#85
b0 2
b0 B
b0 T
b0 i
b0 }
b0 ^
b0 h
b1001101110111110001011001100011 -
b1001101110111110001011001100011 J
b1001101110111110001011001100011 n
b0 b
b0 )"
b0 2"
b11 %
b10 "
b10 D
b10 /"
b0 6
b0 G
b0 7"
b0 #
0A
b10011 '
b10011 c
b10011 ~
b1000000000000000000010100 9
b1000000000000000000010100 _
b1000000000000000000010100 |
b10 3
b10 U
b10 ,"
b10 1"
b0 ."
b1000000000000110010011 )
b1000000000000110010011 F
b1000000000000110010011 -"
b10011 (
b10011 H
b1001 >
1=
#90
0=
#95
b10011001100 ^
b10011001100 h
b10011001100 b
b100000000000100010011 *
b100000000000100010011 m
b100000000000100010011 x
b1000000000000010011100000 2
b1000000000000010011100000 B
b1000000000000010011100000 T
b1000000000000010011100000 i
b1000000000000010011100000 }
b1000000000000000000010100 ]
b1000000000000000000010100 g
0[
b11 6
b11 G
b11 7"
b11 #
b0 %
b0 "
b0 D
b0 /"
b1100011 Q
b1 S
b100110 R
b0 5
b0 p
b0 8"
b1 4
b1 o
b1 9"
b100000000000010010011 n
b100000000000010010011 -
b100000000000010010011 J
b10011 +
b1 0
b0 1
b1010 >
b1000000000000110010011 (
b1000000000000110010011 H
b10 !
b10 I
b10 M
b10 ""
b10 :"
b1000000000000000000010100 *"
b0 3
b0 U
b0 ,"
b0 1"
b10011 )
b10011 F
b10011 -"
b1001101110111110001011001100011 '
b1001101110111110001011001100011 c
b1001101110111110001011001100011 ~
b100000000000010010011 ,
b100000000000010010011 r
b1000000000000000000011000 ;
b1000000000000000000011000 V
b1000000000000000000011000 q
b1000000000000000000011100 :
b1000000000000000000011100 C
b1000000000000000000011100 j
b1000000000000000000011100 u
1=
#100
0=
#105
b1000001000111100110011 *
b1000001000111100110011 m
b1000001000111100110011 x
b1111 &"
b1111 3"
1[
b1 ^
b1 h
b1 +"
b1 0"
b1 2
b1 B
b1 T
b1 i
b1 }
b100000000000100010011 n
b100000000000100010011 -
b100000000000100010011 J
b1 b
b10011 Q
b0 S
b0 R
b1100011 #"
b1 %"
b1100 %
b1000000000000010011100000 "
b1000000000000010011100000 D
b1000000000000010011100000 /"
b0 6
b0 G
b0 7"
b0 #
b0 ]
b0 g
b1000000000000000000100000 :
b1000000000000000000100000 C
b1000000000000000000100000 j
b1000000000000000000100000 u
b100000000000100010011 ,
b100000000000100010011 r
b1000000000000000000011100 ;
b1000000000000000000011100 V
b1000000000000000000011100 q
b100000000000010010011 '
b100000000000010010011 c
b100000000000010010011 ~
b1000000000000000000011000 9
b1000000000000000000011000 _
b1000000000000000000011000 |
b1000000000000010011100000 3
b1000000000000010011100000 U
b1000000000000010011100000 ,"
b1000000000000010011100000 1"
b1001101110111110001011001100011 )
b1001101110111110001011001100011 F
b1001101110111110001011001100011 -"
b10011 (
b10011 H
b0 !
b0 I
b0 M
b0 ""
b0 :"
b1011 >
1=
#110
0=
#115
b10111010110110111010110111111111 &"
b10111010110110111010110111111111 3"
b0 @
b0 L
b1000000000111010010011 *
b1000000000111010010011 m
b1000000000111010010011 x
08
b0 +"
b0 0"
b1100 6
b1100 G
b1100 7"
b1100011 E
b1100 #
b10011 #"
b0 %"
b1 %
b1 "
b1 D
b1 /"
b1 5
b1 p
b1 8"
b10 4
b10 o
b10 9"
b1000001000111100110011 n
b1000001000111100110011 -
b1000001000111100110011 J
b110011 +
b10 0
b1 1
b1100 >
b1001101110111110001011001100011 (
b1001101110111110001011001100011 H
b1000000000000010011100000 !
b1000000000000010011100000 I
b1000000000000010011100000 M
b1000000000000010011100000 ""
b1000000000000010011100000 :"
b1000000000000000000011000 *"
b1 3
b1 U
b1 ,"
b1 1"
b100000000000010010011 )
b100000000000010010011 F
b100000000000010010011 -"
b100000000000100010011 '
b100000000000100010011 c
b100000000000100010011 ~
b1000000000000000000011100 9
b1000000000000000000011100 _
b1000000000000000000011100 |
b1000001000111100110011 ,
b1000001000111100110011 r
b1000000000000000000100000 ;
b1000000000000000000100000 V
b1000000000000000000100000 q
b1000000000000000000100100 :
b1000000000000000000100100 C
b1000000000000000000100100 j
b1000000000000000000100100 u
1=
#120
0=
#125
b10 2
b10 B
b10 T
b10 i
b10 }
b1 ]
b1 g
b1100000000000110010011 *
b1100000000000110010011 m
b1100000000000110010011 x
b10 b
b1 ?
b1 K
18
b1 )"
b1 2"
1Z
17
b0 5
b0 p
b0 8"
b1000000000111010010011 n
b1000000000111010010011 -
b1000000000111010010011 J
b10011 +
b0 1
b110011 Q
b10 %
b1 6
b1 G
b1 7"
b10011 E
b1 #
b1000000000000000000101000 :
b1000000000000000000101000 C
b1000000000000000000101000 j
b1000000000000000000101000 u
b1000000000111010010011 ,
b1000000000111010010011 r
b1000000000000000000100100 ;
b1000000000000000000100100 V
b1000000000000000000100100 q
b1000001000111100110011 '
b1000001000111100110011 c
b1000001000111100110011 ~
b1000000000000000000100000 9
b1000000000000000000100000 _
b1000000000000000000100000 |
b1000000000000000000011100 *"
b100000000000100010011 )
b100000000000100010011 F
b100000000000100010011 -"
b100000000000010010011 (
b100000000000010010011 H
b1 !
b1 I
b1 M
b1 ""
b1 :"
b1101 >
1=
#130
0=
#135
b0 ]
b0 g
b1 @
b1 L
b10 ?
b10 K
b1001011110111110001101001100011 *
b1001011110111110001101001100011 m
b1001011110111110001101001100011 x
0Z
b10 2
b10 B
b10 T
b10 i
b10 }
b10 6
b10 G
b10 7"
b10 #
b110011 #"
b11110 %
b10 "
b10 D
b10 /"
b10011 Q
b10 ^
b10 h
b10 .
b10 O
b10 <"
b11 4
b11 o
b11 9"
b1100000000000110010011 n
b1100000000000110010011 -
b1100000000000110010011 J
b11 0
b1110 >
b100000000000100010011 (
b100000000000100010011 H
b1000000000000000000100000 *"
b10 3
b10 U
b10 ,"
b10 1"
b1000001000111100110011 )
b1000001000111100110011 F
b1000001000111100110011 -"
b1000000000111010010011 '
b1000000000111010010011 c
b1000000000111010010011 ~
b1000000000000000000100100 9
b1000000000000000000100100 _
b1000000000000000000100100 |
b1 ="
b1100000000000110010011 ,
b1100000000000110010011 r
b1000000000000000000101000 ;
b1000000000000000000101000 V
b1000000000000000000101000 q
b1000000000000000000101100 :
b1000000000000000000101100 C
b1000000000000000000101100 j
b1000000000000000000101100 u
1=
#140
0=
#145
b1100000000000010010011 *
b1100000000000010010011 m
b1100000000000010010011 x
b10 @
b10 L
b11 2
b11 B
b11 T
b11 i
b11 }
07
b11 ^
b11 h
b11110 5
b11110 p
b11110 8"
b0 .
b0 O
b0 <"
b11101 4
b11101 o
b11101 9"
b10011 n
b10011 -
b10011 J
b1100011 +
b11101 0
b11110 1
b11 b
1X
b10011 #"
b11101 %
b11110 6
b11110 G
b11110 7"
b110011 E
b11110 #
1A
b0 )"
b0 2"
b1000000000000000000110000 :
b1000000000000000000110000 C
b1000000000000000000110000 j
b1000000000000000000110000 u
b1001011110111110001101001100011 ,
b1001011110111110001101001100011 r
b1000000000000000000101100 ;
b1000000000000000000101100 V
b1000000000000000000101100 q
b1100000000000110010011 '
b1100000000000110010011 c
b1100000000000110010011 ~
b1000000000000000000101000 9
b1000000000000000000101000 _
b1000000000000000000101000 |
0Y
b10 $
b10 e
b10 !"
b1000000000000000000100100 *"
b1000000000111010010011 )
b1000000000111010010011 F
b1000000000111010010011 -"
b1000001000111100110011 (
b1000001000111100110011 H
b10 !
b10 I
b10 M
b10 ""
b10 :"
b1111 >
1=
#150
0=
#155
b0 2
b0 B
b0 T
b0 i
b0 }
b0 ^
b0 h
b11101 6
b11101 G
b11101 7"
b10011 E
b11101 #
b10 )"
b10 2"
b11 %
b11 "
b11 D
b11 /"
b0 b
0X
b10000 >
b1000000000111010010011 (
b1000000000111010010011 H
b1000000000000000000101000 *"
b11 3
b11 U
b11 ,"
b11 1"
b10 ."
b1100000000000110010011 )
b1100000000000110010011 F
b1100000000000110010011 -"
b10011 '
b10011 c
b10011 ~
b1000000000000000000101100 9
b1000000000000000000101100 _
b1000000000000000000101100 |
1Y
b0 $
b0 e
b0 !"
b10 /
b10 P
b10 ;"
b10 @"
1=
#160
0=
#165
b1001011110111110001101001100011 -
b1001011110111110001101001100011 J
b1001011110111110001101001100011 n
b10 2
b10 B
b10 T
b10 i
b10 }
b0 )"
b0 2"
b0 %
b0 "
b0 D
b0 /"
b11 6
b11 G
b11 7"
b11 #
0A
b10 ]
b10 g
b10 .
b10 O
b10 <"
b10 ?"
0Y
b10 d
b1000000000000000000101100 *"
b0 3
b0 U
b0 ,"
b0 1"
b0 ."
b10011 )
b10011 F
b10011 -"
b1100000000000110010011 (
b1100000000000110010011 H
b11 !
b11 I
b11 M
b11 ""
b11 :"
b10001 >
1=
#170
0=
#175
b10010110100 ^
b10010110100 h
b10010110100 b
b11100000000000100010011 *
b11100000000000100010011 m
b11100000000000100010011 x
b1000000000000010011100000 2
b1000000000000010011100000 B
b1000000000000010011100000 T
b1000000000000010011100000 i
b1000000000000010011100000 }
b1000000000000000000101100 ]
b1000000000000000000101100 g
0[
17
1N
b0 6
b0 G
b0 7"
b0 #
b10 "
b10 D
b10 /"
b1100011 Q
b1 S
b100101 R
b0 /
b0 P
b0 ;"
b0 5
b0 p
b0 8"
b11 .
b11 O
b11 <"
b11 4
b11 o
b11 9"
b1100000000000010010011 n
b1100000000000010010011 -
b1100000000000010010011 J
b10011 +
b11 0
b0 1
b10010 >
b10011 (
b10011 H
b0 !
b0 I
b0 M
b0 ""
b0 :"
b10 3
b10 U
b10 ,"
b10 1"
b1001011110111110001101001100011 '
b1001011110111110001101001100011 c
b1001011110111110001101001100011 ~
1Y
b10 $
b10 e
b10 !"
b1100000000000010010011 ,
b1100000000000010010011 r
b1000000000000000000110000 ;
b1000000000000000000110000 V
b1000000000000000000110000 q
b1000000000000000000110100 :
b1000000000000000000110100 C
b1000000000000000000110100 j
b1000000000000000000110100 u
1=
#180
0=
#185
b1000001000111100110011 *
b1000001000111100110011 m
b1000001000111100110011 x
0&
0<
b1111 &"
b1111 3"
1[
07
0N
b11 ^
b11 h
b1 +"
b1 0"
1$"
b11 2
b11 B
b11 T
b11 i
b11 }
b0 .
b0 O
b0 <"
b111 4
b111 o
b111 9"
b11100000000000100010011 n
b11100000000000100010011 -
b11100000000000100010011 J
b111 0
b11 b
b10011 Q
b0 S
b0 R
1X
b1100011 #"
b1 %"
b10100 %
b1000000000000010011100000 "
b1000000000000010011100000 D
b1000000000000010011100000 /"
b0 ]
b0 g
b10 )"
b10 2"
b1000000000000000000111000 :
b1000000000000000000111000 C
b1000000000000000000111000 j
b1000000000000000000111000 u
b11100000000000100010011 ,
b11100000000000100010011 r
b1000000000000000000110100 ;
b1000000000000000000110100 V
b1000000000000000000110100 q
b1100000000000010010011 '
b1100000000000010010011 c
b1100000000000010010011 ~
b1000000000000000000110000 9
b1000000000000000000110000 _
b1000000000000000000110000 |
b11 $
b11 e
b11 !"
0Y
b0 d
b1000000000000010011100000 3
b1000000000000010011100000 U
b1000000000000010011100000 ,"
b1000000000000010011100000 1"
b10 ."
b1001011110111110001101001100011 )
b1001011110111110001101001100011 F
b1001011110111110001101001100011 -"
b10 !
b10 I
b10 M
b10 ""
b10 :"
b10011 >
1=
#190
0=
#195
b10111010110110111010110111111111 &"
b10111010110110111010110111111111 3"
b101000000000111010010011 *
b101000000000111010010011 m
b101000000000111010010011 x
08
b111 2
b111 B
b111 T
b111 i
b111 }
b0 +"
b0 0"
0$"
b111 ^
b111 h
1N
b10100 6
b10100 G
b10100 7"
b1100011 E
b10100 #
b11 )"
b11 2"
b10011 #"
b0 %"
b1 %
b11 "
b11 D
b11 /"
b111 b
0X
b1 /
b1 P
b1 ;"
b1 5
b1 p
b1 8"
b1 .
b1 O
b1 <"
b10 4
b10 o
b10 9"
b1000001000111100110011 n
b1000001000111100110011 -
b1000001000111100110011 J
b110011 +
b10 0
b1 1
b10100 >
b1001011110111110001101001100011 (
b1001011110111110001101001100011 H
b1000000000000010011100000 !
b1000000000000010011100000 I
b1000000000000010011100000 M
b1000000000000010011100000 ""
b1000000000000010011100000 :"
b1000000000000000000110000 *"
b11 3
b11 U
b11 ,"
b11 1"
b11 ."
b1100000000000010010011 )
b1100000000000010010011 F
b1100000000000010010011 -"
b11100000000000100010011 '
b11100000000000100010011 c
b11100000000000100010011 ~
b1000000000000000000110100 9
b1000000000000000000110100 _
b1000000000000000000110100 |
1Y
b0 $
b0 e
b0 !"
b1000001000111100110011 ,
b1000001000111100110011 r
b1000000000000000000111000 ;
b1000000000000000000111000 V
b1000000000000000000111000 q
b1000000000000000000111100 :
b1000000000000000000111100 C
b1000000000000000000111100 j
b1000000000000000000111100 u
1=
#200
0=
#205
b10000000000000110010011 *
b10000000000000110010011 m
b10000000000000110010011 x
b10 b
b0 @
b0 L
b1 ?
b1 K
b111 ^
b111 h
18
1Z
0N
b1010 2
b1010 B
b1010 T
b1010 i
b1010 }
b0 /
b0 P
b0 ;"
b0 5
b0 p
b0 8"
b0 .
b0 O
b0 <"
b1010 4
b1010 o
b1010 9"
b101000000000111010010011 n
b101000000000111010010011 -
b101000000000111010010011 J
b10011 +
b1010 0
b0 1
b110011 Q
b0 )"
b0 2"
b10 %
b111 "
b111 D
b111 /"
b1 6
b1 G
b1 7"
b10011 E
b1 #
b11 ]
b11 g
b1000000000000000001000000 :
b1000000000000000001000000 C
b1000000000000000001000000 j
b1000000000000000001000000 u
b101000000000111010010011 ,
b101000000000111010010011 r
b1000000000000000000111100 ;
b1000000000000000000111100 V
b1000000000000000000111100 q
b1000001000111100110011 '
b1000001000111100110011 c
b1000001000111100110011 ~
b1000000000000000000111000 9
b1000000000000000000111000 _
b1000000000000000000111000 |
b1 $
b1 e
b1 !"
1Y
b1 d
b1000000000000000000110100 *"
b111 3
b111 U
b111 ,"
b111 1"
b0 ."
b11100000000000100010011 )
b11100000000000100010011 F
b11100000000000100010011 -"
b1100000000000010010011 (
b1100000000000010010011 H
b11 !
b11 I
b11 M
b11 ""
b11 :"
b10101 >
1=
#210
0=
