PD5/testbench.vcd
$date
	Mon Jul 13 02:25:35 2020
$end
$version
	Icarus Verilog
$end
$timescale
	1s
$end
$scope module dut $end
$var wire 32 ! write_data [31:0] $end
$var wire 32 " wb [31:0] $end
$var wire 32 # imm [31:0] $end
$var wire 32 $ i_mem_out [31:0] $end
$var wire 32 % data_rs2 [31:0] $end
$var wire 32 & data_rs1 [31:0] $end
$var wire 32 ' d_mem_out [31:0] $end
$var wire 5 ( addr_rs2 [4:0] $end
$var wire 5 ) addr_rs1 [4:0] $end
$var wire 5 * addr_rd [4:0] $end
$var wire 2 + access_size [1:0] $end
$var wire 2 , WBSel [1:0] $end
$var wire 1 - RegWE $end
$var wire 1 . RdUn $end
$var wire 32 / PC_next [31:0] $end
$var wire 1 0 PCSel $end
$var wire 32 1 PC [31:0] $end
$var wire 1 2 MemRW $end
$var wire 1 3 BrUn $end
$var wire 1 4 BrLt $end
$var wire 1 5 BrEq $end
$var wire 1 6 BSel $end
$var wire 1 7 ASel $end
$var wire 32 8 ALU_out [31:0] $end
$var wire 4 9 ALUSel [3:0] $end
$var reg 1 : clk $end
$var reg 32 ; instruction [31:0] $end
$var reg 1 < state $end
$var integer 32 = i [31:0] $end
$scope module PCMux $end
$var wire 1 : clk $end
$var wire 1 0 PCSel $end
$var wire 32 > ALU_out [31:0] $end
$var reg 32 ? PC [31:0] $end
$var reg 32 @ PC_next [31:0] $end
$upscope $end
$scope module WBMux1 $end
$var wire 1 : clk $end
$var wire 32 A pc_next [31:0] $end
$var wire 2 B sel [1:0] $end
$var wire 32 C dmem [31:0] $end
$var wire 32 D alu [31:0] $end
$var reg 32 E out [31:0] $end
$upscope $end
$scope module d_mem $end
$var wire 1 : clk $end
$var wire 1 2 w_enable $end
$var wire 32 F data_in [31:0] $end
$var wire 32 G address [31:0] $end
$var wire 2 H access_size [1:0] $end
$var wire 1 . RdUn $end
$var reg 32 I data_out [31:0] $end
$var reg 32 J relevant_addr [31:0] $end
$var reg 32 K t_reg [31:0] $end
$var integer 32 L i [31:0] $end
$upscope $end
$scope module execute $end
$var wire 32 M PC_d [31:0] $end
$var wire 32 N PC_x [31:0] $end
$var wire 1 : clk $end
$var wire 32 O inst_d [31:0] $end
$var wire 32 P inst_x [31:0] $end
$var wire 32 Q rs1 [31:0] $end
$var wire 32 R rs2 [31:0] $end
$var wire 32 S write_data [31:0] $end
$var wire 32 T rs2_d [31:0] $end
$var wire 32 U rs1_d [31:0] $end
$var wire 7 V opcode [6:0] $end
$var wire 7 W funct7 [6:0] $end
$var wire 3 X funct3 [2:0] $end
$var wire 1 Y PC_m $end
$var wire 1 Z BrUn $end
$var wire 1 4 BrLt $end
$var wire 1 5 BrEq $end
$var wire 1 [ BSel $end
$var wire 1 \ ASel $end
$var wire 32 ] ALU_out [31:0] $end
$var wire 32 ^ ALU_in2 [31:0] $end
$var wire 32 _ ALU_in1 [31:0] $end
$var reg 4 ` ALUSel [3:0] $end
$var reg 32 a imm [31:0] $end
$scope module alu1 $end
$var wire 4 b ALUsel [3:0] $end
$var wire 32 c rs1 [31:0] $end
$var wire 32 d rs2 [31:0] $end
$var reg 32 e alu_res [31:0] $end
$upscope $end
$scope task decode_bType $end
$upscope $end
$scope task decode_iType $end
$upscope $end
$scope task decode_jType $end
$upscope $end
$scope task decode_rType $end
$upscope $end
$scope task decode_sType $end
$upscope $end
$scope task decode_uType $end
$upscope $end
$upscope $end
$scope module fd1 $end
$var wire 1 5 BrEq $end
$var wire 1 4 BrLt $end
$var wire 32 f PC [31:0] $end
$var wire 1 : clk $end
$var wire 32 g instruction [31:0] $end
$var wire 7 h opcode [6:0] $end
$var wire 7 i funct7 [6:0] $end
$var wire 3 j funct3 [2:0] $end
$var wire 5 k addr_rs2 [4:0] $end
$var wire 5 l addr_rs1 [4:0] $end
$var wire 5 m addr_rd [4:0] $end
$var wire 1 3 BrUn $end
$var reg 4 n ALUSel [3:0] $end
$var reg 1 7 ASel $end
$var reg 1 6 BSel $end
$var reg 1 2 MemRW $end
$var reg 1 0 PCSel $end
$var reg 1 . RdUn $end
$var reg 1 - RegWE $end
$var reg 2 o WBSel [1:0] $end
$var reg 2 p access_size [1:0] $end
$var reg 32 q imm [31:0] $end
$scope task decode_bType $end
$upscope $end
$scope task decode_iType $end
$upscope $end
$scope task decode_jType $end
$upscope $end
$scope task decode_rType $end
$upscope $end
$scope task decode_sType $end
$upscope $end
$scope task decode_uType $end
$upscope $end
$upscope $end
$scope module i_mem $end
$var wire 1 r RdUn $end
$var wire 2 s access_size [1:0] $end
$var wire 32 t address [31:0] $end
$var wire 1 : clk $end
$var wire 32 u data_in [31:0] $end
$var wire 1 v w_enable $end
$var reg 32 w data_out [31:0] $end
$var reg 32 x relevant_addr [31:0] $end
$var reg 32 y t_reg [31:0] $end
$var integer 32 z i [31:0] $end
$upscope $end
$scope module reg_file $end
$var wire 5 { addr_rd [4:0] $end
$var wire 5 | addr_rs1 [4:0] $end
$var wire 5 } addr_rs2 [4:0] $end
$var wire 1 : clk $end
$var wire 32 ~ data_rd [31:0] $end
$var wire 32 !" data_rs1 [31:0] $end
$var wire 32 "" data_rs2 [31:0] $end
$var wire 1 - write_enable $end
$var integer 32 #" i [31:0] $end
$upscope $end
$upscope $end
$enddefinitions $end
#0
$dumpvars
b100000 #"
bx ""
bx !"
bx ~
bx }
bx |
bx {
b100000000000000000001 z
bx y
b1000000000000000001000100 x
b10010011 w
0v
b0 u
b1000000000000000000000000 t
b10 s
0r
bx q
b0 p
b1 o
b0 n
bx m
bx l
bx k
bx j
bx i
bx h
bx g
b111111111111111111111100 f
bx e
bx d
bx c
bx b
bx a
bx `
bx _
bx ^
bx ]
x\
x[
xZ
0Y
bx X
bx W
bx V
bx U
bx T
bx S
bx R
bx Q
bx P
bx O
b111111111111111111111100 N
b111111111111111111111100 M
b100000000000000000001 L
bx K
b1000000000000000001000100 J
bx I
b0 H
bx G
bx F
bx E
bx D
bx C
b1 B
b1000000000000000000000000 A
b1000000000000000000000000 @
b111111111111111111111100 ?
bx >
b0 =
0<
bx ;
0:
b0 9
bx 8
x7
x6
x5
x4
x3
x2
b111111111111111111111100 1
10
b1000000000000000000000000 /
0.
x-
b1 ,
b0 +
bx *
bx )
bx (
bx '
bx &
bx %
b10010011 $
bx #
bx "
bx !
$end
#5
b0 "
b0 E
b0 ~
b100010011 $
b100010011 w
b10111010110110111010110111111111 '
b10111010110110111010110111111111 C
b10111010110110111010110111111111 I
b0 8
b0 >
b0 D
b0 G
b0 ]
b0 e
b0 ^
b0 d
b0 a
b0 `
b0 b
b1000000000000000000000100 /
b1000000000000000000000100 @
b1000000000000000000000100 t
1-
02
06
17
b0 #
b0 q
1\
0Z
03
0[
04
b0 _
b0 c
b10011 V
b0 X
b0 W
b10011 h
b1 *
b1 m
b1 {
b0 j
15
b0 Q
b0 &
b0 U
b0 !"
b0 )
b0 l
b0 |
b0 !
b0 F
b0 S
b0 R
b0 %
b0 T
b0 ""
b0 (
b0 k
b0 }
b0 i
b1000000000000000000000100 A
b1000000000000000000000000 1
b1000000000000000000000000 ?
b1000000000000000000000000 M
b1000000000000000000000000 N
b1000000000000000000000000 f
b10010011 P
b10010011 ;
b10010011 O
b10010011 g
1:
#10
0:
#15
b1000001000111100110011 $
b1000001000111100110011 w
b1000000000000000000001000 /
b1000000000000000000001000 @
b1000000000000000000001000 t
b10 *
b10 m
b10 {
b100010011 P
b100010011 ;
b100010011 O
b100010011 g
b1000000000000000000001000 A
b1000000000000000000000100 1
b1000000000000000000000100 ?
b1000000000000000000000100 M
b1000000000000000000000100 N
b1000000000000000000000100 f
1:
#20
0:
#25
b111010010011 $
b111010010011 w
b10 a
b1000000000000000000001100 /
b1000000000000000000001100 @
b1000000000000000000001100 t
16
1[
b110011 V
b110011 h
b11110 *
b11110 m
b11110 {
b1 )
b1 l
b1 |
b10 (
b10 k
b10 }
b1000000000000000000001100 A
b1000000000000000000001000 1
b1000000000000000000001000 ?
b1000000000000000000001000 M
b1000000000000000000001000 N
b1000000000000000000001000 f
b1000001000111100110011 P
b1000001000111100110011 ;
b1000001000111100110011 O
b1000001000111100110011 g
1:
#30
0:
#35
b1000000000000110010011 $
b1000000000000110010011 w
b0 "
b0 E
b0 ~
b0 a
06
b1000000000000000000010000 /
b1000000000000000000010000 @
b1000000000000000000010000 t
b0 8
b0 >
b0 D
b0 G
b0 ]
b0 e
b0 ^
b0 d
0[
b10011 V
b10011 h
b11101 *
b11101 m
b11101 {
b0 )
b0 l
b0 |
b0 (
b0 k
b0 }
b111010010011 P
b111010010011 ;
b111010010011 O
b111010010011 g
b1000000000000000000010000 A
b1000000000000000000001100 1
b1000000000000000000001100 ?
b1000000000000000000001100 M
b1000000000000000000001100 N
b1000000000000000000001100 f
1:
#40
0:
#45
b1001101110111110001011001100011 $
b1001101110111110001011001100011 w
b1000000000000000000010100 /
b1000000000000000000010100 @
b1000000000000000000010100 t
b10 #
b10 q
b11 *
b11 m
b11 {
b10 (
b10 k
b10 }
b1000000000000000000010100 A
b1000000000000000000010000 1
b1000000000000000000010000 ?
b1000000000000000000010000 M
b1000000000000000000010000 N
b1000000000000000000010000 f
b1000000000000110010011 P
b1000000000000110010011 ;
b1000000000000110010011 O
b1000000000000110010011 g
1:
#50
0:
#55
b100000000000010010011 $
b100000000000010010011 w
b10011001100 ^
b10011001100 d
b1111 "
b1111 E
b1111 ~
b1111 '
b1111 C
b1111 I
b10011001100 a
b0 ,
b0 B
b0 o
0-
07
b1000000000000000000011000 /
b1000000000000000000011000 @
b1000000000000000000011000 t
b10011001100 #
b10011001100 q
b1000000000000010011100000 8
b1000000000000010011100000 >
b1000000000000010011100000 D
b1000000000000010011100000 G
b1000000000000010011100000 ]
b1000000000000010011100000 e
b1000000000000000000010100 _
b1000000000000000000010100 c
0\
b1100011 V
b1 X
b100110 W
b1100011 h
b1100 *
b1100 m
b1100 {
b1 j
b11110 )
b11110 l
b11110 |
b11101 (
b11101 k
b11101 }
b100110 i
b1001101110111110001011001100011 P
b1001101110111110001011001100011 ;
b1001101110111110001011001100011 O
b1001101110111110001011001100011 g
b1000000000000000000011000 A
b1000000000000000000010100 1
b1000000000000000000010100 ?
b1000000000000000000010100 M
b1000000000000000000010100 N
b1000000000000000000010100 f
1:
#60
0:
#65
b100000000000100010011 $
b100000000000100010011 w
b1 "
b1 E
b1 ~
b1 ^
b1 d
b10111010110110111010110111111111 '
b10111010110110111010110111111111 C
b10111010110110111010110111111111 I
b1 a
b1000000000000000000011100 /
b1000000000000000000011100 @
b1000000000000000000011100 t
b1 ,
b1 B
b1 o
1-
17
b1 #
b1 q
1\
b1 8
b1 >
b1 D
b1 G
b1 ]
b1 e
b0 _
b0 c
b10011 V
b0 X
b0 W
b10011 h
b1 *
b1 m
b1 {
b0 j
b0 )
b0 l
b0 |
b1 (
b1 k
b1 }
b0 i
b1000000000000000000011100 A
b1000000000000000000011000 1
b1000000000000000000011000 ?
b1000000000000000000011000 M
b1000000000000000000011000 N
b1000000000000000000011000 f
b100000000000010010011 P
b100000000000010010011 ;
b100000000000010010011 O
b100000000000010010011 g
1:
#70
0:
#75
b1000001000111100110011 $
b1000001000111100110011 w
b1000000000000000000100000 /
b1000000000000000000100000 @
b1000000000000000000100000 t
b10 *
b10 m
b10 {
x4
b100000000000100010011 P
b100000000000100010011 ;
b100000000000100010011 O
b100000000000100010011 g
b1 !
b1 F
b1 S
x5
b0x R
b1 %
b1 T
b1 ""
b1000000000000000000100000 A
b1000000000000000000011100 1
b1000000000000000000011100 ?
b1000000000000000000011100 M
b1000000000000000000011100 N
b1000000000000000000011100 f
1:
#80
0:
#85
b1000000000111010010011 $
b1000000000111010010011 w
bx "
bx E
bx ~
b10 a
b1000000000000000000100100 /
b1000000000000000000100100 @
b1000000000000000000100100 t
16
b0x ^
b0x d
1[
bx 8
bx >
bx D
bx G
bx ]
bx e
b0x _
b0x c
b110011 V
b110011 h
b11110 *
b11110 m
b11110 {
b0x Q
b1 &
b1 U
b1 !"
b1 )
b1 l
b1 |
b10 (
b10 k
b10 }
b1000000000000000000100100 A
b1000000000000000000100000 1
b1000000000000000000100000 ?
b1000000000000000000100000 M
b1000000000000000000100000 N
b1000000000000000000100000 f
b1000001000111100110011 P
b1000001000111100110011 ;
b1000001000111100110011 O
b1000001000111100110011 g
1:
#90
0:
#95
b1100000000000110010011 $
b1100000000000110010011 w
b10 "
b10 E
b10 ~
06
b10 #
b10 q
b1000000000000000000101000 /
b1000000000000000000101000 @
b1000000000000000000101000 t
b10 8
b10 >
b10 D
b10 G
b10 ]
b10 e
b10 ^
b10 d
0[
b0 _
b0 c
b10011 V
b10011 h
b11101 *
b11101 m
b11101 {
b0 Q
b0 &
b0 U
b0 !"
b0 )
b0 l
b0 |
b1000000000111010010011 P
b1000000000111010010011 ;
b1000000000111010010011 O
b1000000000111010010011 g
b1000000000000000000101000 A
b1000000000000000000100100 1
b1000000000000000000100100 ?
b1000000000000000000100100 M
b1000000000000000000100100 N
b1000000000000000000100100 f
1:
#100
0:
#105
b1001011110111110001101001100011 $
b1001011110111110001101001100011 w
b1000000000000000000101100 /
b1000000000000000000101100 @
b1000000000000000000101100 t
b11 #
b11 q
04
b11 *
b11 m
b11 {
b0 !
b0 F
b0 S
15
b0 R
b0 %
b0 T
b0 ""
b11 (
b11 k
b11 }
b1000000000000000000101100 A
b1000000000000000000101000 1
b1000000000000000000101000 ?
b1000000000000000000101000 M
b1000000000000000000101000 N
b1000000000000000000101000 f
b1100000000000110010011 P
b1100000000000110010011 ;
b1100000000000110010011 O
b1100000000000110010011 g
1:
#110
0:
#115
b1111111100000000000000001111 $
b1111111100000000000000001111 w
b10010110100 ^
b10010110100 d
b1111 '
b1111 C
b1111 I
b1111 "
b1111 E
b1111 ~
b10010110100 a
00
b0 ,
b0 B
b0 o
0-
07
b1000000000000010011100000 /
b1000000000000010011100000 @
b1000000000000010011100000 t
b10010110100 #
b10010110100 q
0\
b1000000000000010011100000 8
b1000000000000010011100000 >
b1000000000000010011100000 D
b1000000000000010011100000 G
b1000000000000010011100000 ]
b1000000000000010011100000 e
b1000000000000000000101100 _
b1000000000000000000101100 c
b1100011 V
b1 X
b100101 W
b1100011 h
b10100 *
b10100 m
b10100 {
b1 j
bx Q
bx &
bx U
bx !"
b11110 )
b11110 l
b11110 |
b11101 (
b11101 k
b11101 }
b100101 i
x4
b1001011110111110001101001100011 P
b1001011110111110001101001100011 ;
b1001011110111110001101001100011 O
b1001011110111110001101001100011 g
b10 !
b10 F
b10 S
x5
b0x0 R
b10 %
b10 T
b10 ""
b1000000000000000000110000 A
b1000000000000000000101100 1
b1000000000000000000101100 ?
b1000000000000000000101100 M
b1000000000000000000101100 N
b1000000000000000000101100 f
1:
#120
0:
#125
b11000000001100011 $
b11000000001100011 w
b11111111 "
b11111111 E
b11111111 ~
b11111111 ^
b11111111 d
b1000000000000010011100100 /
b1000000000000010011100100 @
b1000000000000010011100100 t
b10111010110110111010110111111111 '
b10111010110110111010110111111111 C
b10111010110110111010110111111111 I
b11111111 a
b1 ,
b1 B
b1 o
16
17
10
1\
b11111111 8
b11111111 >
b11111111 D
b11111111 G
b11111111 ]
b11111111 e
04
b0 _
b0 c
b1111 V
b0 X
b111 W
b1111 h
b0 *
b0 m
b0 {
b0 j
15
b0 Q
b0 &
b0 U
b0 !"
b0 )
b0 l
b0 |
b0 !
b0 F
b0 S
b0 R
b0 %
b0 T
b0 ""
b11111 (
b11111 k
b11111 }
b111 i
b1000000000000010011100100 A
b1000000000000010011100000 1
b1000000000000010011100000 ?
b1000000000000010011100000 M
b1000000000000010011100000 N
b1000000000000010011100000 f
b1111111100000000000000001111 P
b1111111100000000000000001111 ;
b1111111100000000000000001111 O
b1111111100000000000000001111 g
1:
#130
0:
#135
b100011001000110010011 $
b100011001000110010011 w
b0 ^
b0 d
b1100011 '
b1100011 C
b1100011 I
b1100011 "
b1100011 E
b1100011 ~
b0 a
b0 ,
b0 B
b0 o
06
07
b0 #
b0 q
b1000000000000010011101000 /
b1000000000000010011101000 @
b1000000000000010011101000 t
0\
b1000000000000010011100100 8
b1000000000000010011100100 >
b1000000000000010011100100 D
b1000000000000010011100100 G
b1000000000000010011100100 ]
b1000000000000010011100100 e
x4
b1000000000000010011100100 _
b1000000000000010011100100 c
b1100011 V
b0 W
b1100011 h
x5
b0x0 Q
b10 &
b10 U
b10 !"
b11 )
b11 l
b11 |
b0 (
b0 k
b0 }
b0 i
b11000000001100011 P
b11000000001100011 ;
b11000000001100011 O
b11000000001100011 g
b1000000000000010011101000 A
b1000000000000010011100100 1
b1000000000000010011100100 ?
b1000000000000010011100100 M
b1000000000000010011100100 N
b1000000000000010011100100 f
1:
#140
0:
#145
b100011110000110010011 $
b100011110000110010011 w
b0x00 "
b0x00 E
b0x00 ~
b1 ^
b1 d
b10111010110110111010110111111111 '
b10111010110110111010110111111111 C
b10111010110110111010110111111111 I
b1 a
b11 `
b11 b
b1000000000000010011101100 /
b1000000000000010011101100 @
b1000000000000010011101100 t
b11 9
b11 n
b1 ,
b1 B
b1 o
1-
17
b1 #
b1 q
1\
b0x00 8
b0x00 >
b0x00 D
b0x00 G
b0x00 ]
b0x00 e
b0x0 _
b0x0 c
b10011 V
b1 X
b10011 h
b11 *
b11 m
b11 {
b1 j
b1 !
b1 F
b1 S
b0x R
b1 %
b1 T
b1 ""
b1 (
b1 k
b1 }
b1000000000000010011101100 A
b1000000000000010011101000 1
b1000000000000010011101000 ?
b1000000000000010011101000 M
b1000000000000010011101000 N
b1000000000000010011101000 f
b100011001000110010011 P
b100011001000110010011 ;
b100011001000110010011 O
b100011001000110010011 g
1:
#150
0:
#155
b1110011 $
b1110011 w
b0x01 "
b0x01 E
b0x01 ~
b10 `
b10 b
b10 9
b10 n
b1000000000000010011110000 /
b1000000000000010011110000 @
b1000000000000010011110000 t
b0x01 8
b0x01 >
b0x01 D
b0x01 G
b0x01 ]
b0x01 e
b110 X
b110 j
b0x00 _
b0x00 c
b100011110000110010011 P
b100011110000110010011 ;
b100011110000110010011 O
b100011110000110010011 g
b0x00 Q
b0x00 &
b0x00 U
b0x00 !"
b1000000000000010011110000 A
b1000000000000010011101100 1
b1000000000000010011101100 ?
b1000000000000010011101100 M
b1000000000000010011101100 N
b1000000000000010011101100 f
1:
#160
0:
#165
b1111111100000000000000001111 $
b1111111100000000000000001111 w
b0 ^
b0 d
b0 "
b0 E
b0 ~
b0 a
b1000000000000010011110100 /
b1000000000000010011110100 @
b1000000000000010011110100 t
b0 8
b0 >
b0 D
b0 G
b0 ]
b0 e
b0 `
b0 b
04
b0 _
b0 c
b1110011 V
b0 X
b1110011 h
b0 *
b0 m
b0 {
b0 j
15
b0 )
b0 l
b0 |
b0 !
b0 F
b0 S
b0 R
b0 %
b0 T
b0 ""
b0 (
b0 k
b0 }
b1000000000000010011110100 A
b1000000000000010011110000 1
b1000000000000010011110000 ?
b1000000000000010011110000 M
b1000000000000010011110000 N
b1000000000000010011110000 f
b0 Q
b0 &
b0 U
b0 !"
b1110011 P
b1110011 ;
b1110011 O
b1110011 g
1:
