PD5/testbench.vcd
$date
	Mon Jul 13 18:15:02 2020
$end
$version
	Icarus Verilog
$end
$timescale
	1s
$end
$scope module dut $end
$var wire 32 ! PC_x [31:0] $end
$var wire 32 " d_mem_out [31:0] $end
$var wire 32 # wb [31:0] $end
$var wire 32 $ write_data [31:0] $end
$var wire 32 % inst_x [31:0] $end
$var wire 32 & imm [31:0] $end
$var wire 32 ' i_mem_out [31:0] $end
$var wire 32 ( data_rs2 [31:0] $end
$var wire 32 ) data_rs1 [31:0] $end
$var wire 5 * addr_rs2 [4:0] $end
$var wire 5 + addr_rs1 [4:0] $end
$var wire 5 , addr_rd [4:0] $end
$var wire 2 - access_size [1:0] $end
$var wire 2 . WBSel [1:0] $end
$var wire 1 / RegWE $end
$var wire 1 0 RdUn $end
$var wire 32 1 PC_next [31:0] $end
$var wire 1 2 PCSel $end
$var wire 32 3 PC [31:0] $end
$var wire 1 4 MemRW $end
$var wire 1 5 BrUn $end
$var wire 1 6 BrLt $end
$var wire 1 7 BrEq $end
$var wire 1 8 BSel $end
$var wire 1 9 ASel $end
$var wire 32 : ALU_out [31:0] $end
$var wire 4 ; ALUSel [3:0] $end
$var reg 1 < clk $end
$var reg 32 = instruction [31:0] $end
$var reg 1 > state $end
$var integer 32 ? i [31:0] $end
$scope module PCMux $end
$var wire 1 < clk $end
$var wire 1 2 PCSel $end
$var wire 32 @ ALU_out [31:0] $end
$var reg 32 A PC [31:0] $end
$var reg 32 B PC_next [31:0] $end
$upscope $end
$scope module WBMux1 $end
$var wire 1 < clk $end
$var wire 32 C dmem [31:0] $end
$var wire 32 D pc_next [31:0] $end
$var wire 2 E sel [1:0] $end
$var wire 32 F alu [31:0] $end
$var reg 32 G out [31:0] $end
$upscope $end
$scope module execute $end
$var wire 1 H PCSel $end
$var wire 32 I PC_d [31:0] $end
$var wire 32 J PC_x [31:0] $end
$var wire 1 < clk $end
$var wire 32 K inst_d [31:0] $end
$var wire 32 L inst_x [31:0] $end
$var wire 32 M rs1 [31:0] $end
$var wire 32 N rs2 [31:0] $end
$var wire 32 O write_data [31:0] $end
$var wire 32 P rs2_d [31:0] $end
$var wire 32 Q rs1_d [31:0] $end
$var wire 7 R opcode [6:0] $end
$var wire 7 S funct7 [6:0] $end
$var wire 3 T funct3 [2:0] $end
$var wire 1 U PC_m $end
$var wire 1 V BrUn $end
$var wire 1 6 BrLt $end
$var wire 1 7 BrEq $end
$var wire 1 W BSel $end
$var wire 1 X ASel $end
$var wire 32 Y ALU_out [31:0] $end
$var wire 32 Z ALU_in2 [31:0] $end
$var wire 32 [ ALU_in1 [31:0] $end
$var reg 4 \ ALUSel [3:0] $end
$var reg 32 ] imm [31:0] $end
$scope module alu1 $end
$var wire 4 ^ ALUsel [3:0] $end
$var wire 32 _ rs1 [31:0] $end
$var wire 32 ` rs2 [31:0] $end
$var reg 32 a alu_res [31:0] $end
$upscope $end
$scope task decode_bType $end
$upscope $end
$scope task decode_iType $end
$upscope $end
$scope task decode_jType $end
$upscope $end
$scope task decode_rType $end
$upscope $end
$scope task decode_sType $end
$upscope $end
$scope task decode_uType $end
$upscope $end
$upscope $end
$scope module fd1 $end
$var wire 1 7 BrEq $end
$var wire 1 6 BrLt $end
$var wire 32 b PC [31:0] $end
$var wire 1 < clk $end
$var wire 32 c instruction [31:0] $end
$var wire 7 d opcode [6:0] $end
$var wire 7 e funct7 [6:0] $end
$var wire 3 f funct3 [2:0] $end
$var wire 5 g addr_rs2 [4:0] $end
$var wire 5 h addr_rs1 [4:0] $end
$var wire 5 i addr_rd [4:0] $end
$var wire 1 5 BrUn $end
$var reg 4 j ALUSel [3:0] $end
$var reg 1 9 ASel $end
$var reg 1 8 BSel $end
$var reg 1 4 MemRW $end
$var reg 1 2 PCSel $end
$var reg 1 0 RdUn $end
$var reg 1 / RegWE $end
$var reg 2 k WBSel [1:0] $end
$var reg 2 l access_size [1:0] $end
$var reg 32 m imm [31:0] $end
$scope task decode_bType $end
$upscope $end
$scope task decode_iType $end
$upscope $end
$scope task decode_jType $end
$upscope $end
$scope task decode_rType $end
$upscope $end
$scope task decode_sType $end
$upscope $end
$scope task decode_uType $end
$upscope $end
$upscope $end
$scope module i_mem $end
$var wire 1 n RdUn $end
$var wire 2 o access_size [1:0] $end
$var wire 32 p address [31:0] $end
$var wire 1 < clk $end
$var wire 32 q data_in [31:0] $end
$var wire 1 r w_enable $end
$var reg 32 s data_out [31:0] $end
$var reg 32 t relevant_addr [31:0] $end
$var reg 32 u t_reg [31:0] $end
$var integer 32 v i [31:0] $end
$upscope $end
$scope module mem_stage $end
$var wire 32 w PC_x [31:0] $end
$var wire 1 x WEn $end
$var wire 32 y alu_x [31:0] $end
$var wire 1 < clk $end
$var wire 32 z inst_x [31:0] $end
$var wire 32 { rs2_x [31:0] $end
$var wire 1 | opcode $end
$var wire 1 } funct7 $end
$var wire 3 ~ funct3 [2:0] $end
$var wire 32 !" d_mem_out [31:0] $end
$var wire 1 "" RdUn $end
$var reg 32 #" PC_m [31:0] $end
$var reg 2 $" access_size [1:0] $end
$var reg 32 %" alu_m [31:0] $end
$var reg 32 &" inst_m [31:0] $end
$var reg 32 '" rs2_m [31:0] $end
$var reg 32 (" wb_m [31:0] $end
$scope module d_mem $end
$var wire 1 "" RdUn $end
$var wire 2 )" access_size [1:0] $end
$var wire 32 *" address [31:0] $end
$var wire 1 < clk $end
$var wire 32 +" data_in [31:0] $end
$var wire 1 x w_enable $end
$var reg 32 ," data_out [31:0] $end
$var reg 32 -" relevant_addr [31:0] $end
$var reg 32 ." t_reg [31:0] $end
$var integer 32 /" i [31:0] $end
$upscope $end
$upscope $end
$scope module reg_file $end
$var wire 5 0" addr_rd [4:0] $end
$var wire 5 1" addr_rs1 [4:0] $end
$var wire 5 2" addr_rs2 [4:0] $end
$var wire 1 < clk $end
$var wire 32 3" data_rd [31:0] $end
$var wire 32 4" data_rs1 [31:0] $end
$var wire 32 5" data_rs2 [31:0] $end
$var wire 1 / write_enable $end
$var integer 32 6" i [31:0] $end
$upscope $end
$upscope $end
$enddefinitions $end
#0
$dumpvars
b100000 6"
bx 5"
bx 4"
bx 3"
bx 2"
bx 1"
bx 0"
b100000000000000000001 /"
bx ."
b1000000000000000001000100 -"
b10111010110110111010110111111111 ,"
bx +"
bx *"
bx )"
bx ("
bx '"
bx &"
bx %"
bx $"
bz #"
x""
b10111010110110111010110111111111 !"
bx ~
x}
x|
bx {
bx z
bx y
xx
bz w
b100000000000000000001 v
bx u
b1000000000000000001000100 t
b111111110001000010110111 s
0r
b0 q
b1000000000000000000000000 p
b10 o
0n
bx m
b0 l
b1 k
b0 j
bx i
bx h
bx g
bx f
bx e
bx d
bx c
b111111111111111111111100 b
bx a
bx `
bx _
bx ^
bx ]
bx \
bx [
bx Z
bx Y
xX
xW
xV
0U
bx T
bx S
bx R
bx Q
bx P
bx O
bx N
bx M
bx L
bx K
b111111111111111111111100 J
b111111111111111111111100 I
zH
bx G
bx F
b1 E
b1000000000000000000000000 D
bz C
b1000000000000000000000000 B
b111111111111111111111100 A
bx @
b0 ?
0>
bx =
0<
b0 ;
bx :
x9
x8
x7
x6
x5
x4
b111111111111111111111100 3
12
b1000000000000000000000000 1
00
x/
b1 .
b0 -
bx ,
bx +
bx *
bx )
bx (
b111111110001000010110111 '
bx &
bx %
bx $
bx #
bz "
bz !
$end
#5
b111111110001000000000000 #
b111111110001000000000000 3"
b111111110001000000000000 ("
b111111110001000000000000 G
b111111110001000000000000 %"
b111111110001000000000000 *"
b10 $"
b10 )"
b11110000000000001000000010010011 '
b11110000000000001000000010010011 s
0""
0x
b111111110001000000000000 :
b111111110001000000000000 @
b111111110001000000000000 F
b111111110001000000000000 Y
b111111110001000000000000 a
b111111110001000000000000 y
1|
0}
b111111110001000000000000 Z
b111111110001000000000000 `
b1 ~
b1000000000000000000000100 1
b1000000000000000000000100 B
b1000000000000000000000100 p
b111111110001000000000000 ]
b1011 \
b1011 ^
b0 '"
b0 +"
b111111110001000010110111 &"
1/
04
1X
0V
05
0W
06
b0 [
b0 _
b110111 R
b1 T
b0 S
b110111 d
b1 ,
b1 i
b1 0"
b1 f
17
b0 M
b0 )
b0 Q
b0 4"
b11110 +
b11110 h
b11110 1"
b0 $
b0 O
b0 {
b0 N
b0 (
b0 P
b0 5"
b1111 *
b1111 g
b1111 2"
b0 e
b1000000000000000000000100 D
b1000000000000000000000000 3
b1000000000000000000000000 A
b1000000000000000000000000 I
b1000000000000000000000000 J
b1000000000000000000000000 b
b111111110001000010110111 %
b111111110001000010110111 L
b111111110001000010110111 z
b111111110001000010110111 =
b111111110001000010110111 K
b111111110001000010110111 c
1<
#10
0<
#15
b111111110000111100000000 ("
b111111110000111100000000 #
b111111110000111100000000 3"
b111111110000111100000000 G
b111111110000111100000000 %"
b111111110000111100000000 *"
b0 $"
b0 )"
b11110000111100001100111100010011 '
b11110000111100001100111100010011 s
b11111111111111111111111100000000 Z
b11111111111111111111111100000000 `
b111111110000111100000000 :
b111111110000111100000000 @
b111111110000111100000000 F
b111111110000111100000000 Y
b111111110000111100000000 a
b111111110000111100000000 y
b0 ~
08
19
b11111111111111111111111100000000 &
b11111111111111111111111100000000 m
b11111111111111111111111100000000 ]
b0 \
b0 ^
b11110000000000001000000010010011 &"
b1000000000000000000001000 1
b1000000000000000000001000 B
b1000000000000000000001000 p
b111111110001000000000000 [
b111111110001000000000000 _
b10011 R
b0 T
b1111000 S
b10011 d
b0 f
07
b111111110001000000000000 M
b111111110001000000000000 )
b111111110001000000000000 Q
b111111110001000000000000 4"
b1 +
b1 h
b1 1"
b0 *
b0 g
b0 2"
b1111000 e
b11110000000000001000000010010011 %
b11110000000000001000000010010011 L
b11110000000000001000000010010011 z
b11110000000000001000000010010011 =
b11110000000000001000000010010011 K
b11110000000000001000000010010011 c
b1000000000000000000001000 D
b1000000000000000000000100 3
b1000000000000000000000100 A
b1000000000000000000000100 I
b1000000000000000000000100 J
b1000000000000000000000100 b
1<
#20
0<
#25
b11111111000000001111000000001111 ("
b11111111000000001111111010110111 '
b11111111000000001111111010110111 s
1""
b11111111111111111111111100001111 Z
b11111111111111111111111100001111 `
b100 ~
b11111111000000001111000000001111 #
b11111111000000001111000000001111 3"
b11111111000000001111000000001111 G
b11111111000000001111000000001111 %"
b11111111000000001111000000001111 *"
b1000000000000000000001100 1
b1000000000000000000001100 B
b1000000000000000000001100 p
b11111111111111111111111100001111 ]
b1000 \
b1000 ^
b11110000111100001100111100010011 &"
b1000 ;
b1000 j
b11111111111111111111111100001111 &
b11111111111111111111111100001111 m
b11111111000000001111000000001111 :
b11111111000000001111000000001111 @
b11111111000000001111000000001111 F
b11111111000000001111000000001111 Y
b11111111000000001111000000001111 a
b11111111000000001111000000001111 y
b111111110000111100000000 [
b111111110000111100000000 _
b100 T
b11110 ,
b11110 i
b11110 0"
b100 f
b1111 *
b1111 g
b1111 2"
b1000000000000000000001100 D
b1000000000000000000001000 3
b1000000000000000000001000 A
b1000000000000000000001000 I
b1000000000000000000001000 J
b1000000000000000000001000 b
b111111110000111100000000 M
b111111110000111100000000 )
b111111110000111100000000 Q
b111111110000111100000000 4"
b11110000111100001100111100010011 %
b11110000111100001100111100010011 L
b11110000111100001100111100010011 z
b11110000111100001100111100010011 =
b11110000111100001100111100010011 K
b11110000111100001100111100010011 c
1<
#30
0<
#35
b11111111000000001111000000000000 ("
b11111111000000001111000000000000 #
b11111111000000001111000000000000 3"
b11111111000000001111000000000000 G
b11111111000000001111000000000000 %"
b11111111000000001111000000000000 *"
b10 $"
b10 )"
b111111101000111010010011 '
b111111101000111010010011 s
0""
1}
b11111111000000001111000000000000 Z
b11111111000000001111000000000000 `
b11111111000000001111000000000000 :
b11111111000000001111000000000000 @
b11111111000000001111000000000000 F
b11111111000000001111000000000000 Y
b11111111000000001111000000000000 a
b11111111000000001111000000000000 y
b111 ~
b11111111000000001111000000000000 ]
b1011 \
b1011 ^
b11111111000000001111111010110111 &"
b1000000000000000000010000 1
b1000000000000000000010000 B
b1000000000000000000010000 p
b11111111111111111111111111110000 &
b11111111111111111111111111110000 m
b110111 R
b111 T
b1111111 S
b110111 d
b11101 ,
b11101 i
b11101 0"
b111 f
b10000 *
b10000 g
b10000 2"
b1111111 e
b11111111000000001111111010110111 %
b11111111000000001111111010110111 L
b11111111000000001111111010110111 z
b11111111000000001111111010110111 =
b11111111000000001111111010110111 K
b11111111000000001111111010110111 c
b1000000000000000000010000 D
b1000000000000000000001100 3
b1000000000000000000001100 A
b1000000000000000000001100 I
b1000000000000000000001100 J
b1000000000000000000001100 b
1<
#40
0<
#45
b11111111000000001111000000001111 ("
b11111111000000001111000000001111 #
b11111111000000001111000000001111 3"
b11111111000000001111000000001111 G
b11111111000000001111000000001111 %"
b11111111000000001111000000001111 *"
b0 $"
b0 )"
b1000000000000110010011 '
b1000000000000110010011 s
0}
b1111 Z
b1111 `
b11111111000000001111000000001111 :
b11111111000000001111000000001111 @
b11111111000000001111000000001111 F
b11111111000000001111000000001111 Y
b11111111000000001111000000001111 a
b11111111000000001111000000001111 y
b0 ~
b1000000000000000000010100 1
b1000000000000000000010100 B
b1000000000000000000010100 p
b1111 ]
b0 \
b0 ^
b111111101000111010010011 &"
b0 ;
b0 j
b1111 &
b1111 m
16
b11111111000000001111000000000000 [
b11111111000000001111000000000000 _
b10011 R
b0 T
b0 S
b10011 d
b0 f
b11111111000000001111000000000000 M
b11111111000000001111000000000000 )
b11111111000000001111000000000000 Q
b11111111000000001111000000000000 4"
b11101 +
b11101 h
b11101 1"
b1111 *
b1111 g
b1111 2"
b0 e
b1000000000000000000010100 D
b1000000000000000000010000 3
b1000000000000000000010000 A
b1000000000000000000010000 I
b1000000000000000000010000 J
b1000000000000000000010000 b
b111111101000111010010011 %
b111111101000111010010011 L
b111111101000111010010011 z
b111111101000111010010011 =
b111111101000111010010011 K
b111111101000111010010011 c
1<
#50
0<
#55
b10 ("
b11101110111110001011001100011 '
b11101110111110001011001100011 s
b10 Z
b10 `
b10 #
b10 3"
b10 G
b10 %"
b10 *"
b10 ]
b1000000010001000100010001 '"
b1000000010001000100010001 +"
b1000000000000110010011 &"
b1000000000000000000011000 1
b1000000000000000000011000 B
b1000000000000000000011000 p
b10 &
b10 m
b10 :
b10 @
b10 F
b10 Y
b10 a
b10 y
b11 ,
b11 i
b11 0"
b0 +
b0 h
b0 1"
b1000000010001000100010001 $
b1000000010001000100010001 O
b1000000010001000100010001 {
b1000000010001000100010001 N
b1000000010001000100010001 (
b1000000010001000100010001 P
b1000000010001000100010001 5"
b10 *
b10 g
b10 2"
b0 [
b0 _
b1000000000000110010011 %
b1000000000000110010011 L
b1000000000000110010011 z
b1000000000000110010011 =
b1000000000000110010011 K
b1000000000000110010011 c
b0 M
b0 )
b0 Q
b0 4"
b1000000000000000000011000 D
b1000000000000000000010100 3
b1000000000000000000010100 A
b1000000000000000000010100 I
b1000000000000000000010100 J
b1000000000000000000010100 b
1<
#60
0<
#65
b10 $"
b10 )"
b1111111100000000000000001111 !"
b1111111100000000000000001111 ,"
b1000000000000000111100100 ("
b1111111100000001000010110111 '
b1111111100000001000010110111 s
b111001100 Z
b111001100 `
b1 ~
b1000000000000000111100100 #
b1000000000000000111100100 3"
bz G
b1000000000000000111100100 %"
b1000000000000000111100100 *"
b1000000000000000000011100 1
b1000000000000000000011100 B
b1000000000000000000011100 p
b111001100 ]
b11111111000000001111000000001111 '"
b11111111000000001111000000001111 +"
b11101110111110001011001100011 &"
b0 .
b0 E
b0 k
0/
0X
b1000000000000000111100100 :
b1000000000000000111100100 @
b1000000000000000111100100 F
b1000000000000000111100100 Y
b1000000000000000111100100 a
b1000000000000000111100100 y
b1000000000000000000011000 [
b1000000000000000000011000 _
06
b1100011 R
b1 T
b1110 S
b1100011 d
b1100 ,
b1100 i
b1100 0"
b1 f
17
b11111111000000001111000000001111 M
b11111111000000001111000000001111 )
b11111111000000001111000000001111 Q
b11111111000000001111000000001111 4"
b11110 +
b11110 h
b11110 1"
b11111111000000001111000000001111 $
b11111111000000001111000000001111 O
b11111111000000001111000000001111 {
b11111111000000001111000000001111 N
b11111111000000001111000000001111 (
b11111111000000001111000000001111 P
b11111111000000001111000000001111 5"
b11101 *
b11101 g
b11101 2"
b1110 e
b1000000000000000000011100 D
b1000000000000000000011000 3
b1000000000000000000011000 A
b1000000000000000000011000 I
b1000000000000000000011000 J
b1000000000000000000011000 b
b11101110111110001011001100011 %
b11101110111110001011001100011 L
b11101110111110001011001100011 z
b11101110111110001011001100011 =
b11101110111110001011001100011 K
b11101110111110001011001100011 c
1<
#70
0<
#75
b10111010110110111010110111111111 !"
b10111010110110111010110111111111 ,"
b1111111100000001000000000000 ("
b1111111100000001000000000000 #
b1111111100000001000000000000 3"
b1111111100000001000000000000 G
b11111111000000001000000010010011 '
b11111111000000001000000010010011 s
1}
b1111111100000001000000000000 Z
b1111111100000001000000000000 `
b1111111100000001000000000000 %"
b1111111100000001000000000000 *"
b1 .
b1 E
b1 k
1/
b1111111100000001000000000000 ]
b1011 \
b1011 ^
b0 '"
b0 +"
b1111111100000001000010110111 &"
b1000000000000000000100000 1
b1000000000000000000100000 B
b1000000000000000000100000 p
1X
b1111111100000001000000000000 :
b1111111100000001000000000000 @
b1111111100000001000000000000 F
b1111111100000001000000000000 Y
b1111111100000001000000000000 a
b1111111100000001000000000000 y
b110111 R
b111 S
b110111 d
b1 ,
b1 i
b1 0"
b0 M
b0 )
b0 Q
b0 4"
b0 +
b0 h
b0 1"
b0 $
b0 O
b0 {
17
b0 N
b0 (
b0 P
b0 5"
b11111 *
b11111 g
b11111 2"
b111 e
b0 [
b0 _
b1111111100000001000010110111 %
b1111111100000001000010110111 L
b1111111100000001000010110111 z
b1111111100000001000010110111 =
b1111111100000001000010110111 K
b1111111100000001000010110111 c
b1000000000000000000100000 D
b1000000000000000000011100 3
b1000000000000000000011100 A
b1000000000000000000011100 I
b1000000000000000000011100 J
b1000000000000000000011100 b
1<
#80
0<
#85
b1111111100000000111111110000 ("
b1111111100000000111111110000 #
b1111111100000000111111110000 3"
b1111111100000000111111110000 G
b1111111100000000111111110000 %"
b1111111100000000111111110000 *"
b0 $"
b0 )"
b1111000000001100111100010011 '
b1111000000001100111100010011 s
b11111111111111111111111111110000 Z
b11111111111111111111111111110000 `
b1111111100000000111111110000 :
b1111111100000000111111110000 @
b1111111100000000111111110000 F
b1111111100000000111111110000 Y
b1111111100000000111111110000 a
b1111111100000000111111110000 y
b0 ~
b1000000000000000000100100 1
b1000000000000000000100100 B
b1000000000000000000100100 p
b11111111111111111111111111110000 ]
b0 \
b0 ^
b11111111000000001000000010010011 &"
b11111111111111111111111111110000 &
b11111111111111111111111111110000 m
b1111111100000001000000000000 [
b1111111100000001000000000000 _
b10011 R
b0 T
b1111111 S
b10011 d
b0 f
07
b1111111100000001000000000000 M
b1111111100000001000000000000 )
b1111111100000001000000000000 Q
b1111111100000001000000000000 4"
b1 +
b1 h
b1 1"
b10000 *
b10000 g
b10000 2"
b1111111 e
b1000000000000000000100100 D
b1000000000000000000100000 3
b1000000000000000000100000 A
b1000000000000000000100000 I
b1000000000000000000100000 J
b1000000000000000000100000 b
b11111111000000001000000010010011 %
b11111111000000001000000010010011 L
b11111111000000001000000010010011 z
b11111111000000001000000010010011 =
b11111111000000001000000010010011 K
b11111111000000001000000010010011 c
1<
#90
0<
#95
b1111111100000000111100000000 ("
b1111111100000001111010110111 '
b1111111100000001111010110111 s
1""
b11110000 Z
b11110000 `
b100 ~
b1111111100000000111100000000 #
b1111111100000000111100000000 3"
b1111111100000000111100000000 G
b1111111100000000111100000000 %"
b1111111100000000111100000000 *"
b1000 ;
b1000 j
b11110000 ]
b1000 \
b1000 ^
b1111000000001100111100010011 &"
b1000000000000000000101000 1
b1000000000000000000101000 B
b1000000000000000000101000 p
b11110000 &
b11110000 m
b1111111100000000111100000000 :
b1111111100000000111100000000 @
b1111111100000000111100000000 F
b1111111100000000111100000000 Y
b1111111100000000111100000000 a
b1111111100000000111100000000 y
b100 T
b111 S
b11110 ,
b11110 i
b11110 0"
b100 f
b111 e
b1111111100000000111111110000 [
b1111111100000000111111110000 _
b1111000000001100111100010011 %
b1111000000001100111100010011 L
b1111000000001100111100010011 z
b1111000000001100111100010011 =
b1111000000001100111100010011 K
b1111000000001100111100010011 c
b1111111100000000111111110000 M
b1111111100000000111111110000 )
b1111111100000000111111110000 Q
b1111111100000000111111110000 4"
b1000000000000000000101000 D
b1000000000000000000100100 3
b1000000000000000000100100 A
b1000000000000000000100100 I
b1000000000000000000100100 J
b1000000000000000000100100 b
1<
#100
0<
#105
b10 $"
b10 )"
b1111111100000001000000000000 ("
b11110000000011101000111010010011 '
b11110000000011101000111010010011 s
0""
b1111111100000001000000000000 Z
b1111111100000001000000000000 `
b1 ~
b1111111100000001000000000000 #
b1111111100000001000000000000 3"
b1111111100000001000000000000 G
b1111111100000001000000000000 %"
b1111111100000001000000000000 *"
b1000000000000000000101100 1
b1000000000000000000101100 B
b1000000000000000000101100 p
b1111111100000001000000000000 ]
b1011 \
b1011 ^
b1111111100000001111010110111 &"
b1111111100000001000000000000 :
b1111111100000001000000000000 @
b1111111100000001000000000000 F
b1111111100000001000000000000 Y
b1111111100000001000000000000 a
b1111111100000001000000000000 y
b0 [
b0 _
b110111 R
b1 T
b110111 d
b11101 ,
b11101 i
b11101 0"
b1 f
17
b0 M
b0 )
b0 Q
b0 4"
b0 +
b0 h
b0 1"
b11111 *
b11111 g
b11111 2"
b1000000000000000000101100 D
b1000000000000000000101000 3
b1000000000000000000101000 A
b1000000000000000000101000 I
b1000000000000000000101000 J
b1000000000000000000101000 b
b1111111100000001111010110111 %
b1111111100000001111010110111 L
b1111111100000001111010110111 z
b1111111100000001111010110111 =
b1111111100000001111010110111 K
b1111111100000001111010110111 c
1<
#110
0<
#115
b1111111100000000111100000000 ("
b1111111100000000111100000000 #
b1111111100000000111100000000 3"
b1111111100000000111100000000 G
b1111111100000000111100000000 %"
b1111111100000000111100000000 *"
b0 $"
b0 )"
b1100000000000110010011 '
b1100000000000110010011 s
0}
b11111111111111111111111100000000 Z
b11111111111111111111111100000000 `
b1111111100000000111100000000 :
b1111111100000000111100000000 @
b1111111100000000111100000000 F
b1111111100000000111100000000 Y
b1111111100000000111100000000 a
b1111111100000000111100000000 y
b0 ~
b0 ;
b0 j
b11111111111111111111111100000000 &
b11111111111111111111111100000000 m
b11111111111111111111111100000000 ]
b0 \
b0 ^
b11110000000011101000111010010011 &"
b1000000000000000000110000 1
b1000000000000000000110000 B
b1000000000000000000110000 p
b1111111100000001000000000000 [
b1111111100000001000000000000 _
b10011 R
b0 T
b1111000 S
b10011 d
b0 f
07
b1111111100000001000000000000 M
b1111111100000001000000000000 )
b1111111100000001000000000000 Q
b1111111100000001000000000000 4"
b11101 +
b11101 h
b11101 1"
b0 *
b0 g
b0 2"
b1111000 e
b11110000000011101000111010010011 %
b11110000000011101000111010010011 L
b11110000000011101000111010010011 z
b11110000000011101000111010010011 =
b11110000000011101000111010010011 K
b11110000000011101000111010010011 c
b1000000000000000000110000 D
b1000000000000000000101100 3
b1000000000000000000101100 A
b1000000000000000000101100 I
b1000000000000000000101100 J
b1000000000000000000101100 b
1<
#120
0<
#125
b11 ("
b11011110111110001100001100011 '
b11011110111110001100001100011 s
b11 Z
b11 `
b11 #
b11 3"
b11 G
b11 %"
b11 *"
b1000000000000000000110100 1
b1000000000000000000110100 B
b1000000000000000000110100 p
b11 ]
b10 '"
b10 +"
b1100000000000110010011 &"
b11 &
b11 m
b11 :
b11 @
b11 F
b11 Y
b11 a
b11 y
16
b0 [
b0 _
b0 S
b11 ,
b11 i
b11 0"
b0 +
b0 h
b0 1"
b10 $
b10 O
b10 {
b10 N
b10 (
b10 P
b10 5"
b11 *
b11 g
b11 2"
b0 e
b1000000000000000000110100 D
b1000000000000000000110000 3
b1000000000000000000110000 A
b1000000000000000000110000 I
b1000000000000000000110000 J
b1000000000000000000110000 b
b0 M
b0 )
b0 Q
b0 4"
b1100000000000110010011 %
b1100000000000110010011 L
b1100000000000110010011 z
b1100000000000110010011 =
b1100000000000110010011 K
b1100000000000110010011 c
1<
#130
0<
#135
b10 $"
b10 )"
b1111111100000000000000001111 !"
b1111111100000000000000001111 ,"
b1000000000000000111100100 ("
b111111110001000010110111 '
b111111110001000010110111 s
1}
b110110000 Z
b110110000 `
b1 ~
b1000000000000000111100100 #
b1000000000000000111100100 3"
bz G
b1000000000000000111100100 %"
b1000000000000000111100100 *"
b0 .
b0 E
b0 k
0/
b110110000 ]
b1111111100000000111100000000 '"
b1111111100000000111100000000 +"
b11011110111110001100001100011 &"
b1000000000000000000111000 1
b1000000000000000000111000 B
b1000000000000000000111000 p
b110111101 &
b110111101 m
0X
b1000000000000000111100100 :
b1000000000000000111100100 @
b1000000000000000111100100 F
b1000000000000000111100100 Y
b1000000000000000111100100 a
b1000000000000000111100100 y
06
b1000000000000000000110100 [
b1000000000000000000110100 _
b1100011 R
b1 T
b1101 S
b1100011 d
b10000 ,
b10000 i
b10000 0"
b1 f
17
b1111111100000000111100000000 M
b1111111100000000111100000000 )
b1111111100000000111100000000 Q
b1111111100000000111100000000 4"
b11110 +
b11110 h
b11110 1"
b11101 *
b11101 g
b11101 2"
b1101 e
b11011110111110001100001100011 %
b11011110111110001100001100011 L
b11011110111110001100001100011 z
b11011110111110001100001100011 =
b11011110111110001100001100011 K
b11011110111110001100001100011 c
b1111111100000000111100000000 $
b1111111100000000111100000000 O
b1111111100000000111100000000 {
b1111111100000000111100000000 N
b1111111100000000111100000000 (
b1111111100000000111100000000 P
b1111111100000000111100000000 5"
b1000000000000000000111000 D
b1000000000000000000110100 3
b1000000000000000000110100 A
b1000000000000000000110100 I
b1000000000000000000110100 J
b1000000000000000000110100 b
1<
#140
0<
#145
b10111010110110111010110111111111 !"
b10111010110110111010110111111111 ,"
b111111110001000000000000 ("
b10001111111100001000000010010011 '
b10001111111100001000000010010011 s
b111111110001000000000000 #
b111111110001000000000000 3"
b111111110001000000000000 G
0}
b111111110001000000000000 Z
b111111110001000000000000 `
b111111110001000000000000 %"
b111111110001000000000000 *"
b1000000000000000000111100 1
b1000000000000000000111100 B
b1000000000000000000111100 p
b111111110001000000000000 ]
b1011 \
b1011 ^
b0 '"
b0 +"
b111111110001000010110111 &"
b1 .
b1 E
b1 k
1/
1X
b111111110001000000000000 :
b111111110001000000000000 @
b111111110001000000000000 F
b111111110001000000000000 Y
b111111110001000000000000 a
b111111110001000000000000 y
b1111111100000000111100000000 [
b1111111100000000111100000000 _
b110111 R
b0 S
b110111 d
b1 ,
b1 i
b1 0"
b0 $
b0 O
b0 {
07
b0 N
b0 (
b0 P
b0 5"
b1111 *
b1111 g
b1111 2"
b0 e
b1000000000000000000111100 D
b1000000000000000000111000 3
b1000000000000000000111000 A
b1000000000000000000111000 I
b1000000000000000000111000 J
b1000000000000000000111000 b
b111111110001000010110111 %
b111111110001000010110111 L
b111111110001000010110111 z
b111111110001000010110111 =
b111111110001000010110111 K
b111111110001000010110111 c
1<
#150
0<
#155
b111111110000100011111111 ("
b111111110000100011111111 #
b111111110000100011111111 3"
b111111110000100011111111 G
b111111110000100011111111 %"
b111111110000100011111111 *"
b0 $"
b0 )"
b1110000111100001100111100010011 '
b1110000111100001100111100010011 s
1}
b11111111111111111111100011111111 Z
b11111111111111111111100011111111 `
b111111110000100011111111 :
b111111110000100011111111 @
b111111110000100011111111 F
b111111110000100011111111 Y
b111111110000100011111111 a
b111111110000100011111111 y
b0 ~
b11111111111111111111100011111111 &
b11111111111111111111100011111111 m
b11111111111111111111100011111111 ]
b0 \
b0 ^
b10001111111100001000000010010011 &"
b1000000000000000001000000 1
b1000000000000000001000000 B
b1000000000000000001000000 p
b111111110001000000000000 [
b111111110001000000000000 _
b10011 R
b0 T
b1000111 S
b10011 d
b0 f
b111111110001000000000000 M
b111111110001000000000000 )
b111111110001000000000000 Q
b111111110001000000000000 4"
b1 +
b1 h
b1 1"
b11111 *
b11111 g
b11111 2"
b1000111 e
b10001111111100001000000010010011 %
b10001111111100001000000010010011 L
b10001111111100001000000010010011 z
b10001111111100001000000010010011 =
b10001111111100001000000010010011 K
b10001111111100001000000010010011 c
b1000000000000000001000000 D
b1000000000000000000111100 3
b1000000000000000000111100 A
b1000000000000000000111100 I
b1000000000000000000111100 J
b1000000000000000000111100 b
1<
#160
0<
#165
b111111110000111111110000 ("
b111111110001111010110111 '
b111111110001111010110111 s
1""
0}
b11100001111 Z
b11100001111 `
b100 ~
b111111110000111111110000 #
b111111110000111111110000 3"
b111111110000111111110000 G
b111111110000111111110000 %"
b111111110000111111110000 *"
b1000000000000000001000100 1
b1000000000000000001000100 B
b1000000000000000001000100 p
b11100001111 ]
b1000 \
b1000 ^
b1110000111100001100111100010011 &"
b1000 ;
b1000 j
b11100001111 &
b11100001111 m
b111111110000111111110000 :
b111111110000111111110000 @
b111111110000111111110000 F
b111111110000111111110000 Y
b111111110000111111110000 a
b111111110000111111110000 y
b111111110000100011111111 [
b111111110000100011111111 _
b100 T
b111000 S
b11110 ,
b11110 i
b11110 0"
b100 f
b1111 *
b1111 g
b1111 2"
b111000 e
b1000000000000000001000100 D
b1000000000000000001000000 3
b1000000000000000001000000 A
b1000000000000000001000000 I
b1000000000000000001000000 J
b1000000000000000001000000 b
b111111110000100011111111 M
b111111110000100011111111 )
b111111110000100011111111 Q
b111111110000100011111111 4"
b1110000111100001100111100010011 %
b1110000111100001100111100010011 L
b1110000111100001100111100010011 z
b1110000111100001100111100010011 =
b1110000111100001100111100010011 K
b1110000111100001100111100010011 c
1<
#170
0<
