PD5/testbench.vcd
$date
	Thu Jun 25 15:07:39 2020
$end
$version
	Icarus Verilog
$end
$timescale
	1s
$end
$scope module dut $end
$var wire 32 ! write_data [31:0] $end
$var wire 32 " wb [31:0] $end
$var wire 32 # imm [31:0] $end
$var wire 32 $ i_mem_out [31:0] $end
$var wire 32 % data_rs2 [31:0] $end
$var wire 32 & data_rs1 [31:0] $end
$var wire 32 ' d_mem_out [31:0] $end
$var wire 5 ( addr_rs2 [4:0] $end
$var wire 5 ) addr_rs1 [4:0] $end
$var wire 5 * addr_rd [4:0] $end
$var wire 2 + access_size [1:0] $end
$var wire 2 , WBSel [1:0] $end
$var wire 1 - RegWE $end
$var wire 1 . RdUn $end
$var wire 32 / PC_next [31:0] $end
$var wire 1 0 PCSel $end
$var wire 32 1 PC [31:0] $end
$var wire 1 2 MemRW $end
$var wire 1 3 BrUn $end
$var wire 1 4 BrLt $end
$var wire 1 5 BrEq $end
$var wire 1 6 BSel $end
$var wire 1 7 ASel $end
$var wire 32 8 ALU_out [31:0] $end
$var wire 4 9 ALUSel [3:0] $end
$var reg 1 : clk $end
$var reg 32 ; instruction [31:0] $end
$var reg 1 < state $end
$var integer 32 = i [31:0] $end
$scope module PCMux $end
$var wire 1 : clk $end
$var wire 1 0 PCSel $end
$var wire 32 > ALU_out [31:0] $end
$var reg 32 ? PC [31:0] $end
$var reg 32 @ PC_next [31:0] $end
$upscope $end
$scope module WBMux1 $end
$var wire 1 : clk $end
$var wire 32 A pc_next [31:0] $end
$var wire 2 B sel [1:0] $end
$var wire 32 C dmem [31:0] $end
$var wire 32 D alu [31:0] $end
$var reg 32 E out [31:0] $end
$upscope $end
$scope module d_mem $end
$var wire 1 : clk $end
$var wire 1 2 w_enable $end
$var wire 32 F data_in [31:0] $end
$var wire 32 G address [31:0] $end
$var wire 2 H access_size [1:0] $end
$var wire 1 . RdUn $end
$var reg 32 I data_out [31:0] $end
$var reg 32 J relevant_addr [31:0] $end
$var reg 32 K t_reg [31:0] $end
$var integer 32 L i [31:0] $end
$upscope $end
$scope module execute $end
$var wire 32 M PC_x [31:0] $end
$var wire 1 : clk $end
$var wire 32 N write_data [31:0] $end
$var wire 32 O rs2 [31:0] $end
$var wire 32 P rs1 [31:0] $end
$var wire 32 Q imm [31:0] $end
$var wire 1 3 BrUn $end
$var wire 1 4 BrLt $end
$var wire 1 5 BrEq $end
$var wire 1 6 BSel $end
$var wire 1 7 ASel $end
$var wire 32 R ALU_out [31:0] $end
$var wire 32 S ALU_in2 [31:0] $end
$var wire 32 T ALU_in1 [31:0] $end
$var wire 4 U ALUSel [3:0] $end
$scope module alu1 $end
$var wire 32 V rs1 [31:0] $end
$var wire 32 W rs2 [31:0] $end
$var wire 4 X ALUsel [3:0] $end
$var reg 32 Y alu_res [31:0] $end
$upscope $end
$upscope $end
$scope module fd1 $end
$var wire 1 5 BrEq $end
$var wire 1 4 BrLt $end
$var wire 32 Z PC [31:0] $end
$var wire 1 : clk $end
$var wire 32 [ instruction [31:0] $end
$var wire 7 \ opcode [6:0] $end
$var wire 7 ] funct7 [6:0] $end
$var wire 3 ^ funct3 [2:0] $end
$var wire 5 _ addr_rs2 [4:0] $end
$var wire 5 ` addr_rs1 [4:0] $end
$var wire 5 a addr_rd [4:0] $end
$var wire 1 3 BrUn $end
$var reg 4 b ALUSel [3:0] $end
$var reg 1 7 ASel $end
$var reg 1 6 BSel $end
$var reg 1 2 MemRW $end
$var reg 1 0 PCSel $end
$var reg 1 . RdUn $end
$var reg 1 - RegWE $end
$var reg 2 c WBSel [1:0] $end
$var reg 2 d access_size [1:0] $end
$var reg 32 e imm [31:0] $end
$scope task decode_bType $end
$upscope $end
$scope task decode_iType $end
$upscope $end
$scope task decode_jType $end
$upscope $end
$scope task decode_rType $end
$upscope $end
$scope task decode_sType $end
$upscope $end
$scope task decode_uType $end
$upscope $end
$upscope $end
$scope module i_mem $end
$var wire 1 f RdUn $end
$var wire 2 g access_size [1:0] $end
$var wire 32 h address [31:0] $end
$var wire 1 : clk $end
$var wire 32 i data_in [31:0] $end
$var wire 1 j w_enable $end
$var reg 32 k data_out [31:0] $end
$var reg 32 l relevant_addr [31:0] $end
$var reg 32 m t_reg [31:0] $end
$var integer 32 n i [31:0] $end
$upscope $end
$scope module reg_file $end
$var wire 5 o addr_rd [4:0] $end
$var wire 5 p addr_rs1 [4:0] $end
$var wire 5 q addr_rs2 [4:0] $end
$var wire 1 : clk $end
$var wire 32 r data_rd [31:0] $end
$var wire 32 s data_rs1 [31:0] $end
$var wire 32 t data_rs2 [31:0] $end
$var wire 1 - write_enable $end
$var integer 32 u i [31:0] $end
$upscope $end
$upscope $end
$enddefinitions $end
#0
$dumpvars
b100000 u
bx t
bx s
bx r
bx q
bx p
bx o
b100000000000000000001 n
bx m
b1000000000000000001000100 l
b11111101000000010000000100010011 k
0j
b0 i
b1000000000000000000000000 h
b10 g
0f
bx e
b0 d
b1 c
b0 b
bx a
bx `
bx _
bx ^
bx ]
bx \
bx [
b111111111111111111111100 Z
bx Y
b0 X
bx W
bx V
b0 U
bx T
bx S
bx R
bx Q
bx P
bx O
bx N
b111111111111111111111100 M
b100000000000000000001 L
bx K
b1000000000000000001000100 J
bx I
b0 H
bx G
bx F
bx E
bx D
bx C
b1 B
b1000000000000000000000000 A
b1000000000000000000000000 @
b111111111111111111111100 ?
bx >
b0 =
0<
bx ;
0:
b0 9
bx 8
x7
x6
x5
x4
x3
x2
b111111111111111111111100 1
10
b1000000000000000000000000 /
0.
x-
b1 ,
b0 +
bx *
bx )
bx (
bx '
bx &
bx %
b11111101000000010000000100010011 $
bx #
bx "
bx !
$end
#5
b1000000010001000011100001 "
b1000000010001000011100001 E
b1000000010001000011100001 r
b10000100010010011000100011 $
b10000100010010011000100011 k
b0 '
b0 C
b0 I
b1000000010001000011100001 8
b1000000010001000011100001 >
b1000000010001000011100001 D
b1000000010001000011100001 G
b1000000010001000011100001 R
b1000000010001000011100001 Y
b11111111111111111111111111010000 S
b11111111111111111111111111010000 W
b1000000000000000000000100 /
b1000000000000000000000100 @
b1000000000000000000000100 h
1-
02
06
17
b11111111111111111111111111010000 #
b11111111111111111111111111010000 Q
b11111111111111111111111111010000 e
03
04
b1000000010001000100010001 T
b1000000010001000100010001 V
b10011 \
b10 *
b10 a
b10 o
b0 ^
05
b1000000010001000100010001 &
b1000000010001000100010001 P
b1000000010001000100010001 s
b10 )
b10 `
b10 p
b0 !
b0 F
b0 N
b0 %
b0 O
b0 t
b10000 (
b10000 _
b10000 q
b1111110 ]
b1000000000000000000000100 A
b1000000000000000000000000 1
b1000000000000000000000000 ?
b1000000000000000000000000 M
b1000000000000000000000000 Z
b11111101000000010000000100010011 ;
b11111101000000010000000100010011 [
1:
#10
0:
#15
b1000000000000011110110111 $
b1000000000000011110110111 k
b101100 S
b101100 W
b0 "
b0 E
b0 r
b10 +
b10 H
b10 d
b0 ,
b0 B
b0 c
0-
12
b1000000000000000000001000 /
b1000000000000000000001000 @
b1000000000000000000001000 h
b101100 #
b101100 Q
b101100 e
b1000000010001000100001101 8
b1000000010001000100001101 >
b1000000010001000100001101 D
b1000000010001000100001101 G
b1000000010001000100001101 R
b1000000010001000100001101 Y
b100011 \
b1100 *
b1100 a
b1100 o
b10 ^
b1 (
b1 _
b1 q
b1 ]
b1000000010001000011100001 T
b1000000010001000011100001 V
b10000100010010011000100011 ;
b10000100010010011000100011 [
b1000000010001000011100001 &
b1000000010001000011100001 P
b1000000010001000011100001 s
b1000000000000000000001000 A
b1000000000000000000000100 1
b1000000000000000000000100 ?
b1000000000000000000000100 M
b1000000000000000000000100 Z
1:
#20
0:
#25
b100100100001111010100010000011 $
b100100100001111010100010000011 k
b1000000000000000000000000 "
b1000000000000000000000000 E
b1000000000000000000000000 r
b1000000000000000000000000 S
b1000000000000000000000000 W
b11111101000000010000000100010011 '
b11111101000000010000000100010011 C
b11111101000000010000000100010011 I
b1000000000000000000001100 /
b1000000000000000000001100 @
b1000000000000000000001100 h
b1 ,
b1 B
b1 c
1-
02
b1011 9
b1011 U
b1011 X
b1011 b
b1000000000000000000000000 #
b1000000000000000000000000 Q
b1000000000000000000000000 e
b1000000000000000000000000 8
b1000000000000000000000000 >
b1000000000000000000000000 D
b1000000000000000000000000 G
b1000000000000000000000000 R
b1000000000000000000000000 Y
b0 T
b0 V
b110111 \
b1111 *
b1111 a
b1111 o
b0 ^
15
b0 &
b0 P
b0 s
b0 )
b0 `
b0 p
b10000 (
b10000 _
b10000 q
b0 ]
b1000000000000000000001100 A
b1000000000000000000001000 1
b1000000000000000000001000 ?
b1000000000000000000001000 M
b1000000000000000000001000 Z
b1000000000000011110110111 ;
b1000000000000011110110111 [
1:
#30
0:
#35
b1100 '
b1100 C
b1100 I
b1100 "
b1100 E
b1100 r
b100100100001111000011100010011 $
b100100100001111000011100010011 k
b1000000000000001001001000 8
b1000000000000001001001000 >
b1000000000000001001001000 D
b1000000000000001001001000 G
b1000000000000001001001000 R
b1000000000000001001001000 Y
b1001001000 S
b1001001000 W
b0 ,
b0 B
b0 c
b0 9
b0 U
b0 X
b0 b
b1000000000000000000010000 /
b1000000000000000000010000 @
b1000000000000000000010000 h
b1001001000 #
b1001001000 Q
b1001001000 e
b1000000000000000000000000 T
b1000000000000000000000000 V
b11 \
b10001 *
b10001 a
b10001 o
b10 ^
05
b1000000000000000000000000 &
b1000000000000000000000000 P
b1000000000000000000000000 s
b1111 )
b1111 `
b1111 p
b1000 (
b1000 _
b1000 q
b10010 ]
b100100100001111010100010000011 ;
b100100100001111010100010000011 [
b1000000000000000000010000 A
b1000000000000000000001100 1
b1000000000000000000001100 ?
b1000000000000000000001100 M
b1000000000000000000001100 Z
1:
#40
0:
#45
b10001110010100000000011 $
b10001110010100000000011 k
b1000000000000001001001000 "
b1000000000000001001001000 E
b1000000000000001001001000 r
b1000000000000000000010100 /
b1000000000000000000010100 @
b1000000000000000000010100 h
b1 ,
b1 B
b1 c
b10011 \
b1110 *
b1110 a
b1110 o
b0 ^
b1000000000000000000010100 A
b1000000000000000000010000 1
b1000000000000000000010000 ?
b1000000000000000000010000 M
b1000000000000000000010000 Z
b100100100001111000011100010011 ;
b100100100001111000011100010011 [
1:
#50
0:
#55
b100100100001111000011100010011 $
b100100100001111000011100010011 k
b100 S
b100 W
b1001 "
b1001 E
b1001 r
b1001 '
b1001 C
b1001 I
b0 ,
b0 B
b0 c
b1000000000000000000011000 /
b1000000000000000000011000 @
b1000000000000000000011000 h
b100 #
b100 Q
b100 e
b1000000000000001001001100 8
b1000000000000001001001100 >
b1000000000000001001001100 D
b1000000000000001001001100 G
b1000000000000001001001100 R
b1000000000000001001001100 Y
b1000000000000001001001000 T
b1000000000000001001001000 V
b11 \
b10000 *
b10000 a
b10000 o
b10 ^
b1000000000000001001001000 &
b1000000000000001001001000 P
b1000000000000001001001000 s
b1110 )
b1110 `
b1110 p
b100 (
b100 _
b100 q
b0 ]
b10001110010100000000011 ;
b10001110010100000000011 [
b1000000000000000000011000 A
b1000000000000000000010100 1
b1000000000000000000010100 ?
b1000000000000000000010100 M
b1000000000000000000010100 Z
1:
#60
0:
#65
b100001110010010100000011 $
b100001110010010100000011 k
b1000000000000001001001000 "
b1000000000000001001001000 E
b1000000000000001001001000 r
b1001001000 S
b1001001000 W
b1100 '
b1100 C
b1100 I
b1000000000000000000011100 /
b1000000000000000000011100 @
b1000000000000000000011100 h
b1 ,
b1 B
b1 c
b1001001000 #
b1001001000 Q
b1001001000 e
b1000000000000001001001000 8
b1000000000000001001001000 >
b1000000000000001001001000 D
b1000000000000001001001000 G
b1000000000000001001001000 R
b1000000000000001001001000 Y
b1000000000000000000000000 T
b1000000000000000000000000 V
b10011 \
b1110 *
b1110 a
b1110 o
b0 ^
b1000000000000000000000000 &
b1000000000000000000000000 P
b1000000000000000000000000 s
b1111 )
b1111 `
b1111 p
b1000 (
b1000 _
b1000 q
b10010 ]
b1000000000000000000011100 A
b1000000000000000000011000 1
b1000000000000000000011000 ?
b1000000000000000000011000 M
b1000000000000000000011000 Z
b100100100001111000011100010011 ;
b100100100001111000011100010011 [
1:
#70
0:
#75
b100100100001111000011100010011 $
b100100100001111000011100010011 k
b1000 S
b1000 W
b100 "
b100 E
b100 r
b100 '
b100 C
b100 I
b0 ,
b0 B
b0 c
b1000000000000000000100000 /
b1000000000000000000100000 @
b1000000000000000000100000 h
b1000 #
b1000 Q
b1000 e
b1000000000000001001010000 8
b1000000000000001001010000 >
b1000000000000001001010000 D
b1000000000000001001010000 G
b1000000000000001001010000 R
b1000000000000001001010000 Y
b1000000000000001001001000 T
b1000000000000001001001000 V
b11 \
b1010 *
b1010 a
b1010 o
b10 ^
b1000000000000001001001000 &
b1000000000000001001001000 P
b1000000000000001001001000 s
b1110 )
b1110 `
b1110 p
b0 ]
b100001110010010100000011 ;
b100001110010010100000011 [
b1000000000000000000100000 A
b1000000000000000000011100 1
b1000000000000000000011100 ?
b1000000000000000000011100 M
b1000000000000000000011100 Z
1:
#80
0:
#85
b110001110010010110000011 $
b110001110010010110000011 k
b1000000000000001001001000 "
b1000000000000001001001000 E
b1000000000000001001001000 r
b1001001000 S
b1001001000 W
b1100 '
b1100 C
b1100 I
b1000000000000000000100100 /
b1000000000000000000100100 @
b1000000000000000000100100 h
b1 ,
b1 B
b1 c
b1001001000 #
b1001001000 Q
b1001001000 e
b1000000000000001001001000 8
b1000000000000001001001000 >
b1000000000000001001001000 D
b1000000000000001001001000 G
b1000000000000001001001000 R
b1000000000000001001001000 Y
b1000000000000000000000000 T
b1000000000000000000000000 V
b10011 \
b1110 *
b1110 a
b1110 o
b0 ^
b1000000000000000000000000 &
b1000000000000000000000000 P
b1000000000000000000000000 s
b1111 )
b1111 `
b1111 p
b10010 ]
b1000000000000000000100100 A
b1000000000000000000100000 1
b1000000000000000000100000 ?
b1000000000000000000100000 M
b1000000000000000000100000 Z
b100100100001111000011100010011 ;
b100100100001111000011100010011 [
1:
#90
0:
#95
b100100100001111000011100010011 $
b100100100001111000011100010011 k
b1100 S
b1100 W
b1100011 "
b1100011 E
b1100011 r
b1100011 '
b1100011 C
b1100011 I
b0 ,
b0 B
b0 c
b1000000000000000000101000 /
b1000000000000000000101000 @
b1000000000000000000101000 h
b1100 #
b1100 Q
b1100 e
b1000000000000001001010100 8
b1000000000000001001010100 >
b1000000000000001001010100 D
b1000000000000001001010100 G
b1000000000000001001010100 R
b1000000000000001001010100 Y
b1000000000000001001001000 T
b1000000000000001001001000 V
b11 \
b1011 *
b1011 a
b1011 o
b10 ^
b1000000000000001001001000 &
b1000000000000001001001000 P
b1000000000000001001001000 s
b1110 )
b1110 `
b1110 p
b1100 (
b1100 _
b1100 q
b0 ]
b110001110010010110000011 ;
b110001110010010110000011 [
b1000000000000000000101000 A
b1000000000000000000100100 1
b1000000000000000000100100 ?
b1000000000000000000100100 M
b1000000000000000000100100 Z
1:
#100
0:
#105
b1000001110010011000000011 $
b1000001110010011000000011 k
b1000000000000001001001000 "
b1000000000000001001001000 E
b1000000000000001001001000 r
b1001001000 S
b1001001000 W
b1100 '
b1100 C
b1100 I
b1000000000000000000101100 /
b1000000000000000000101100 @
b1000000000000000000101100 h
b1 ,
b1 B
b1 c
b1001001000 #
b1001001000 Q
b1001001000 e
b1000000000000001001001000 8
b1000000000000001001001000 >
b1000000000000001001001000 D
b1000000000000001001001000 G
b1000000000000001001001000 R
b1000000000000001001001000 Y
b1000000000000000000000000 T
b1000000000000000000000000 V
b10011 \
b1110 *
b1110 a
b1110 o
b0 ^
b1000000000000000000000000 &
b1000000000000000000000000 P
b1000000000000000000000000 s
b1111 )
b1111 `
b1111 p
b1000 (
b1000 _
b1000 q
b10010 ]
b1000000000000000000101100 A
b1000000000000000000101000 1
b1000000000000000000101000 ?
b1000000000000000000101000 M
b1000000000000000000101000 Z
b100100100001111000011100010011 ;
b100100100001111000011100010011 [
1:
#110
0:
#115
b100100100001111000011100010011 $
b100100100001111000011100010011 k
b10000 S
b10000 W
b1111000 "
b1111000 E
b1111000 r
b1111000 '
b1111000 C
b1111000 I
b0 ,
b0 B
b0 c
b1000000000000000000110000 /
b1000000000000000000110000 @
b1000000000000000000110000 h
b10000 #
b10000 Q
b10000 e
b1000000000000001001011000 8
b1000000000000001001011000 >
b1000000000000001001011000 D
b1000000000000001001011000 G
b1000000000000001001011000 R
b1000000000000001001011000 Y
b1000000000000001001001000 T
b1000000000000001001001000 V
b11 \
b1100 *
b1100 a
b1100 o
b10 ^
b1000000000000001001001000 &
b1000000000000001001001000 P
b1000000000000001001001000 s
b1110 )
b1110 `
b1110 p
b1001 !
b1001 F
b1001 N
b1001 %
b1001 O
b1001 t
b10000 (
b10000 _
b10000 q
b0 ]
b1000001110010011000000011 ;
b1000001110010011000000011 [
b1000000000000000000110000 A
b1000000000000000000101100 1
b1000000000000000000101100 ?
b1000000000000000000101100 M
b1000000000000000000101100 Z
1:
#120
0:
#125
b1010001110010011010000011 $
b1010001110010011010000011 k
b1000000000000001001001000 "
b1000000000000001001001000 E
b1000000000000001001001000 r
b1001001000 S
b1001001000 W
b1100 '
b1100 C
b1100 I
b1000000000000000000110100 /
b1000000000000000000110100 @
b1000000000000000000110100 h
b1 ,
b1 B
b1 c
b1001001000 #
b1001001000 Q
b1001001000 e
b1000000000000001001001000 8
b1000000000000001001001000 >
b1000000000000001001001000 D
b1000000000000001001001000 G
b1000000000000001001001000 R
b1000000000000001001001000 Y
b1000000000000000000000000 T
b1000000000000000000000000 V
b10011 \
b1110 *
b1110 a
b1110 o
b0 ^
b1000000000000000000000000 &
b1000000000000000000000000 P
b1000000000000000000000000 s
b1111 )
b1111 `
b1111 p
b0 !
b0 F
b0 N
b0 %
b0 O
b0 t
b1000 (
b1000 _
b1000 q
b10010 ]
b1000000000000000000110100 A
b1000000000000000000110000 1
b1000000000000000000110000 ?
b1000000000000000000110000 M
b1000000000000000000110000 Z
b100100100001111000011100010011 ;
b100100100001111000011100010011 [
1:
#130
0:
#135
b100100100001111000011100010011 $
b100100100001111000011100010011 k
b10100 S
b10100 W
b1 "
b1 E
b1 r
b1 '
b1 C
b1 I
b0 ,
b0 B
b0 c
b1000000000000000000111000 /
b1000000000000000000111000 @
b1000000000000000000111000 h
b10100 #
b10100 Q
b10100 e
b1000000000000001001011100 8
b1000000000000001001011100 >
b1000000000000001001011100 D
b1000000000000001001011100 G
b1000000000000001001011100 R
b1000000000000001001011100 Y
b1000000000000001001001000 T
b1000000000000001001001000 V
b11 \
b1101 *
b1101 a
b1101 o
b10 ^
b1000000000000001001001000 &
b1000000000000001001001000 P
b1000000000000001001001000 s
b1110 )
b1110 `
b1110 p
b10100 (
b10100 _
b10100 q
b0 ]
b1010001110010011010000011 ;
b1010001110010011010000011 [
b1000000000000000000111000 A
b1000000000000000000110100 1
b1000000000000000000110100 ?
b1000000000000000000110100 M
b1000000000000000000110100 Z
1:
#140
0:
#145
b1100001110010011100000011 $
b1100001110010011100000011 k
b1000000000000001001001000 "
b1000000000000001001001000 E
b1000000000000001001001000 r
b1001001000 S
b1001001000 W
b1100 '
b1100 C
b1100 I
b1000000000000000000111100 /
b1000000000000000000111100 @
b1000000000000000000111100 h
b1 ,
b1 B
b1 c
b1001001000 #
b1001001000 Q
b1001001000 e
b1000000000000001001001000 8
b1000000000000001001001000 >
b1000000000000001001001000 D
b1000000000000001001001000 G
b1000000000000001001001000 R
b1000000000000001001001000 Y
b1000000000000000000000000 T
b1000000000000000000000000 V
b10011 \
b1110 *
b1110 a
b1110 o
b0 ^
b1000000000000000000000000 &
b1000000000000000000000000 P
b1000000000000000000000000 s
b1111 )
b1111 `
b1111 p
b1000 (
b1000 _
b1000 q
b10010 ]
b1000000000000000000111100 A
b1000000000000000000111000 1
b1000000000000000000111000 ?
b1000000000000000000111000 M
b1000000000000000000111000 Z
b100100100001111000011100010011 ;
b100100100001111000011100010011 [
1:
#150
0:
#155
b100100100001111000011110010011 $
b100100100001111000011110010011 k
b11000 S
b11000 W
b11 "
b11 E
b11 r
b11 '
b11 C
b11 I
b0 ,
b0 B
b0 c
b1000000000000000001000000 /
b1000000000000000001000000 @
b1000000000000000001000000 h
b11000 #
b11000 Q
b11000 e
b1000000000000001001100000 8
b1000000000000001001100000 >
b1000000000000001001100000 D
b1000000000000001001100000 G
b1000000000000001001100000 R
b1000000000000001001100000 Y
b1000000000000001001001000 T
b1000000000000001001001000 V
b11 \
b10 ^
b1000000000000001001001000 &
b1000000000000001001001000 P
b1000000000000001001001000 s
b1110 )
b1110 `
b1110 p
b11000 (
b11000 _
b11000 q
b0 ]
b1100001110010011100000011 ;
b1100001110010011100000011 [
b1000000000000000001000000 A
b1000000000000000000111100 1
b1000000000000000000111100 ?
b1000000000000000000111100 M
b1000000000000000000111100 Z
1:
#160
0:
#165
b1110001111010011110000011 $
b1110001111010011110000011 k
b1000000000000001001001000 "
b1000000000000001001001000 E
b1000000000000001001001000 r
b1001001000 S
b1001001000 W
b1100 '
b1100 C
b1100 I
b1000000000000000001000100 /
b1000000000000000001000100 @
b1000000000000000001000100 h
b1 ,
b1 B
b1 c
b1001001000 #
b1001001000 Q
b1001001000 e
b1000000000000001001001000 8
b1000000000000001001001000 >
b1000000000000001001001000 D
b1000000000000001001001000 G
b1000000000000001001001000 R
b1000000000000001001001000 Y
b1000000000000000000000000 T
b1000000000000000000000000 V
b10011 \
b1111 *
b1111 a
b1111 o
b0 ^
b1111 )
b1111 `
b1111 p
b1000 (
b1000 _
b1000 q
b10010 ]
b1000000000000000001000100 A
b1000000000000000001000000 1
b1000000000000000001000000 ?
b1000000000000000001000000 M
b1000000000000000001000000 Z
b1000000000000000000000000 &
b1000000000000000000000000 P
b1000000000000000000000000 s
b100100100001111000011110010011 ;
b100100100001111000011110010011 [
1:
#170
0:
#175
b1000100010010000000100011 $
b1000100010010000000100011 k
b11100 S
b11100 W
b1010 "
b1010 E
b1010 r
b1010 '
b1010 C
b1010 I
b0 ,
b0 B
b0 c
b1000000000000000001001000 /
b1000000000000000001001000 @
b1000000000000000001001000 h
b11100 #
b11100 Q
b11100 e
b1000000000000001001100100 8
b1000000000000001001100100 >
b1000000000000001001100100 D
b1000000000000001001100100 G
b1000000000000001001100100 R
b1000000000000001001100100 Y
b11 \
b10 ^
b11100 (
b11100 _
b11100 q
b0 ]
b1000000000000001001001000 T
b1000000000000001001001000 V
b1110001111010011110000011 ;
b1110001111010011110000011 [
b1000000000000001001001000 &
b1000000000000001001001000 P
b1000000000000001001001000 s
b1000000000000000001001000 A
b1000000000000000001000100 1
b1000000000000000001000100 ?
b1000000000000000001000100 M
b1000000000000000001000100 Z
1:
#180
0:
#185
b0 "
b0 E
b0 r
b1000000010010001000100011 $
b1000000010010001000100011 k
b0 S
b0 W
b0 '
b0 C
b0 I
b1000000000000000001001100 /
b1000000000000000001001100 @
b1000000000000000001001100 h
0-
12
b0 #
b0 Q
b0 e
b1000000010001000011100001 8
b1000000010001000011100001 >
b1000000010001000011100001 D
b1000000010001000011100001 G
b1000000010001000011100001 R
b1000000010001000011100001 Y
b1000000010001000011100001 T
b1000000010001000011100001 V
b100011 \
b0 *
b0 a
b0 o
b10 )
b10 `
b10 p
b1100 !
b1100 F
b1100 N
b1100 %
b1100 O
b1100 t
b10001 (
b10001 _
b10001 q
b1000000000000000001001100 A
b1000000000000000001001000 1
b1000000000000000001001000 ?
b1000000000000000001001000 M
b1000000000000000001001000 Z
b1000000010001000011100001 &
b1000000010001000011100001 P
b1000000010001000011100001 s
b1000100010010000000100011 ;
b1000100010010000000100011 [
1:
#190
0:
#195
b101000010010010000100011 $
b101000010010010000100011 k
b1000000010001000011100101 8
b1000000010001000011100101 >
b1000000010001000011100101 D
b1000000010001000011100101 G
b1000000010001000011100101 R
b1000000010001000011100101 Y
b100 S
b100 W
b1000000000000000001010000 /
b1000000000000000001010000 @
b1000000000000000001010000 h
b100 #
b100 Q
b100 e
b100 *
b100 a
b100 o
b1001 !
b1001 F
b1001 N
b1001 %
b1001 O
b1001 t
b10000 (
b10000 _
b10000 q
b1000000010010001000100011 ;
b1000000010010001000100011 [
b1000000000000000001010000 A
b1000000000000000001001100 1
b1000000000000000001001100 ?
b1000000000000000001001100 M
b1000000000000000001001100 Z
1:
#200
0:
#205
b101100010010011000100011 $
b101100010010011000100011 k
b1000000010001000011101001 8
b1000000010001000011101001 >
b1000000010001000011101001 D
b1000000010001000011101001 G
b1000000010001000011101001 R
b1000000010001000011101001 Y
b1000 S
b1000 W
b1000000000000000001010100 /
b1000000000000000001010100 @
b1000000000000000001010100 h
b1000 #
b1000 Q
b1000 e
b1000 *
b1000 a
b1000 o
b100 !
b100 F
b100 N
b100 %
b100 O
b100 t
b1010 (
b1010 _
b1010 q
b1000000000000000001010100 A
b1000000000000000001010000 1
b1000000000000000001010000 ?
b1000000000000000001010000 M
b1000000000000000001010000 Z
b101000010010010000100011 ;
b101000010010010000100011 [
1:
#210
0:
#215
b110000010010100000100011 $
b110000010010100000100011 k
b1000000010001000011101101 8
b1000000010001000011101101 >
b1000000010001000011101101 D
b1000000010001000011101101 G
b1000000010001000011101101 R
b1000000010001000011101101 Y
b1100 S
b1100 W
b1000000000000000001011000 /
b1000000000000000001011000 @
b1000000000000000001011000 h
b1100 #
b1100 Q
b1100 e
b1100 *
b1100 a
b1100 o
b1100011 !
b1100011 F
b1100011 N
b1100011 %
b1100011 O
b1100011 t
b1011 (
b1011 _
b1011 q
b101100010010011000100011 ;
b101100010010011000100011 [
b1000000000000000001011000 A
b1000000000000000001010100 1
b1000000000000000001010100 ?
b1000000000000000001010100 M
b1000000000000000001010100 Z
1:
#220
0:
#225
b110100010010101000100011 $
b110100010010101000100011 k
b1000000010001000011110001 8
b1000000010001000011110001 >
b1000000010001000011110001 D
b1000000010001000011110001 G
b1000000010001000011110001 R
b1000000010001000011110001 Y
b10000 S
b10000 W
b1000000000000000001011100 /
b1000000000000000001011100 @
b1000000000000000001011100 h
b10000 #
b10000 Q
b10000 e
b10000 *
b10000 a
b10000 o
b1111000 !
b1111000 F
b1111000 N
b1111000 %
b1111000 O
b1111000 t
b1100 (
b1100 _
b1100 q
b1000000000000000001011100 A
b1000000000000000001011000 1
b1000000000000000001011000 ?
b1000000000000000001011000 M
b1000000000000000001011000 Z
b110000010010100000100011 ;
b110000010010100000100011 [
1:
#230
0:
#235
b111000010010110000100011 $
b111000010010110000100011 k
b1000000010001000011110101 8
b1000000010001000011110101 >
b1000000010001000011110101 D
b1000000010001000011110101 G
b1000000010001000011110101 R
b1000000010001000011110101 Y
b10100 S
b10100 W
b1000000000000000001100000 /
b1000000000000000001100000 @
b1000000000000000001100000 h
b10100 #
b10100 Q
b10100 e
b10100 *
b10100 a
b10100 o
b1 !
b1 F
b1 N
b1 %
b1 O
b1 t
b1101 (
b1101 _
b1101 q
b110100010010101000100011 ;
b110100010010101000100011 [
b1000000000000000001100000 A
b1000000000000000001011100 1
b1000000000000000001011100 ?
b1000000000000000001011100 M
b1000000000000000001011100 Z
1:
#240
0:
#245
b111100010010111000100011 $
b111100010010111000100011 k
b1000000010001000011111001 8
b1000000010001000011111001 >
b1000000010001000011111001 D
b1000000010001000011111001 G
b1000000010001000011111001 R
b1000000010001000011111001 Y
b11000 S
b11000 W
b1000000000000000001100100 /
b1000000000000000001100100 @
b1000000000000000001100100 h
b11000 #
b11000 Q
b11000 e
b11000 *
b11000 a
b11000 o
b11 !
b11 F
b11 N
b11 %
b11 O
b11 t
b1110 (
b1110 _
b1110 q
b1000000000000000001100100 A
b1000000000000000001100000 1
b1000000000000000001100000 ?
b1000000000000000001100000 M
b1000000000000000001100000 Z
b111000010010110000100011 ;
b111000010010110000100011 [
1:
#250
0:
#255
b10000011110010011 $
b10000011110010011 k
b1000000010001000011111101 8
b1000000010001000011111101 >
b1000000010001000011111101 D
b1000000010001000011111101 G
b1000000010001000011111101 R
b1000000010001000011111101 Y
b11100 S
b11100 W
b1000000000000000001101000 /
b1000000000000000001101000 @
b1000000000000000001101000 h
b11100 #
b11100 Q
b11100 e
b11100 *
b11100 a
b11100 o
b1010 !
b1010 F
b1010 N
b1010 %
b1010 O
b1010 t
b1111 (
b1111 _
b1111 q
b111100010010111000100011 ;
b111100010010111000100011 [
b1000000000000000001101000 A
b1000000000000000001100100 1
b1000000000000000001100100 ?
b1000000000000000001100100 M
b1000000000000000001100100 Z
1:
#260
0:
#265
b100000000000010110010011 $
b100000000000010110010011 k
b1000000010001000011100001 "
b1000000010001000011100001 E
b1000000010001000011100001 r
b1100 '
b1100 C
b1100 I
b1000000010001000011100001 8
b1000000010001000011100001 >
b1000000010001000011100001 D
b1000000010001000011100001 G
b1000000010001000011100001 R
b1000000010001000011100001 Y
b0 S
b0 W
b1000000000000000001101100 /
b1000000000000000001101100 @
b1000000000000000001101100 h
b1 ,
b1 B
b1 c
1-
02
b0 #
b0 Q
b0 e
b10011 \
b1111 *
b1111 a
b1111 o
b0 ^
b0 !
b0 F
b0 N
b0 %
b0 O
b0 t
b0 (
b0 _
b0 q
b1000000000000000001101100 A
b1000000000000000001101000 1
b1000000000000000001101000 ?
b1000000000000000001101000 M
b1000000000000000001101000 Z
b10000011110010011 ;
b10000011110010011 [
1:
#270
0:
