Unpiped full CPU/testbench.vcd
$date
	Sat Jun 20 20:01:21 2020
$end
$version
	Icarus Verilog
$end
$timescale
	1s
$end
$scope module dut $end
$var wire 32 ! wb [31:0] $end
$var wire 32 " imm [31:0] $end
$var wire 32 # i_mem_out [31:0] $end
$var wire 32 $ data_rs2 [31:0] $end
$var wire 32 % data_rs1 [31:0] $end
$var wire 32 & d_mem_out [31:0] $end
$var wire 5 ' addr_rs2 [4:0] $end
$var wire 5 ( addr_rs1 [4:0] $end
$var wire 5 ) addr_rd [4:0] $end
$var wire 2 * access_size [1:0] $end
$var wire 2 + WBSel [1:0] $end
$var wire 1 , RegWE $end
$var wire 1 - RdUn $end
$var wire 32 . PC_next [31:0] $end
$var wire 1 / PCSel $end
$var wire 32 0 PC [31:0] $end
$var wire 1 1 MemRW $end
$var wire 1 2 BrUn $end
$var wire 1 3 BrLt $end
$var wire 1 4 BrEq $end
$var wire 1 5 BSel $end
$var wire 1 6 ASel $end
$var wire 32 7 ALU_out [31:0] $end
$var wire 32 8 ALU_in2 [31:0] $end
$var wire 32 9 ALU_in1 [31:0] $end
$var wire 4 : ALUSel [3:0] $end
$var reg 1 ; clk $end
$var reg 32 < instruction [31:0] $end
$scope module PCMux $end
$var wire 1 ; clk $end
$var wire 1 / PCSel $end
$var wire 32 = ALU_out [31:0] $end
$var reg 32 > PC [31:0] $end
$var reg 32 ? PC_next [31:0] $end
$upscope $end
$scope module WBMux1 $end
$var wire 1 ; clk $end
$var wire 32 @ pc_next [31:0] $end
$var wire 2 A sel [1:0] $end
$var wire 32 B dmem [31:0] $end
$var wire 32 C alu [31:0] $end
$var reg 32 D out [31:0] $end
$upscope $end
$scope module alu1 $end
$var wire 32 E rs1 [31:0] $end
$var wire 32 F rs2 [31:0] $end
$var wire 4 G ALUsel [3:0] $end
$var reg 32 H alu_res [31:0] $end
$upscope $end
$scope module d_mem $end
$var wire 32 I address [31:0] $end
$var wire 1 ; clk $end
$var wire 1 1 w_enable $end
$var wire 32 J data_in [31:0] $end
$var wire 2 K access_size [1:0] $end
$var wire 1 - RdUn $end
$var reg 32 L data_out [31:0] $end
$var reg 32 M relevant_addr [31:0] $end
$var reg 32 N t_reg [31:0] $end
$var integer 32 O i [31:0] $end
$upscope $end
$scope module fd1 $end
$var wire 1 4 BrEq $end
$var wire 1 3 BrLt $end
$var wire 32 P PC [31:0] $end
$var wire 1 ; clk $end
$var wire 32 Q instruction [31:0] $end
$var wire 7 R opcode [6:0] $end
$var wire 7 S funct7 [6:0] $end
$var wire 3 T funct3 [2:0] $end
$var wire 5 U addr_rs2 [4:0] $end
$var wire 5 V addr_rs1 [4:0] $end
$var wire 5 W addr_rd [4:0] $end
$var wire 1 2 BrUn $end
$var reg 4 X ALUSel [3:0] $end
$var reg 1 6 ASel $end
$var reg 1 5 BSel $end
$var reg 1 1 MemRW $end
$var reg 1 / PCSel $end
$var reg 1 - RdUn $end
$var reg 1 , RegWE $end
$var reg 2 Y WBSel [1:0] $end
$var reg 2 Z access_size [1:0] $end
$var reg 32 [ imm [31:0] $end
$scope task decode_bType $end
$upscope $end
$scope task decode_iType $end
$upscope $end
$scope task decode_jType $end
$upscope $end
$scope task decode_rType $end
$upscope $end
$scope task decode_sType $end
$upscope $end
$scope task decode_uType $end
$upscope $end
$upscope $end
$scope module i_mem $end
$var wire 1 \ RdUn $end
$var wire 2 ] access_size [1:0] $end
$var wire 32 ^ address [31:0] $end
$var wire 1 ; clk $end
$var wire 32 _ data_in [31:0] $end
$var wire 1 ` w_enable $end
$var reg 32 a data_out [31:0] $end
$var reg 32 b relevant_addr [31:0] $end
$var reg 32 c t_reg [31:0] $end
$var integer 32 d i [31:0] $end
$upscope $end
$scope module reg_file $end
$var wire 5 e addr_rd [4:0] $end
$var wire 5 f addr_rs1 [4:0] $end
$var wire 5 g addr_rs2 [4:0] $end
$var wire 1 ; clk $end
$var wire 32 h data_rd [31:0] $end
$var wire 32 i data_rs1 [31:0] $end
$var wire 32 j data_rs2 [31:0] $end
$var wire 1 , write_enable $end
$var integer 32 k i [31:0] $end
$upscope $end
$upscope $end
$enddefinitions $end
#0
$dumpvars
b100000 k
bx j
bx i
bx h
bx g
bx f
bx e
b100000000000000000001 d
bx c
b1000000000000000001000100 b
b10010011 a
0`
b0 _
b1000000000000000000000000 ^
b10 ]
0\
bx [
b0 Z
b1 Y
b0 X
bx W
bx V
bx U
bx T
bx S
bx R
bx Q
b111111111111111111111100 P
b100000000000000000001 O
bx N
b1000000000000000001000100 M
bx L
b0 K
bx J
bx I
bx H
b0 G
bx F
bx E
bx D
bx C
bx B
b1 A
b1000000000000000000000000 @
b1000000000000000000000000 ?
b111111111111111111111100 >
bx =
bx <
0;
b0 :
bx 9
bx 8
bx 7
x6
x5
x4
x3
x2
x1
b111111111111111111111100 0
1/
b1000000000000000000000000 .
0-
x,
b1 +
b0 *
bx )
bx (
bx '
bx &
bx %
bx $
b10010011 #
bx "
bx !
$end
#5
b0 !
b0 D
b0 h
b100010011 #
b100010011 a
b10111010110110111010110111111111 &
b10111010110110111010110111111111 B
b10111010110110111010110111111111 L
b0 7
b0 =
b0 C
b0 H
b0 I
b0 8
b0 F
b1000000000000000000000100 .
b1000000000000000000000100 ?
b1000000000000000000000100 ^
1,
01
05
16
b0 "
b0 [
02
03
b0 9
b0 E
b10011 R
b1 )
b1 W
b1 e
b0 T
14
b0 %
b0 i
b0 (
b0 V
b0 f
b0 $
b0 J
b0 j
b0 '
b0 U
b0 g
b0 S
b1000000000000000000000100 @
b1000000000000000000000000 0
b1000000000000000000000000 >
b1000000000000000000000000 P
b10010011 <
b10010011 Q
1;
#10
0;
#15
b1000001000111100110011 #
b1000001000111100110011 a
b1000000000000000000001000 .
b1000000000000000000001000 ?
b1000000000000000000001000 ^
b10 )
b10 W
b10 e
b100010011 <
b100010011 Q
b1000000000000000000001000 @
b1000000000000000000000100 0
b1000000000000000000000100 >
b1000000000000000000000100 P
1;
#20
0;
#25
b111010010011 #
b111010010011 a
b1000000000000000000001100 .
b1000000000000000000001100 ?
b1000000000000000000001100 ^
15
b110011 R
b11110 )
b11110 W
b11110 e
b1 (
b1 V
b1 f
b10 '
b10 U
b10 g
b1000000000000000000001100 @
b1000000000000000000001000 0
b1000000000000000000001000 >
b1000000000000000000001000 P
b1000001000111100110011 <
b1000001000111100110011 Q
1;
#30
0;
#35
b1000000000000110010011 #
b1000000000000110010011 a
05
b1000000000000000000010000 .
b1000000000000000000010000 ?
b1000000000000000000010000 ^
b10011 R
b11101 )
b11101 W
b11101 e
b0 (
b0 V
b0 f
b0 '
b0 U
b0 g
b111010010011 <
b111010010011 Q
b1000000000000000000010000 @
b1000000000000000000001100 0
b1000000000000000000001100 >
b1000000000000000000001100 P
1;
#40
0;
#45
b10 !
b10 D
b10 h
b1001101110111110001011001100011 #
b1001101110111110001011001100011 a
b10 7
b10 =
b10 C
b10 H
b10 I
b10 8
b10 F
b1000000000000000000010100 .
b1000000000000000000010100 ?
b1000000000000000000010100 ^
b10 "
b10 [
b11 )
b11 W
b11 e
b10 '
b10 U
b10 g
b1000000000000000000010100 @
b1000000000000000000010000 0
b1000000000000000000010000 >
b1000000000000000000010000 P
b1000000000000110010011 <
b1000000000000110010011 Q
1;
#50
0;
#55
b1111 &
b1111 B
b1111 L
b1111 !
b1111 D
b1111 h
b100000000000010010011 #
b100000000000010010011 a
b1000000000000010011100000 7
b1000000000000010011100000 =
b1000000000000010011100000 C
b1000000000000010011100000 H
b1000000000000010011100000 I
b1000000000000000000010100 9
b1000000000000000000010100 E
b10011001100 8
b10011001100 F
b0 +
b0 A
b0 Y
0,
06
b1000000000000000000011000 .
b1000000000000000000011000 ?
b1000000000000000000011000 ^
b10011001100 "
b10011001100 [
b1100011 R
b1100 )
b1100 W
b1100 e
b1 T
b11110 (
b11110 V
b11110 f
b11101 '
b11101 U
b11101 g
b100110 S
b1001101110111110001011001100011 <
b1001101110111110001011001100011 Q
b1000000000000000000011000 @
b1000000000000000000010100 0
b1000000000000000000010100 >
b1000000000000000000010100 P
1;
#60
0;
#65
b100000000000100010011 #
b100000000000100010011 a
b1 !
b1 D
b1 h
b1 8
b1 F
b10111010110110111010110111111111 &
b10111010110110111010110111111111 B
b10111010110110111010110111111111 L
b1000000000000000000011100 .
b1000000000000000000011100 ?
b1000000000000000000011100 ^
b1 +
b1 A
b1 Y
1,
16
b1 "
b1 [
b1 7
b1 =
b1 C
b1 H
b1 I
b0 9
b0 E
b10011 R
b1 )
b1 W
b1 e
b0 T
b0 (
b0 V
b0 f
b1 '
b1 U
b1 g
b0 S
b1000000000000000000011100 @
b1000000000000000000011000 0
b1000000000000000000011000 >
b1000000000000000000011000 P
b100000000000010010011 <
b100000000000010010011 Q
1;
#70
0;
#75
b1000001000111100110011 #
b1000001000111100110011 a
b1000000000000000000100000 .
b1000000000000000000100000 ?
b1000000000000000000100000 ^
b10 )
b10 W
b10 e
13
b100000000000100010011 <
b100000000000100010011 Q
04
b1 $
b1 J
b1 j
b1000000000000000000100000 @
b1000000000000000000011100 0
b1000000000000000000011100 >
b1000000000000000000011100 P
1;
#80
0;
#85
b1000000000111010010011 #
b1000000000111010010011 a
b10 !
b10 D
b10 h
b1000000000000000000100100 .
b1000000000000000000100100 ?
b1000000000000000000100100 ^
15
b10 7
b10 =
b10 C
b10 H
b10 I
03
b1 9
b1 E
b110011 R
b11110 )
b11110 W
b11110 e
14
b1 %
b1 i
b1 (
b1 V
b1 f
b10 '
b10 U
b10 g
b1000000000000000000100100 @
b1000000000000000000100000 0
b1000000000000000000100000 >
b1000000000000000000100000 P
b1000001000111100110011 <
b1000001000111100110011 Q
1;
#90
0;
#95
b1100000000000110010011 #
b1100000000000110010011 a
b10 8
b10 F
b10 !
b10 D
b10 h
05
b10 "
b10 [
b1000000000000000000101000 .
b1000000000000000000101000 ?
b1000000000000000000101000 ^
b10 7
b10 =
b10 C
b10 H
b10 I
13
b0 9
b0 E
b10011 R
b11101 )
b11101 W
b11101 e
04
b0 %
b0 i
b0 (
b0 V
b0 f
b1000000000111010010011 <
b1000000000111010010011 Q
b1000000000000000000101000 @
b1000000000000000000100100 0
b1000000000000000000100100 >
b1000000000000000000100100 P
1;
#100
0;
#105
b11 !
b11 D
b11 h
b1001011110111110001101001100011 #
b1001011110111110001101001100011 a
b11 7
b11 =
b11 C
b11 H
b11 I
b11 8
b11 F
b1000000000000000000101100 .
b1000000000000000000101100 ?
b1000000000000000000101100 ^
b11 "
b11 [
b11 )
b11 W
b11 e
b10 $
b10 J
b10 j
b11 '
b11 U
b11 g
b1000000000000000000101100 @
b1000000000000000000101000 0
b1000000000000000000101000 >
b1000000000000000000101000 P
b1100000000000110010011 <
b1100000000000110010011 Q
1;
#110
0;
#115
b1111 &
b1111 B
b1111 L
b1100000000000010010011 #
b1100000000000010010011 a
b10010110100 8
b10010110100 F
b1111 !
b1111 D
b1111 h
b0 +
b0 A
b0 Y
0,
06
b1000000000000000000110000 .
b1000000000000000000110000 ?
b1000000000000000000110000 ^
b10010110100 "
b10010110100 [
b1000000000000010011100000 7
b1000000000000010011100000 =
b1000000000000010011100000 C
b1000000000000010011100000 H
b1000000000000010011100000 I
03
b1000000000000000000101100 9
b1000000000000000000101100 E
b1100011 R
b10100 )
b10100 W
b10100 e
b1 T
14
b10 %
b10 i
b11110 (
b11110 V
b11110 f
b11101 '
b11101 U
b11101 g
b100101 S
b1001011110111110001101001100011 <
b1001011110111110001101001100011 Q
b10 $
b10 J
b10 j
b1000000000000000000110000 @
b1000000000000000000101100 0
b1000000000000000000101100 >
b1000000000000000000101100 P
1;
#120
0;
#125
b11100000000000100010011 #
b11100000000000100010011 a
b11 !
b11 D
b11 h
b11 8
b11 F
b10111010110110111010110111111111 &
b10111010110110111010110111111111 B
b10111010110110111010110111111111 L
b1000000000000000000110100 .
b1000000000000000000110100 ?
b1000000000000000000110100 ^
b1 +
b1 A
b1 Y
1,
16
b11 "
b11 [
b11 7
b11 =
b11 C
b11 H
b11 I
13
b0 9
b0 E
b10011 R
b1 )
b1 W
b1 e
b0 T
b0 %
b0 i
b0 (
b0 V
b0 f
04
b11 $
b11 J
b11 j
b11 '
b11 U
b11 g
b0 S
b1000000000000000000110100 @
b1000000000000000000110000 0
b1000000000000000000110000 >
b1000000000000000000110000 P
b1100000000000010010011 <
b1100000000000010010011 Q
1;
#130
0;
#135
b111 !
b111 D
b111 h
b1000001000111100110011 #
b1000001000111100110011 a
b111 7
b111 =
b111 C
b111 H
b111 I
b111 8
b111 F
b1000000000000000000111000 .
b1000000000000000000111000 ?
b1000000000000000000111000 ^
b111 "
b111 [
b10 )
b10 W
b10 e
b111 $
b111 J
b111 j
b111 '
b111 U
b111 g
b11100000000000100010011 <
b11100000000000100010011 Q
b1000000000000000000111000 @
b1000000000000000000110100 0
b1000000000000000000110100 >
b1000000000000000000110100 P
1;
#140
0;
#145
b101000000000111010010011 #
b101000000000111010010011 a
b1010 !
b1010 D
b1010 h
b1000000000000000000111100 .
b1000000000000000000111100 ?
b1000000000000000000111100 ^
15
b1010 7
b1010 =
b1010 C
b1010 H
b1010 I
b11 9
b11 E
b110011 R
b11110 )
b11110 W
b11110 e
b11 %
b11 i
b1 (
b1 V
b1 f
b10 '
b10 U
b10 g
b1000000000000000000111100 @
b1000000000000000000111000 0
b1000000000000000000111000 >
b1000000000000000000111000 P
b1000001000111100110011 <
b1000001000111100110011 Q
1;
#150
0;
#155
b10000000000000110010011 #
b10000000000000110010011 a
05
b1010 "
b1010 [
b1000000000000000001000000 .
b1000000000000000001000000 ?
b1000000000000000001000000 ^
b0 9
b0 E
b1010 8
b1010 F
b10011 R
b11101 )
b11101 W
b11101 e
b0 %
b0 i
b0 (
b0 V
b0 f
b1010 $
b1010 J
b1010 j
b1010 '
b1010 U
b1010 g
b101000000000111010010011 <
b101000000000111010010011 Q
b1000000000000000001000000 @
b1000000000000000000111100 0
b1000000000000000000111100 >
b1000000000000000000111100 P
1;
#160
0;
#165
b100 !
b100 D
b100 h
b1001001110111110001111001100011 #
b1001001110111110001111001100011 a
b100 7
b100 =
b100 C
b100 H
b100 I
b100 8
b100 F
b1000000000000000001000100 .
b1000000000000000001000100 ?
b1000000000000000001000100 ^
b100 "
b100 [
b11 )
b11 W
b11 e
b100 $
b100 J
b100 j
b100 '
b100 U
b100 g
b1000000000000000001000100 @
b1000000000000000001000000 0
b1000000000000000001000000 >
b1000000000000000001000000 P
b10000000000000110010011 <
b10000000000000110010011 Q
1;
#170
0;
#175
b1111 &
b1111 B
b1111 L
b10010011 #
b10010011 a
b10010011100 8
b10010011100 F
b1111 !
b1111 D
b1111 h
b0 +
b0 A
b0 Y
0,
06
b1000000000000000001001000 .
b1000000000000000001001000 ?
b1000000000000000001001000 ^
b10010011100 "
b10010011100 [
b1000000000000010011100000 7
b1000000000000010011100000 =
b1000000000000010011100000 C
b1000000000000010011100000 H
b1000000000000010011100000 I
03
b1000000000000000001000100 9
b1000000000000000001000100 E
b1100011 R
b11100 )
b11100 W
b11100 e
b1 T
14
b1010 %
b1010 i
b11110 (
b11110 V
b11110 f
b1010 $
b1010 J
b1010 j
b11101 '
b11101 U
b11101 g
b100100 S
b1001001110111110001111001100011 <
b1001001110111110001111001100011 Q
b1000000000000000001001000 @
b1000000000000000001000100 0
b1000000000000000001000100 >
b1000000000000000001000100 P
1;
#180
0;
#185
b11111111111111111000000100110111 #
b11111111111111111000000100110111 a
b0 !
b0 D
b0 h
b0 8
b0 F
b10111010110110111010110111111111 &
b10111010110110111010110111111111 B
b10111010110110111010110111111111 L
b1000000000000000001001100 .
b1000000000000000001001100 ?
b1000000000000000001001100 ^
b1 +
b1 A
b1 Y
1,
16
b0 "
b0 [
b0 7
b0 =
b0 C
b0 H
b0 I
b0 9
b0 E
b10011 R
b1 )
b1 W
b1 e
b0 T
b0 %
b0 i
b0 (
b0 V
b0 f
14
b0 $
b0 J
b0 j
b0 '
b0 U
b0 g
b0 S
b1000000000000000001001100 @
b1000000000000000001001000 0
b1000000000000000001001000 >
b1000000000000000001001000 P
b10010011 <
b10010011 Q
1;
#190
0;
#195
b1000001000111100110011 #
b1000001000111100110011 a
b11111111111111111000000000000000 8
b11111111111111111000000000000000 F
b11111111111111111000000000000000 !
b11111111111111111000000000000000 D
b11111111111111111000000000000000 h
b1011 :
b1011 G
b1011 X
b1000000000000000001010000 .
b1000000000000000001010000 ?
b1000000000000000001010000 ^
b11111111111111111000000000000000 "
b11111111111111111000000000000000 [
b11111111111111111000000000000000 7
b11111111111111111000000000000000 =
b11111111111111111000000000000000 C
b11111111111111111000000000000000 H
b11111111111111111000000000000000 I
b11111 9
b11111 E
b110111 R
b10 )
b10 W
b10 e
b11111 %
b11111 i
b11111 (
b11111 V
b11111 f
14
b11111 $
b11111 J
b11111 j
b11111 '
b11111 U
b11111 g
b1111111 S
b11111111111111111000000100110111 <
b11111111111111111000000100110111 Q
b1000000000000000001010000 @
b1000000000000000001001100 0
b1000000000000000001001100 >
b1000000000000000001001100 P
1;
#200
0;
#205
b11111111111111111000111010110111 #
b11111111111111111000111010110111 a
b1000000000000000001010100 .
b1000000000000000001010100 ?
b1000000000000000001010100 ^
b0 :
b0 G
b0 X
15
b0 9
b0 E
b110011 R
b11110 )
b11110 W
b11110 e
b0 %
b0 i
b1 (
b1 V
b1 f
04
b11111111111111111000000000000000 $
b11111111111111111000000000000000 J
b11111111111111111000000000000000 j
b10 '
b10 U
b10 g
b0 S
b1000000000000000001010100 @
b1000000000000000001010000 0
b1000000000000000001010000 >
b1000000000000000001010000 P
b1000001000111100110011 <
b1000001000111100110011 Q
1;
#210
0;
#215
b10100000000000110010011 #
b10100000000000110010011 a
b11111111111111111000000000000000 !
b11111111111111111000000000000000 D
b11111111111111111000000000000000 h
b1011 :
b1011 G
b1011 X
05
b1000000000000000001011000 .
b1000000000000000001011000 ?
b1000000000000000001011000 ^
b11111111111111111000000000000000 7
b11111111111111111000000000000000 =
b11111111111111111000000000000000 C
b11111111111111111000000000000000 H
b11111111111111111000000000000000 I
b11111 9
b11111 E
b11111111111111111000000000000000 8
b11111111111111111000000000000000 F
b110111 R
b11101 )
b11101 W
b11101 e
14
b11111 %
b11111 i
b11111 (
b11111 V
b11111 f
b11111 $
b11111 J
b11111 j
b11111 '
b11111 U
b11111 g
b1111111 S
b11111111111111111000111010110111 <
b11111111111111111000111010110111 Q
b1000000000000000001011000 @
b1000000000000000001010100 0
b1000000000000000001010100 >
b1000000000000000001010100 P
1;
#220
0;
#225
b101 !
b101 D
b101 h
b1001001110111110001001001100011 #
b1001001110111110001001001100011 a
b101 7
b101 =
b101 C
b101 H
b101 I
b101 8
b101 F
b1000000000000000001011100 .
b1000000000000000001011100 ?
b1000000000000000001011100 ^
b0 :
b0 G
b0 X
b101 "
b101 [
13
b0 9
b0 E
b10011 R
b11 )
b11 W
b11 e
b0 %
b0 i
b0 (
b0 V
b0 f
04
b101 $
b101 J
b101 j
b101 '
b101 U
b101 g
b0 S
b1000000000000000001011100 @
b1000000000000000001011000 0
b1000000000000000001011000 >
b1000000000000000001011000 P
b10100000000000110010011 <
b10100000000000110010011 Q
1;
#230
0;
#235
b1111 &
b1111 B
b1111 L
b10000000000000000000000010110111 #
b10000000000000000000000010110111 a
b10010000100 8
b10010000100 F
b1111 !
b1111 D
b1111 h
b0 +
b0 A
b0 Y
0,
06
b1000000000000000001100000 .
b1000000000000000001100000 ?
b1000000000000000001100000 ^
b10010000100 "
b10010000100 [
b1000000000000010011100000 7
b1000000000000010011100000 =
b1000000000000010011100000 C
b1000000000000010011100000 H
b1000000000000010011100000 I
b1000000000000000001011100 9
b1000000000000000001011100 E
03
b1100011 R
b100 )
b100 W
b100 e
b1 T
14
b11111111111111111000000000000000 %
b11111111111111111000000000000000 i
b11110 (
b11110 V
b11110 f
b11111111111111111000000000000000 $
b11111111111111111000000000000000 J
b11111111111111111000000000000000 j
b11101 '
b11101 U
b11101 g
b100100 S
b1001001110111110001001001100011 <
b1001001110111110001001001100011 Q
b1000000000000000001100000 @
b1000000000000000001011100 0
b1000000000000000001011100 >
b1000000000000000001011100 P
1;
#240
0;
#245
b100010011 #
b100010011 a
b10000000000000000000000000000000 !
b10000000000000000000000000000000 D
b10000000000000000000000000000000 h
b10000000000000000000000000000000 8
b10000000000000000000000000000000 F
b10111010110110111010110111111111 &
b10111010110110111010110111111111 B
b10111010110110111010110111111111 L
b1000000000000000001100100 .
b1000000000000000001100100 ?
b1000000000000000001100100 ^
b1 +
b1 A
b1 Y
1,
b1011 :
b1011 G
b1011 X
16
b10000000000000000000000000000000 "
b10000000000000000000000000000000 [
b10000000000000000000000000000000 7
b10000000000000000000000000000000 =
b10000000000000000000000000000000 C
b10000000000000000000000000000000 H
b10000000000000000000000000000000 I
b0 9
b0 E
b110111 R
b1 )
b1 W
b1 e
b0 T
b0 %
b0 i
b0 (
b0 V
b0 f
14
b0 $
b0 J
b0 j
b0 '
b0 U
b0 g
b1000000 S
b1000000000000000001100100 @
b1000000000000000001100000 0
b1000000000000000001100000 >
b1000000000000000001100000 P
b10000000000000000000000010110111 <
b10000000000000000000000010110111 Q
1;
#250
0;
#255
b0 !
b0 D
b0 h
b1000001000111100110011 #
b1000001000111100110011 a
b0 7
b0 =
b0 C
b0 H
b0 I
b0 8
b0 F
b0 :
b0 G
b0 X
b1000000000000000001101000 .
b1000000000000000001101000 ?
b1000000000000000001101000 ^
b0 "
b0 [
b10011 R
b10 )
b10 W
b10 e
b0 S
b100010011 <
b100010011 Q
b1000000000000000001101000 @
b1000000000000000001100100 0
b1000000000000000001100100 >
b1000000000000000001100100 P
1;
#260
0;
#265
b10000000000000000000111010110111 #
b10000000000000000000111010110111 a
b10000000000000000000000000000000 !
b10000000000000000000000000000000 D
b10000000000000000000000000000000 h
b1000000000000000001101100 .
b1000000000000000001101100 ?
b1000000000000000001101100 ^
15
b10000000000000000000000000000000 7
b10000000000000000000000000000000 =
b10000000000000000000000000000000 C
b10000000000000000000000000000000 H
b10000000000000000000000000000000 I
13
b10000000000000000000000000000000 9
b10000000000000000000000000000000 E
b110011 R
b11110 )
b11110 W
b11110 e
04
b10000000000000000000000000000000 %
b10000000000000000000000000000000 i
b1 (
b1 V
b1 f
b10 '
b10 U
b10 g
b1000000000000000001101100 @
b1000000000000000001101000 0
b1000000000000000001101000 >
b1000000000000000001101000 P
b1000001000111100110011 <
b1000001000111100110011 Q
1;
#270
0;
#275
b11000000000000110010011 #
b11000000000000110010011 a
b10000000000000000000000000000000 8
b10000000000000000000000000000000 F
b10000000000000000000000000000000 !
b10000000000000000000000000000000 D
b10000000000000000000000000000000 h
b1011 :
b1011 G
b1011 X
05
b10000000000000000000000000000000 "
b10000000000000000000000000000000 [
b1000000000000000001110000 .
b1000000000000000001110000 ?
b1000000000000000001110000 ^
b10000000000000000000000000000000 7
b10000000000000000000000000000000 =
b10000000000000000000000000000000 C
b10000000000000000000000000000000 H
b10000000000000000000000000000000 I
03
b0 9
b0 E
b110111 R
b11101 )
b11101 W
b11101 e
14
b0 %
b0 i
b0 (
b0 V
b0 f
b0 '
b0 U
b0 g
b1000000 S
b10000000000000000000111010110111 <
b10000000000000000000111010110111 Q
b1000000000000000001110000 @
b1000000000000000001101100 0
b1000000000000000001101100 >
b1000000000000000001101100 P
1;
#280
0;
#285
b110 !
b110 D
b110 h
b1000111110111110001011001100011 #
b1000111110111110001011001100011 a
b110 7
b110 =
b110 C
b110 H
b110 I
b110 8
b110 F
b1000000000000000001110100 .
b1000000000000000001110100 ?
b1000000000000000001110100 ^
b0 :
b0 G
b0 X
b110 "
b110 [
13
b10011 R
b11 )
b11 W
b11 e
04
b110 $
b110 J
b110 j
b110 '
b110 U
b110 g
b0 S
b1000000000000000001110100 @
b1000000000000000001110000 0
b1000000000000000001110000 >
b1000000000000000001110000 P
b11000000000000110010011 <
b11000000000000110010011 Q
1;
#290
0;
#295
b1111 &
b1111 B
b1111 L
b10000000000000000000000010110111 #
b10000000000000000000000010110111 a
b10001101100 8
b10001101100 F
b1111 !
b1111 D
b1111 h
b0 +
b0 A
b0 Y
0,
06
b1000000000000000001111000 .
b1000000000000000001111000 ?
b1000000000000000001111000 ^
b10001101100 "
b10001101100 [
b1000000000000010011100000 7
b1000000000000010011100000 =
b1000000000000010011100000 C
b1000000000000010011100000 H
b1000000000000010011100000 I
b1000000000000000001110100 9
b1000000000000000001110100 E
03
b1100011 R
b1100 )
b1100 W
b1100 e
b1 T
14
b10000000000000000000000000000000 %
b10000000000000000000000000000000 i
b11110 (
b11110 V
b11110 f
b10000000000000000000000000000000 $
b10000000000000000000000000000000 J
b10000000000000000000000000000000 j
b11101 '
b11101 U
b11101 g
b100011 S
b1000111110111110001011001100011 <
b1000111110111110001011001100011 Q
b1000000000000000001111000 @
b1000000000000000001110100 0
b1000000000000000001110100 >
b1000000000000000001110100 P
1;
#300
0;
#305
b11111111111111111000000100110111 #
b11111111111111111000000100110111 a
b10000000000000000000000000000000 !
b10000000000000000000000000000000 D
b10000000000000000000000000000000 h
b10000000000000000000000000000000 8
b10000000000000000000000000000000 F
b10111010110110111010110111111111 &
b10111010110110111010110111111111 B
b10111010110110111010110111111111 L
b1000000000000000001111100 .
b1000000000000000001111100 ?
b1000000000000000001111100 ^
b1 +
b1 A
b1 Y
1,
b1011 :
b1011 G
b1011 X
16
b10000000000000000000000000000000 "
b10000000000000000000000000000000 [
b10000000000000000000000000000000 7
b10000000000000000000000000000000 =
b10000000000000000000000000000000 C
b10000000000000000000000000000000 H
b10000000000000000000000000000000 I
b0 9
b0 E
b110111 R
b1 )
b1 W
b1 e
b0 T
b0 %
b0 i
b0 (
b0 V
b0 f
14
b0 $
b0 J
b0 j
b0 '
b0 U
b0 g
b1000000 S
b1000000000000000001111100 @
b1000000000000000001111000 0
b1000000000000000001111000 >
b1000000000000000001111000 P
b10000000000000000000000010110111 <
b10000000000000000000000010110111 Q
1;
#310
0;
#315
b11111111111111111000000000000000 !
b11111111111111111000000000000000 D
b11111111111111111000000000000000 h
b1000001000111100110011 #
b1000001000111100110011 a
b11111111111111111000000000000000 7
b11111111111111111000000000000000 =
b11111111111111111000000000000000 C
b11111111111111111000000000000000 H
b11111111111111111000000000000000 I
b11111111111111111000000000000000 8
b11111111111111111000000000000000 F
b1000000000000000010000000 .
b1000000000000000010000000 ?
b1000000000000000010000000 ^
b11111111111111111000000000000000 "
b11111111111111111000000000000000 [
b11111 9
b11111 E
b10 )
b10 W
b10 e
b11111 %
b11111 i
b11111 (
b11111 V
b11111 f
14
b11111 $
b11111 J
b11111 j
b11111 '
b11111 U
b11111 g
b1111111 S
b11111111111111111000000100110111 <
b11111111111111111000000100110111 Q
b1000000000000000010000000 @
b1000000000000000001111100 0
b1000000000000000001111100 >
b1000000000000000001111100 P
1;
#320
0;
#325
b1111111111111111000000000000000 !
b1111111111111111000000000000000 D
b1111111111111111000000000000000 h
b1111111111111111000111010110111 #
b1111111111111111000111010110111 a
b1111111111111111000000000000000 7
b1111111111111111000000000000000 =
b1111111111111111000000000000000 C
b1111111111111111000000000000000 H
b1111111111111111000000000000000 I
b1000000000000000010000100 .
b1000000000000000010000100 ?
b1000000000000000010000100 ^
b0 :
b0 G
b0 X
15
13
b10000000000000000000000000000000 9
b10000000000000000000000000000000 E
b110011 R
b11110 )
b11110 W
b11110 e
b10000000000000000000000000000000 %
b10000000000000000000000000000000 i
b1 (
b1 V
b1 f
04
b11111111111111111000000000000000 $
b11111111111111111000000000000000 J
b11111111111111111000000000000000 j
b10 '
b10 U
b10 g
b0 S
b1000000000000000010000100 @
b1000000000000000010000000 0
b1000000000000000010000000 >
b1000000000000000010000000 P
b1000001000111100110011 <
b1000001000111100110011 Q
1;
#330
0;
#335
b11100000000000110010011 #
b11100000000000110010011 a
b1111111111111111000000000000000 !
b1111111111111111000000000000000 D
b1111111111111111000000000000000 h
b1011 :
b1011 G
b1011 X
05
b1111111111111111000000000000000 "
b1111111111111111000000000000000 [
b1000000000000000010001000 .
b1000000000000000010001000 ?
b1000000000000000010001000 ^
b1111111111111111000000000000000 7
b1111111111111111000000000000000 =
b1111111111111111000000000000000 C
b1111111111111111000000000000000 H
b1111111111111111000000000000000 I
03
b11111 9
b11111 E
b1111111111111111000000000000000 8
b1111111111111111000000000000000 F
b110111 R
b11101 )
b11101 W
b11101 e
14
b11111 %
b11111 i
b11111 (
b11111 V
b11111 f
b11111 $
b11111 J
b11111 j
b11111 '
b11111 U
b11111 g
b111111 S
b1111111111111111000111010110111 <
b1111111111111111000111010110111 Q
b1000000000000000010001000 @
b1000000000000000010000100 0
b1000000000000000010000100 >
b1000000000000000010000100 P
1;
#340
0;
#345
b111 !
b111 D
b111 h
b1000101110111110001101001100011 #
b1000101110111110001101001100011 a
b111 7
b111 =
b111 C
b111 H
b111 I
b111 8
b111 F
b1000000000000000010001100 .
b1000000000000000010001100 ?
b1000000000000000010001100 ^
b0 :
b0 G
b0 X
b111 "
b111 [
13
b0 9
b0 E
b10011 R
b11 )
b11 W
b11 e
b0 %
b0 i
b0 (
b0 V
b0 f
04
b111 $
b111 J
b111 j
b111 '
b111 U
b111 g
b0 S
b1000000000000000010001100 @
b1000000000000000010001000 0
b1000000000000000010001000 >
b1000000000000000010001000 P
b11100000000000110010011 <
b11100000000000110010011 Q
1;
#350
0;
